7.365777723064723982e-03	1.623007093680599866e-01	9.867138516597210307e-01
2.330793888594356600e-01	-5.262741000587428664e-02	9.710326226265425520e-01
2.352932750253550198e-01	3.026699534560160776e-02	9.714530270273462609e-01
-5.748203602876304080e-02	-7.525523576643959600e-02	9.955061351010018322e-01
9.393223478117501690e-02	3.345683781214487396e-01	9.376783753666257937e-01
1.348665995088179081e-01	7.470160681757030685e-02	9.880438605020547271e-01
1.237824448505343540e-04	2.720705151057798421e-01	9.622773090372560567e-01
1.345255687227666641e-01	-5.807457856218173342e-02	9.892068614221427580e-01
-1.999982169592102177e-01	-5.077879796912814631e-02	9.784795485292170358e-01
8.091016260835449947e-02	2.171294505814944879e-03	9.967190331617300503e-01
1.573676319220920494e-01	-5.228565764432711871e-02	9.861549768813901995e-01
-5.316948884006236775e-02	-2.122243288255534766e-02	9.983599620372556327e-01
-3.722190368647583514e-02	-3.804277751154402226e-02	9.985826340194144946e-01
3.529096704475763180e-01	6.456922056608261837e-03	9.356351172664134630e-01
9.115013903626509317e-02	-1.370581213152503308e-01	9.863603416273387658e-01
1.526467536450932527e-01	-1.029162661091071462e-01	9.829075291052439267e-01
3.442411695594896175e-03	4.292607914393696544e-03	9.999848615449214995e-01
1.567449397996182048e-01	-8.804167626924375156e-02	9.837071144842417514e-01
-1.613249008638550641e-01	-1.684479205746365338e-01	9.724194436637649819e-01
2.011762148818715124e-01	-2.141630466888365392e-01	9.558568512066841771e-01
-1.600986229591673873e-02	6.833671330319623927e-02	9.975338480092676985e-01
1.324291015271625849e-01	1.287624232408342007e-01	9.827933513358030337e-01
-3.586544598363670261e-02	2.779553375081942335e-01	9.599242158290934857e-01
-4.360989010272686012e-02	-1.026113021360272951e-02	9.989959392770132451e-01
1.924047524760596484e-01	-9.407335565295746327e-02	9.767960969316079600e-01
2.724466452857452620e-02	-1.501729735593377302e-01	9.882842740158667150e-01
-3.547581793559424074e-02	1.311691047236685122e-02	9.992844504951794438e-01
1.640003589560419528e-01	-1.770562207469837668e-01	9.704406097011245569e-01
1.054385753800884430e-02	-3.705429937326002454e-01	9.287554666670345682e-01
-2.287950448538604575e-01	-8.759104490059638204e-02	9.695259853678720452e-01
1.658244097718811899e-02	1.143384376043070499e-01	9.933034502796436183e-01
-7.130438693689087302e-03	1.091296841243313553e-01	9.940019461182987293e-01
-3.193297208481898353e-01	2.623153006129280707e-02	9.472805477859554957e-01
-1.327271739430129216e-01	1.872384100232609982e-01	9.733063624106548239e-01
-2.598146705374536070e-01	-5.955105853347445605e-02	9.638205270697733917e-01
-1.818909552691596043e-01	2.029283509124054363e-01	9.621516329494255171e-01
2.803497644190641389e-02	2.732400300936597692e-01	9.615372723146597966e-01
-5.090964173772324908e-02	-5.941770019599089403e-02	9.969341729931564533e-01
1.721558391605901017e-01	-5.248169954319611280e-02	9.836706960441421455e-01
-3.547828550959536975e-01	-4.320680429110612848e-03	9.349387452932904630e-01
-8.551878923880108785e-02	-2.489104393268956050e-01	9.647435565378086331e-01
3.587005089243732181e-01	-2.026878099359903374e-01	9.111814290253887894e-01
1.716430334760644244e-03	-2.973413872441989514e-01	9.547696859968927141e-01
-5.562214093544014769e-03	1.762250803304360736e-01	9.843341824994770173e-01
-2.804461761806978926e-01	-7.607992934586578493e-02	9.568499289942774544e-01
-2.319904400647563036e-01	8.008702664863647999e-03	9.726850962157199687e-01
2.882849475709654552e-01	-9.518205745393733264e-02	9.528022695936675390e-01
2.011156259928355006e-01	1.067811703681994656e-01	9.737300892117416451e-01
-1.186155270300843778e-01	-1.075672881099811601e-02	9.928819917455717903e-01
-1.751634621976516926e-01	1.593008535487334953e-01	9.715662610288474665e-01
-2.386632426834801174e-02	3.244080085316461970e-01	9.456161179709491327e-01
-3.987578936577307331e-02	-7.196218019584421643e-02	9.966099367575608214e-01
9.990475086413397321e-02	-2.378870568036228206e-01	9.661411847965509780e-01
-2.370487989503380910e-02	7.585981963406605855e-02	9.968366799201646700e-01
-1.162242331155222130e-01	-3.816034187530876337e-02	9.924896553338365957e-01
7.113996688951619574e-02	2.765840816250815792e-01	9.583529365022938062e-01
2.676237049385351008e-01	5.359947125078065588e-02	9.620315219558088771e-01
3.145081901051990370e-01	8.345767905688609989e-02	9.455788778114646576e-01
4.240601980311007810e-03	-1.525442351727596124e-01	9.882875460160402969e-01
8.893338182819376936e-02	1.834034099679014151e-01	9.790066612688338443e-01
2.640222533042402286e-01	1.292653794143276968e-01	9.558152077912447364e-01
2.582332727626942548e-01	-1.016051879360726773e-01	9.607247069908968484e-01
6.612273205120897113e-02	1.684182517792697509e-01	9.834953364270230258e-01
2.412989708133028016e-02	-2.371157819525065713e-01	9.711816792011150890e-01
9.259361134166348845e-03	-1.475618459968805196e-01	9.890094872332487741e-01
9.700065295541857036e-02	1.828898581193335107e-02	9.951162677417144664e-01
-3.346699310423326135e-02	-1.687164617518462431e-02	9.992974071455902330e-01
1.395580621239712049e-01	1.047339535003423833e-01	9.846595077895626824e-01
-1.973951804207344785e-01	-2.993049129070740610e-01	9.335157801860421989e-01
-1.285054461359818323e-01	1.672987347508231026e-01	9.774955159304661301e-01
-5.490645774768088128e-02	3.450435047269074795e-01	9.369793278100509992e-01
2.586521949584997815e-01	1.895169323432863984e-01	9.471971148595920154e-01
-1.863726569613669282e-01	-8.403349016816960559e-02	9.788787490120112178e-01
-1.469708535349215084e-01	2.111075228605285570e-01	9.663504447160490285e-01
-1.109125644444968611e-01	-1.223750706495414509e-01	9.862670759646486873e-01
8.889856809844279284e-02	-3.667292766814046479e-01	9.260705600626675249e-01
2.517225453172604044e-01	-3.569081240626974932e-02	9.671411097088045139e-01
-1.480954785002835394e-01	-1.796753622976007478e-02	9.888098385885970565e-01
-1.036476391998362550e-04	5.463027556474615853e-02	9.985066460714605574e-01
-3.493559366172342973e-01	-1.341637410806641451e-01	9.273351714075857011e-01
-9.543329764273501825e-02	1.630196233934505246e-01	9.819964806910895794e-01
1.889433971492594511e-01	2.807777284095002157e-01	9.409911051135912974e-01
-4.240218341471740926e-02	5.590807288627586136e-02	9.975351333300492840e-01
1.262650635145894373e-01	3.837518300031574348e-01	9.147631752015845663e-01
2.116542936012968390e-01	-1.349459153875604278e-01	9.679835018843802041e-01
-1.500163819944434762e-01	3.274620977235258579e-01	9.328792310303658519e-01
2.721365438073058973e-01	-9.557283007563272675e-03	9.622111825717521993e-01
-1.316778179890661614e-02	7.845656138367722299e-02	9.968305660935271595e-01
1.298420625691293351e-01	9.736898790937015269e-02	9.867422758660405746e-01
-2.811913791928951634e-01	9.632848307506429453e-02	9.548048133603307397e-01
-1.450424908322011930e-01	-9.301061747345190645e-02	9.850440096210932861e-01
1.878894404016412945e-01	2.308979809488906354e-01	9.546641716222967755e-01
-4.900689986979170354e-02	-1.393113289288070572e-02	9.987012803143198170e-01
-1.399202176170040723e-01	5.324597000727175622e-02	9.887300943027894640e-01
5.609371222285066544e-02	-2.259100709607724244e-01	9.725318171080885588e-01
6.587114404160286651e-02	5.132415087473375659e-02	9.965073125269294785e-01
-3.391543763533880901e-02	1.671452821844376380e-01	9.853487695904858956e-01
-7.753170449162405387e-02	-5.559871067916306864e-02	9.954384050102910164e-01
-6.981198105858169023e-02	3.249851916353037051e-01	9.431388617369345084e-01
-2.371316732035680108e-01	1.773846251923692219e-01	9.551456770090281934e-01
1.750734946781329626e-01	8.344267020246660949e-02	9.810130438738648984e-01
-2.980757324227268495e-02	-2.362781269085889035e-01	9.712281685175617740e-01
-2.458312509798417367e-01	-2.166230113432059401e-01	9.447970506930497558e-01
1.189671762933000032e-01	2.499254664482765051e-02	9.925835902214992235e-01
-1.659372773569906812e-01	-2.074457785724879710e-01	9.640700539565586480e-01
7.096513576028135040e-02	-1.555324707542437290e-01	9.852784378274035415e-01
7.190085468000943780e-02	1.054798655944000768e-01	9.918186654073762876e-01
1.935561951833389971e-01	-1.032544941125942556e-01	9.756405632976207221e-01
-2.503362272712352787e-01	9.706209798811017697e-02	9.632812270825945600e-01
-3.113445552379516534e-03	-8.061766199064325511e-02	9.967402364868933606e-01
-2.492658232332158608e-01	2.094024998785233571e-02	9.682086837548566916e-01
8.396081299130793429e-02	-4.406199877016701849e-02	9.954944109065713143e-01
-2.226002725658268455e-01	-2.290299791266600382e-01	9.476256577968218409e-01
-3.945980514172826858e-02	-2.491804752409630952e-01	9.676528378178107515e-01
2.023193961806199759e-01	1.506901125098225429e-02	9.792036493135752862e-01
-1.040151382940509260e-02	3.057458590526878073e-01	9.520563419158503127e-01
-2.573972893596464598e-02	-1.527665192675342273e-02	9.995519447533529611e-01
-1.633257401683694543e-01	-2.554204542111339071e-01	9.529349894767381590e-01
-1.315056917973210331e-02	5.284027781981015526e-02	9.985163832257220040e-01
-8.089398207465316182e-02	-7.604966979795343973e-02	9.938171921373298856e-01
-1.294183135250492889e-01	-1.561318811982262134e-01	9.792209841490482347e-01
-6.783324002438780032e-02	-4.750375126174969515e-02	9.965651233932798503e-01
3.140116752660471744e-01	-8.563321504452715838e-02	9.455493748492199702e-01
-4.661076935252317366e-02	-2.796364802060014032e-02	9.985216425144430863e-01
-1.873245966059350898e-01	1.458251866992980039e-01	9.714136659685896902e-01
5.643324957367207295e-02	2.294848942884036792e-04	9.984063479762360638e-01
3.700168732528583138e-01	-6.747971318477312408e-02	9.265710991697726495e-01
-1.177497618716102229e-01	-2.629339985249067868e-01	9.576015382187333946e-01
1.768087128068143721e-01	2.355854845411858578e-01	9.556349504643983916e-01
-2.773964620846818829e-01	-1.778949714011182348e-01	9.441422466837811056e-01
-1.828503769699832415e-01	-2.246776512251603963e-01	9.571236558992149979e-01
2.480293069578605181e-01	-8.024714411903612066e-02	9.654231501008976313e-01
-2.529190061638849629e-01	-1.036726893936656541e-01	9.619168102257902309e-01
3.256098711801125312e-01	-2.025896300859972576e-01	9.235451551341108400e-01
-1.510300774344705832e-01	-2.539555640528287084e-01	9.553514992905731695e-01
-1.300707034280144947e-01	2.183516264256189082e-02	9.912642623347844850e-01
5.342370118672209144e-03	2.815013497365025791e-02	9.995894302074647131e-01
1.172188094844056339e-01	2.551053092231925831e-03	9.931028359798269589e-01
-2.255216392516550539e-01	1.199493163992522565e-01	9.668258125043009965e-01
1.999364931207009699e-01	-1.139090653808526726e-01	9.731650032459322475e-01
-6.808850364792336241e-02	1.366580364803084147e-01	9.882755368500873994e-01
-6.630674335317347790e-02	-2.523404144471613209e-01	9.653640406719800060e-01
2.379609535905022610e-01	-5.272334656411497428e-02	9.698426848171725068e-01
1.257437832387273691e-01	-3.498623771513099112e-01	9.283236601696885915e-01
-1.964062581358639314e-01	2.363958939801875658e-01	9.515994761843759031e-01
8.191449877223035483e-03	-8.889844903587944269e-02	9.960070109732758192e-01
1.435294151837811227e-01	1.844503916273742550e-01	9.723051784319119983e-01
-4.194371006141033725e-02	-1.094896757980044766e-01	9.931025808444660097e-01
-8.337166184017220927e-02	2.310063164022418680e-01	9.693736368316799856e-01
-5.674945374011945709e-02	1.328309589350625541e-01	9.895127264712630932e-01
1.713544234643810671e-01	-1.501555817781347890e-01	9.736996265892563507e-01
1.519848322935915541e-01	-1.544876516470482519e-01	9.762346932173979752e-01
-9.879742243752907827e-02	1.104577467306072924e-01	9.889581161540133003e-01
-1.969619274449298241e-02	8.794541322157027954e-03	9.997673309497084881e-01
-2.522925564453291636e-01	-2.257616053108883747e-01	9.409464190535675732e-01
-2.274611548640420589e-02	6.529204866798325735e-02	9.976069178845037300e-01
-6.006572206006025039e-02	-3.825811792716322240e-02	9.974609894357169271e-01
1.891997294722515266e-02	-3.233856499611978408e-02	9.992978794321870639e-01
1.750736859285063340e-01	2.804685300106669540e-02	9.841557694451364968e-01
-5.148981791810674363e-02	2.508444241281390305e-02	9.983584373358058706e-01
-4.770795588403552168e-02	2.233426950317317916e-01	9.735717700926473928e-01
-1.152656095731351416e-01	1.831705310209237880e-01	9.763003614745050518e-01
1.994775581285795352e-01	-2.411662417791358703e-01	9.497618373198553066e-01
2.333861290666704863e-02	-1.397357867965809408e-01	9.899137432301507999e-01
1.431762625172203485e-01	-1.116255776818268208e-01	9.833820662686506564e-01
-2.543771535859831734e-01	2.710675429854091378e-01	9.283397281563200432e-01
-1.714401700406548434e-01	-2.620249459229668787e-01	9.497111117653076473e-01
-2.158192492112930294e-01	1.175971199704697323e-01	9.693260385672725077e-01
4.176961666546795404e-02	-1.856139435483964914e-02	9.989548407026369592e-01
-1.214098161081664934e-01	3.267226831578744495e-01	9.372896803351161710e-01
7.645273486975770472e-02	-2.860174236496960676e-01	9.551696250926975384e-01
3.997743342582055215e-02	9.356532737533106506e-03	9.991567745413180157e-01
-2.679300595100910787e-01	-1.601174691992462984e-01	9.500399356175236454e-01
3.217044783208906078e-01	6.520834045958318059e-02	9.445920288477905880e-01
1.314010614163059476e-01	-4.171357585393542511e-02	9.904512803001206400e-01
1.952535101506036874e-01	-2.227714566033185684e-01	9.551172414403912292e-01
-4.514554107404696731e-02	1.381401204129705795e-01	9.893832357855159021e-01
-1.052905176035747042e-01	-8.743620145872427543e-03	9.944030651649857777e-01
3.888049245031827833e-02	-2.546770165885092405e-02	9.989192677484119987e-01
-1.805786691994423418e-02	-2.951750435575722226e-02	9.994011358703319692e-01
-9.269914911133984858e-02	2.518668564262748766e-01	9.633119714754807550e-01
1.982089156353174231e-01	2.793679558137762697e-01	9.395034704710277795e-01
-1.615553362647757507e-01	4.400090461902547018e-02	9.858822413032323206e-01
3.197381683344949210e-02	-3.953133112764115054e-03	9.994808891498094816e-01
3.887460008694300362e-02	-2.787516651304257631e-01	9.595760911231013823e-01
-2.357575810061289176e-02	-6.179635514163410795e-03	9.997029537492083673e-01
-2.276653054404333132e-02	1.971847296589375464e-01	9.801019678973819094e-01
1.598499452085597461e-01	4.431390921499008678e-02	9.861461719577426788e-01
-2.165081134060915236e-01	8.307288450145448866e-02	9.727400128965275616e-01
-1.258428319814920981e-01	-1.740663051955156082e-01	9.766598706993466772e-01
-1.414809594535544612e-01	-1.205245109673922649e-01	9.825767045723040605e-01
-1.357694219054129126e-01	3.062123494390642797e-01	9.422317449154848923e-01
1.328780451134578544e-01	1.208631841208276381e-01	9.837354907956712413e-01
8.702923144559839008e-02	-4.025335420491091276e-01	9.112588328237962720e-01
2.011539309842611672e-02	-1.534992483784093295e-02	9.996798241276949604e-01
-8.051084243669957494e-03	-3.758016245817184103e-02	9.992611827906208166e-01
6.311989785859468960e-02	2.329686455096348363e-01	9.704336601250649341e-01
-1.507261649846194373e-01	-5.295910300416603600e-02	9.871559940546512646e-01
2.795684037415863687e-01	1.594976972101132817e-01	9.467850823782839598e-01
-1.540217228354709145e-01	-1.182945593443794352e-01	9.809606037575154813e-01
-4.217567765820761511e-02	-3.588905846087180329e-01	9.324262761705521818e-01
-1.840623545937261907e-01	2.027855221106892314e-01	9.617687256527469586e-01
3.581358337779281809e-01	-6.222957765144751692e-03	9.336487558824481114e-01
-2.245376655147757541e-02	-8.465725850885866266e-02	9.961571045520000167e-01
-2.662566864782038856e-01	2.089536277502267447e-01	9.409812741790698487e-01
1.167492355233867712e-01	-3.630117621855844662e-02	9.924977786422815029e-01
1.528538551510493990e-02	-9.280944592254915249e-02	9.955665541475411384e-01
1.287289763336836312e-01	-3.473516517924347125e-01	9.288571906644987886e-01
5.184716366450130287e-02	-2.868181987455077908e-01	9.565809910762004264e-01
-6.086508887846141941e-02	1.229545181757782796e-01	9.905441067494040741e-01
-9.207627168330134726e-02	3.357918249388130993e-01	9.374250959394895277e-01
-7.695001718060420770e-02	-3.565913657412880244e-01	9.310860823439832679e-01
-1.034620303621346452e-02	-2.956452081388238340e-01	9.552417845693746967e-01
-2.069986229638099973e-01	-1.262782658148527692e-01	9.701573942788267457e-01
-1.233051781128977481e-01	-3.619495731404222261e-02	9.917085046098861323e-01
2.272467118103698499e-03	-2.362331702113020515e-01	9.716937404270513667e-01
1.397515670353365602e-01	-1.087654701117626854e-01	9.841948851840974788e-01
5.656232910657206514e-02	-5.184181802645059650e-02	9.970522197105572415e-01
-2.729432450084545159e-01	-1.774881269745330059e-01	9.455157057327613357e-01
-1.017551936928653700e-01	-3.239100885212800041e-01	9.405998804543105329e-01
8.523292373304837410e-02	-1.213504845211434927e-03	9.963603144033301717e-01
-6.114031192665559528e-02	-3.113350552819854275e-02	9.976435070159290763e-01
7.387971810436397280e-02	4.354302376668831021e-02	9.963161106466477124e-01
3.668432854192539283e-01	-2.846981690962194569e-02	9.298470161633809461e-01
-1.809996475256956949e-01	-9.537595121834450962e-02	9.788475650093714231e-01
6.977252346441346897e-02	2.331050749811130474e-01	9.699452659750747996e-01
1.320341307247574203e-01	-1.773115189164475580e-01	9.752577164951334865e-01
-2.536972942827030522e-02	-5.185896942102095897e-02	9.983321211497326875e-01
1.618815455518493318e-01	1.868125606458855004e-02	9.866333543326000211e-01
-7.801231887235514362e-02	-1.660070099906174879e-01	9.830339519762961720e-01
-5.433958793422419969e-02	-8.356717981607894585e-02	9.950194649556964865e-01
-2.021006857438128468e-01	-9.178304034451878479e-02	9.750544530060831772e-01
6.276381920013623938e-02	7.961025358018364306e-02	9.948481846615118140e-01
-3.327727121727697690e-01	-1.504666621453368824e-01	9.309254028202372799e-01
-1.667000554746124186e-01	2.355348674661373806e-02	9.857262930280604740e-01
-8.320161277297398461e-02	-1.932415179877119416e-01	9.776171067231710365e-01
2.772565911500477487e-01	-9.262944532770968353e-02	9.563203273601024179e-01
3.337759029095398872e-02	-1.796084285608041953e-02	9.992814141122893234e-01
1.159717845321634050e-01	-1.697767072007915490e-01	9.786349753020703313e-01
-2.020778696751699965e-01	6.837776859423251585e-02	9.769795368121162449e-01
1.326479048677501119e-02	-1.397433938098330275e-01	9.900988987065111324e-01
1.627888741382519655e-01	2.139791584474232122e-01	9.631784373660646770e-01
-1.535116116978868239e-01	-1.194467146474538360e-01	9.809009468003604404e-01
-1.216898108518604388e-01	2.851525915406209061e-02	9.921584903281381873e-01
1.036777479362638865e-01	-5.875789935686407534e-02	9.928738257432493386e-01
-9.441485749479749945e-02	-1.076660902688426763e-01	9.896938151218555024e-01
1.132695222322817608e-01	-2.722644295662374203e-01	9.555323624693425888e-01
7.654769155822231663e-02	-1.481949832510764675e-01	9.859912260544330120e-01
-2.617756054372293723e-02	2.064406427133314362e-02	9.994441244683678338e-01
9.623451066587386526e-02	1.397255137611737585e-01	9.855027649687598812e-01
-1.348400100006280355e-01	-1.643361260017484615e-01	9.771447228500877991e-01
1.114438611792172573e-01	1.236584297248213282e-01	9.860470873966727945e-01
1.834859030479862041e-01	-4.248512386374854455e-02	9.821038324092519201e-01
3.986253141295346275e-02	-8.726147017014015961e-02	9.953875699510659203e-01
-1.048129303910412952e-01	7.125234604094619895e-02	9.919361636751160560e-01
-1.790084734242338993e-01	-1.699241645870460393e-01	9.690623017802920680e-01
-7.580979728402924278e-02	-6.184310613358411785e-02	9.952026451228472848e-01
9.563122917584433724e-02	1.087063804461630007e-01	9.894632842387930394e-01
2.106895091755302263e-01	-2.751902698549299475e-01	9.380193207501346109e-01
2.499132287661940954e-01	2.110238492307837110e-01	9.449932873536600608e-01
4.165074967868042516e-02	-9.013581106651510216e-03	9.990915725832386629e-01
2.620598864396745387e-01	1.703675791860532751e-01	9.498944698657374452e-01
5.105366531139846759e-02	-2.086766731957589160e-01	9.766512014645890583e-01
-5.287381551995661705e-02	3.441521232635636474e-01	9.374239572816251975e-01
-9.334383577643153018e-02	-2.839458675460418413e-01	9.542859490876238748e-01
-1.846763141604355063e-01	1.524805166579853988e-01	9.708987336626968556e-01
-1.398310276990397394e-01	-1.440537712534326886e-01	9.796406456861063150e-01
-2.169222929561164248e-01	-2.541218764812883113e-01	9.425321165415471159e-01
-5.647275097496404911e-02	6.361345854165179059e-02	9.963755096798049271e-01
2.498738977899182534e-01	-2.029535669892494620e-02	9.680656660060505958e-01
7.172720317692116154e-02	2.853268092716533810e-01	9.557425491392940176e-01
2.591870034031208969e-01	2.231041859111664027e-01	9.397056025670099677e-01
-2.427166671625508865e-01	-2.637870002792350732e-01	9.335443417241556796e-01
-1.343624419403065262e-01	3.160237513159120937e-01	9.391888642866522696e-01
-3.008827293502207983e-02	-9.344797151449339701e-02	9.951694189692622539e-01
-1.747831454245779015e-01	-2.953983699218833830e-02	9.841637313506165219e-01
-9.588606742713443043e-02	1.380473886236691927e-01	9.857731892111579741e-01
-3.385569576678602866e-02	3.556063316070580127e-01	9.340224455467412978e-01
-5.800967339381907228e-02	5.890320800348512048e-02	9.965767857418870168e-01
-1.419786620536450106e-01	-9.993029099952107849e-03	9.898192758735617769e-01
-6.208900390972131589e-02	-2.183130193904300465e-01	9.739016280703788331e-01
-3.375531851903099123e-02	3.187889803956449053e-01	9.472244530468928447e-01
6.808754805158920287e-02	1.575463995251922406e-02	9.975549494239797088e-01
1.156070446708808673e-02	1.987907800939742731e-01	9.799737628436082648e-01
-5.244270860076958446e-02	-1.371474871196309564e-01	9.891614272156943333e-01
-9.896735436948973785e-03	3.302408941580976531e-01	9.438447999821505396e-01
6.725562174737253346e-03	-2.983175995436612715e-02	9.995323070873942672e-01
4.019718325035632339e-02	-1.639198030428689334e-01	9.856543433826698841e-01
-2.144358539301067235e-01	-2.879018370214197486e-01	9.333433434642145476e-01
-2.813963035597694118e-01	-6.168458891140332634e-02	9.576069819261612270e-01
-6.298970613091044168e-02	1.110237574256256049e-01	9.918195512333041197e-01
3.849261248239200378e-02	-2.728714421578528060e-01	9.612801333841096696e-01
-3.727761018980568081e-02	-4.930171305167741630e-02	9.980880326247330014e-01
3.513942293240829989e-02	-6.043071619992897853e-02	9.975536825131513519e-01
1.795835472582746617e-01	-1.769817127264441403e-01	9.676916982771673892e-01
2.053412298052884333e-01	1.557572537122644818e-01	9.662166720037810297e-01
2.321175534294887266e-01	2.144670907205391552e-01	9.487493390710612928e-01
-1.722732124513820171e-02	2.939106976748051200e-02	9.994195237339772442e-01
1.272321600724059991e-03	-5.321764681440338714e-03	9.999850298971535434e-01
1.518379404693357138e-01	-2.136673403327145337e-01	9.650344592340595051e-01
5.362390990020284715e-02	2.858902640071611101e-01	9.567608025169781483e-01
1.528861505793169817e-01	-2.933546593677419656e-01	9.436995648977889450e-01
-1.670302431838988910e-01	-1.164966309974239111e-01	9.790451638347344998e-01
2.011776697997535446e-01	-3.818873672815407128e-01	9.020474399302460533e-01
2.281520764424625203e-01	1.602866888247223287e-01	9.603409849634660933e-01
-1.057582669339788839e-01	-2.838374883463862242e-01	9.530222815781040913e-01
2.437068090416018989e-02	8.632582193840081242e-02	9.959688360480586367e-01
2.116766207220741047e-01	1.471261492930345804e-01	9.662023103025008108e-01
9.762294870811130676e-02	1.260772774025479270e-01	9.872052876723772519e-01
6.563642397680884144e-02	2.593666617802956043e-01	9.635459483618210585e-01
-2.623889920254779407e-01	2.547323706860628589e-01	9.307327415474914156e-01
6.365361829705015739e-02	1.362261312783893119e-01	9.886306985091171118e-01
2.154305076267596653e-01	-1.986118556345794206e-01	9.561082716853070984e-01
1.458719735901177761e-01	3.234389005152393248e-01	9.349377759799925025e-01
-3.571161780115339728e-03	5.773381335029183214e-02	9.983256250340288851e-01
1.499863247040577052e-01	-2.200178588557023529e-01	9.638963866445015016e-01
2.341930940633048328e-03	-3.442535696921723842e-02	9.994045277849290532e-01
-6.900873151035481767e-02	-6.151748457093416528e-02	9.957175272472621463e-01
6.332230968033493446e-02	-2.687975230939386451e-02	9.976310761060549481e-01
-2.396373529063210439e-01	1.599741467336979750e-01	9.575918814760692177e-01
-1.328675222828117064e-01	8.071982330543291118e-02	9.878413494321703903e-01
-9.149437803749430899e-05	-6.491631645450095245e-02	9.978907071852872734e-01
8.517076426101601039e-02	1.388707592696163118e-01	9.866411977690128232e-01
-9.673521727383954660e-02	1.943620481797951050e-01	9.761483964881274566e-01
8.010487353145667733e-02	-2.399173922909292322e-01	9.674827409896401553e-01
2.877585415756452325e-01	9.431153701280479973e-02	9.530479294015277159e-01
1.544857576532539800e-01	-2.446270671276387643e-01	9.572312932154020126e-01
4.086248038608075728e-02	1.518312225480737132e-01	9.875614095114538804e-01
-7.586910198177065912e-02	-7.913062696471108437e-02	9.939729489481305968e-01
-3.546918260540705276e-02	-8.655049316023098738e-02	9.956158642865390318e-01
-4.769319513195108273e-02	7.112275106440853201e-02	9.963267101805171055e-01
1.391842093811167594e-02	2.435325956658798419e-01	9.697928399440916003e-01
2.104564537828002360e-02	-4.003778190885900340e-02	9.989765046438443541e-01
-6.555134071728745127e-02	1.395711785858601284e-01	9.880399323095786501e-01
1.433934933043941040e-01	5.437976255658531766e-02	9.881706064755449992e-01
-1.672755667791226419e-01	-9.159890134904007108e-02	9.816458251479353025e-01
6.221132946441806921e-02	-3.206694788375979792e-04	9.980629477429497909e-01
-1.032929434733029367e-01	-1.002488380866439488e-01	9.895861449570227952e-01
-7.702320710196706999e-02	8.971184964358162872e-02	9.929849996859285710e-01
-2.840368843711842950e-01	-2.897716146754937550e-02	9.583753817946256692e-01
1.187596389887394799e-01	3.479126486798182760e-02	9.923133154584570237e-01
9.600543946126735562e-02	-1.633675086906581364e-01	9.818828915395430013e-01
-1.576764575504641386e-01	-1.345683937156894050e-01	9.782788366039198991e-01
-1.306287427280806122e-02	3.303117396374939396e-01	9.437814980033163437e-01
3.375637231576222169e-02	4.084445311405275614e-03	9.994217451279365783e-01
2.422726063376049177e-01	1.724730157500786731e-01	9.547549649289369667e-01
1.536939611042912462e-02	1.617570516257140212e-01	9.867109191209725294e-01
3.291063871511049760e-02	2.453259550320400703e-02	9.991571656237308030e-01
4.185857340113793845e-02	1.986745958281292412e-01	9.791712132233836297e-01
-6.064451735788563974e-02	-2.098382183707568627e-01	9.758535569568917989e-01
8.732038562039012852e-02	1.361313177013727949e-01	9.868350493349925534e-01
2.387249973549756821e-01	2.655106637521071344e-01	9.340848264862141592e-01
2.118227478079577064e-01	1.799753128585716566e-01	9.605935718463581852e-01
1.551862837485058766e-02	6.865731884897821602e-02	9.975195961693338331e-01
-2.261064376249226904e-01	-1.445162195164289010e-01	9.633228644443400102e-01
-2.494253814349126352e-01	2.361349307607258641e-01	9.391630708086197155e-01
7.908161155377296803e-02	8.950190126997270568e-02	9.928421366879640608e-01
8.281823592235089404e-02	-2.515815585070924065e-01	9.642861915519947980e-01
1.569967541675922340e-01	-2.014525009571201952e-01	9.668344786151161774e-01
-5.124533710873258735e-02	-3.112457778678961486e-03	9.986812444575027259e-01
-1.376541705125705617e-01	-3.090656687790657164e-01	9.410258985398061160e-01
-3.501433955790868024e-01	5.886469321035688734e-02	9.348446664690325258e-01
-1.939711838404074573e-01	-2.561266211190019182e-01	9.469816966519010171e-01
-9.145801779129920928e-02	1.113020813588044278e-01	9.895692384400800456e-01
2.475175776138290873e-01	-5.221849978127483111e-02	9.674752074615533548e-01
-2.535713478624347372e-01	-1.689243854291787913e-03	9.673152112927986268e-01
2.088743957261045003e-01	-1.548104876083890302e-01	9.656113088279926204e-01
-2.167101742305465456e-02	7.661618901245798030e-02	9.968251233717289050e-01
-1.850010201911276297e-01	2.199297072687484700e-01	9.578128973807559232e-01
-7.034258525693883046e-02	2.616754401232257998e-01	9.625891567723391384e-01
-1.130194799046127102e-01	-7.154340674431619584e-02	9.910136921927519271e-01
2.788479646423568381e-01	-9.535842161111437662e-03	9.602879153301316917e-01
2.686290351926277631e-01	1.563921041100108378e-01	9.504630193876679733e-01
-2.664161258052275549e-01	-1.020257778358503592e-01	9.584431065889731371e-01
2.959129770435502960e-01	8.563382405549908871e-02	9.513686762737447733e-01
-6.332920103427853650e-03	-2.784218469237517146e-01	9.604380090763454669e-01
1.636620468211512705e-02	-3.113264075788496621e-01	9.501620994800572539e-01
-1.293564066851847494e-01	-2.774176672514273023e-01	9.520012384163543118e-01
1.641240306049880082e-01	2.637903233052178997e-01	9.505145805870105491e-01
-3.133419329730445790e-01	-2.857610908044782780e-02	9.492103239169595863e-01
-3.898074141164920015e-02	1.819930267207694463e-01	9.825268647848811598e-01
-1.512447147820436266e-01	8.541470837181734665e-02	9.847991489863564540e-01
1.568121527941780669e-01	1.870029516093097144e-01	9.697627776036079617e-01
-4.424289872992437367e-02	1.500721468013106567e-02	9.989080785635502391e-01
-1.140472556902977913e-01	-1.787135102227354888e-01	9.772690032602990851e-01
9.061642267407887807e-02	5.482926527861654159e-02	9.943753896847832285e-01
-2.078481813557787328e-01	2.475746319384074245e-01	9.463117536666553198e-01
7.873408077941640047e-04	-9.395195152520069426e-02	9.955764214258300271e-01
-6.286469116532900081e-02	3.170932647570423590e-01	9.463085606980458087e-01
-1.584875549755729585e-01	-1.799937569011691718e-01	9.708161218245532353e-01
1.066226823185738998e-01	7.209465846552430557e-02	9.916823906049435644e-01
-6.042930774867322219e-02	9.900427811528705185e-03	9.981233792944421701e-01
-1.260704308523419581e-01	1.527897306148392198e-01	9.801844442161617987e-01
7.347855062986706487e-02	2.271260954600010373e-01	9.710894085296322142e-01
-8.274290783077091482e-02	1.344296009998300068e-01	9.874625530007343777e-01
-1.437059678221407066e-01	2.687656002155413421e-02	9.892553994463284539e-01
8.239257592636017868e-02	-1.924012477869619375e-01	9.778513298463303860e-01
-2.240539309420834235e-01	-2.884660201563706283e-01	9.309066501237079905e-01
1.678610525460723091e-01	1.792440446390712594e-01	9.693782747202192018e-01
1.616395450422293267e-01	-1.769594260297616684e-01	9.708542728019249335e-01
2.403909100139656630e-03	-1.535090439705695808e-01	9.881443187309630893e-01
-8.610998889439344661e-02	2.830782581899061179e-01	9.552234134236737839e-01
2.373220364743878208e-01	-1.380494771479953697e-01	9.615719384751282295e-01
3.150419993453523748e-01	-3.950949311382343648e-02	9.482549966134482533e-01
-1.323253212328108497e-02	5.402938844795800860e-02	9.984516639665415028e-01
6.471883254458161983e-02	-3.480845068187806562e-02	9.972962671519419731e-01
-2.015087338421458346e-02	-1.762024281285592131e-01	9.841476752111192328e-01
-9.917114999261102126e-02	2.790095965103251974e-01	9.551537719468469190e-01
-2.026457677423437742e-01	1.238046399006781928e-01	9.713944121494533235e-01
4.044912143385580999e-02	1.096127489156766416e-01	9.931510025420958732e-01
-2.589470921421396787e-01	1.179494537059631587e-01	9.586627821301931807e-01
1.557350959157735859e-01	-2.120628402219741915e-01	9.647672940647891160e-01
-2.882464905641445030e-02	4.272094296942961777e-02	9.986711473946707773e-01
1.241112921997991475e-01	-2.956036909250868150e-01	9.472142550975258812e-01
-5.637379752405530242e-02	-2.537836400266811968e-02	9.980871372747329717e-01
4.290715068958161210e-02	-1.360178068661215683e-02	9.989864703697673987e-01
-5.402419893112508920e-02	1.452428022635928462e-01	9.879199938863851838e-01
6.106104581883201043e-02	1.264994277856379135e-01	9.900855738033023101e-01
2.364003468507032690e-01	-1.932587434037207341e-01	9.522425815446837749e-01
8.954149508554047621e-02	2.701311199534342511e-01	9.586508742449194598e-01
1.573146262859786149e-01	-1.963517037344353622e-01	9.678316572612645219e-01
-1.935276211605171381e-01	9.242506873424445601e-02	9.767316246121157119e-01
-2.335313333476473074e-01	-1.486435436618853134e-01	9.609205030971662564e-01
1.805174541747741057e-01	2.433861622678222258e-01	9.529830138857674493e-01
-3.805494778140040661e-03	3.994780227902735570e-01	9.167348730778523969e-01
2.417646648362046791e-01	-4.659947727328119654e-02	9.692153195005225319e-01
2.876010138536239102e-01	1.381306457376838825e-01	9.477370846065152898e-01
1.130155747814174660e-01	2.140519666295270240e-01	9.702624569872093652e-01
-2.310050486058781161e-01	2.077278682352820191e-02	9.727307740820057003e-01
-1.474497582938953666e-01	1.014367681527659874e-02	9.890175299759528249e-01
-2.596441801551506168e-01	-6.389540890180821220e-02	9.635882297085347492e-01
-2.859465039560426525e-01	-1.178787849498136725e-01	9.509675015131012765e-01
-1.970626874561925979e-01	-3.066477063336114361e-01	9.312000222362954993e-01
2.799132811624333028e-01	-1.391493984245637493e-02	9.599244394628492216e-01
2.351333804966573848e-01	1.419498194667920266e-01	9.615417526709698626e-01
5.150834112689788719e-02	1.859974099529728975e-01	9.811991919509228666e-01
7.516211655149029891e-02	-7.544410304256696752e-03	9.971427872219065236e-01
2.686552042677045060e-01	-2.046073485436947781e-01	9.412545958144364899e-01
-3.117237986284239759e-01	-9.952389788543529459e-02	9.449461715454253730e-01
2.342481252260325830e-01	5.534680005754784998e-02	9.706000966162530164e-01
-2.581304763663410662e-01	-2.020616441286423107e-02	9.658987359400577066e-01
2.064961065154522490e-01	8.431351841798762070e-02	9.748079752474028137e-01
-3.135053560314906423e-02	1.266271018894634948e-01	9.914548507039872005e-01
7.920950539838617077e-02	-1.215511309457120021e-01	9.894196161489600128e-01
3.051028727371811744e-01	-1.966386271872203745e-02	9.521163634506533135e-01
-2.312208057783205206e-01	9.750204917323397613e-02	9.680032486424028360e-01
3.244600045747014216e-01	3.265782350750583152e-02	9.453354811891581111e-01
-1.382080340525458362e-01	8.170323467462353717e-02	9.870274164211674250e-01
8.646317324021059181e-02	2.715161700048818738e-01	9.585421686598414315e-01
4.507849843733603007e-02	-1.104329081596146650e-01	9.928607665599638032e-01
2.483837432535250800e-01	2.250017263969065207e-01	9.421675749068100236e-01
2.297687293199937586e-01	-3.046382504487889914e-02	9.727683621450221585e-01
9.082163877817529818e-02	-3.336239988530158018e-01	9.383210843410558777e-01
2.223026046990894955e-01	-1.259551221123909361e-02	9.748963560379811932e-01
-9.909011403035125620e-02	7.216764856677544693e-02	9.924580493914081369e-01
2.279740479254690477e-01	1.244039059137373171e-01	9.656870619749853280e-01
-2.114231965308239758e-01	-2.174580456723641531e-01	9.528967574407242180e-01
3.006732348347985195e-01	2.705965038106065979e-02	9.533432651334126096e-01
-1.337900704941377694e-01	-2.270050477575113190e-01	9.646600050431134443e-01
1.805132589494467255e-01	2.965741384363126398e-01	9.377946170426690875e-01
2.712445118499733909e-01	8.419665856277884497e-02	9.588208057182172617e-01
1.702517859376468656e-01	1.535646491158448312e-01	9.733613038984917365e-01
1.195905945085323913e-01	-2.850446577813811055e-01	9.510245174417915059e-01
-1.531797603006788133e-01	1.218651033538385164e-01	9.806553204968549986e-01
-1.068110060407652037e-02	4.977539835184870143e-02	9.987033212164642126e-01
6.722707748966487429e-03	7.671240670298966335e-02	9.970305972528371585e-01
8.059217946719671177e-02	1.093289105463302602e-01	9.907331073137123356e-01
-9.201190651431646883e-02	-3.386862217859647473e-01	9.363895835772343412e-01
-1.446738148306607463e-01	1.207819956426790381e-01	9.820800358580354938e-01
1.970004219408584001e-01	3.014674664495427606e-02	9.799397978558913591e-01
-2.388488400823239322e-01	-5.199622503497856180e-02	9.696636654909973618e-01
-1.684036837650272345e-01	2.897473931594362825e-02	9.852921717825349202e-01
8.513131252141351024e-02	-2.751007715078968019e-01	9.576388803427638985e-01
-4.381207494051139045e-02	-2.349128285691451656e-01	9.710285603745399952e-01
-5.594674153265993127e-02	-2.323525128795211614e-01	9.710212520179195561e-01
-2.992985959492593107e-02	-3.848827994796311797e-02	9.988107207130240139e-01
3.278106765283344548e-01	-4.783220012896680778e-02	9.435317911892843190e-01
2.192988701308502819e-01	-1.882211539050513138e-01	9.573300385875241902e-01
-6.346433796330668009e-02	-3.032559212887188729e-02	9.975232509916260870e-01
-2.224176157325665759e-01	-1.684035762518949764e-01	9.602971621937731461e-01
4.426754052221693048e-02	3.563448809050945298e-02	9.983839782942456331e-01
7.556193626530678664e-02	2.740112103054290205e-01	9.587534878240556724e-01
-6.272481703136420506e-02	-6.491878017668387124e-02	9.959172401905437289e-01
-1.514074801690604710e-01	-3.942724494774840077e-02	9.876848015964821981e-01
-3.087692505199255977e-01	-3.706067372346591449e-02	9.504146760212212053e-01
1.173983296248425623e-01	8.174968018707004513e-02	9.897144143593189503e-01
-3.841587906652781798e-02	-1.640720711764686035e-01	9.857000434693169444e-01
2.913729794328188127e-01	-7.559491770314830800e-03	9.565796573943099457e-01
-8.096941504352438146e-02	-1.584171960720422850e-02	9.965906851598544947e-01
2.612517381551560103e-01	2.774713233026921896e-02	9.648718184082067939e-01
-9.755841843045727491e-02	-4.186234497480165878e-02	9.943489825340742216e-01
9.089070092181315841e-02	3.264770567213203800e-01	9.408249634871125311e-01
2.172946767753445446e-02	8.774234430896807324e-02	9.959061759270382286e-01
-2.244439970508235391e-03	-9.298457876944615785e-02	9.956650192711813396e-01
5.974732669633236321e-02	8.525772140546285238e-02	9.945659243576558950e-01
-8.137151284014343400e-02	-2.017047120773120816e-01	9.760603905619348319e-01
-1.646943530932348243e-01	6.771850094904321993e-02	9.840172634097529292e-01
-8.033383712946781663e-02	-2.456406038777326772e-01	9.660264842842771760e-01
3.690194434986811267e-02	-7.396779496226120465e-02	9.965776496649045857e-01
2.552030045318584572e-01	-3.360831999289989880e-02	9.663032170624112904e-01
2.814924397248669188e-03	-1.381950034427238162e-02	9.999005438596716422e-01
-7.739640505737392651e-02	2.278340036012955760e-01	9.706191133947428273e-01
2.578638290175175318e-01	-1.029369041225918907e-01	9.606821740066181503e-01
2.357907190397360575e-01	5.246294615625392288e-02	9.703867147149765060e-01
-1.176180250637775815e-01	-3.110355403408863323e-02	9.925716946934112217e-01
-1.826802874496999754e-02	2.124564724282693509e-02	9.996073737218071908e-01
1.864070850755409070e-01	1.311135112027456695e-01	9.736845720323008546e-01
2.304292848320168841e-01	2.413998404440426404e-01	9.426709191045393732e-01
1.770332364218213939e-01	-2.035121601125538526e-01	9.629340755671368379e-01
-3.374839912485750291e-03	3.040729036435011468e-01	9.526427870536652298e-01
3.310361909013142534e-01	-4.877737106708975034e-02	9.423565187259708154e-01
1.459210485619742148e-01	-2.088948491273311114e-01	9.669901703712621144e-01
1.124828536498755638e-01	-1.353784759993842124e-01	9.843882749560060041e-01
1.425155472404651125e-01	2.199891973129181333e-01	9.650357878650757115e-01
4.502012592027118676e-02	-2.006177984415611903e-01	9.786346035219616324e-01
2.359918938812909095e-01	4.389273570173479570e-03	9.717451107671417621e-01
8.708933407825444895e-02	-2.314842550528433684e-01	9.689326537755009738e-01
-1.173380468795327120e-01	2.448396458075182205e-02	9.927901682797384275e-01
1.639865826302479290e-01	-2.433252072452611048e-01	9.559818221264997362e-01
9.855623395624345251e-02	1.642334061031234249e-01	9.814856377289096212e-01
5.412050367292262076e-02	-6.509158912248393103e-02	9.964105861078005333e-01
-1.525050941761919576e-01	3.434534127270016390e-01	9.267048880503911956e-01
-2.500596747009386500e-01	1.156494562611844051e-01	9.612987893235662717e-01
-4.050032692871968765e-02	8.201604737254750144e-02	9.958077583007960421e-01
-3.611583492626792985e-02	3.190488066097993403e-01	9.470498959761519675e-01
3.503856093834911006e-02	1.221279460507255187e-02	9.993113363188204090e-01
2.029464964377293013e-01	3.116211376369518171e-01	9.282806613096605819e-01
1.318684114008619734e-01	4.523623328137122562e-02	9.902345203400669815e-01
-1.081535257572100728e-01	2.687380106536895741e-01	9.571220906949013951e-01
2.334676471178381008e-01	2.158586107784276065e-01	9.481022718578797637e-01
-9.191616027459902083e-02	1.761922485577045727e-01	9.800549530656728070e-01
1.986539563782958873e-02	1.061143126020668796e-03	9.998021004335845285e-01
-1.369687795664029928e-01	-2.500996802636294980e-01	9.584830219446355271e-01
-9.594565312902414433e-02	-1.852952078545260506e-01	9.779877901036351240e-01
3.670239611782076528e-02	-3.026315547681819873e-01	9.524006909792749331e-01
-1.956225457101307408e-01	1.006507792307540228e-01	9.755005075601607123e-01
9.839089028990247177e-02	-1.721977795891939667e-01	9.801362953245382759e-01
1.693458256548390495e-01	3.105985071028327660e-01	9.353344635577014454e-01
-1.600330976392454890e-02	-1.537090573340456900e-01	9.879865483750692734e-01
2.657119785113708915e-02	3.009027560116331323e-01	9.532845865057089085e-01
-3.792083909142397735e-02	4.282147532734871531e-02	9.983628254364216303e-01
-7.684605365130348087e-02	-2.405389571373271473e-01	9.675927315443759724e-01
-2.831653770432701056e-01	-9.612901300877439714e-02	9.542413646986280806e-01
-3.266403730952379680e-01	1.460058448547975167e-02	9.450359197389686106e-01
-2.496668763460096752e-01	-1.933165684151285368e-01	9.488388457645609009e-01
5.304513493501891719e-02	6.914502335965717894e-02	9.961953520290727226e-01
2.574999716475924738e-01	1.285783221980719981e-01	9.576854283438894777e-01
-1.648897790216776182e-01	-5.959943099159227368e-03	9.862939926068908791e-01
-2.733234288557128550e-02	-3.488847914562619446e-01	9.367669642568037247e-01
-1.184531890619632960e-01	-1.242084811138599587e-01	9.851604413599011068e-01
-1.620443852229398740e-01	3.045873659493501528e-01	9.385990377801136653e-01
-3.728814745156057431e-02	-2.536951805814753325e-01	9.665652328784460900e-01
-4.084740336441071949e-03	-1.986281662058211606e-01	9.800664092224028456e-01
-1.412842672355072160e-01	-1.289455798075714865e-01	9.815354264008090412e-01
1.234696381328006659e-01	7.833408118793126762e-02	9.892517476273681165e-01
-1.436319802892444264e-01	2.052509403799189225e-01	9.681125480600630828e-01
2.190806365779363052e-01	-1.673660837539185930e-01	9.612451657540240779e-01
2.612187729706600958e-01	1.703861647272425228e-01	9.501227854952476459e-01
-7.225146788798354758e-02	-2.596060994132560421e-03	9.973830687631209946e-01
-7.338514131430498577e-02	1.863353883368668376e-02	9.971295864955611599e-01
1.263765451403832674e-01	1.426359963514866047e-01	9.816740504786729549e-01
-1.940157466251462293e-01	-2.267300854005854516e-01	9.544377184686957394e-01
-8.068027415449469109e-02	-1.716318013067313214e-02	9.965922529350441650e-01
-1.086776120682926387e-02	3.229377974668212053e-02	9.994193331910368183e-01
1.090704377732900632e-01	-1.390220147420209024e-02	9.939368030202461179e-01
-1.367690182207451956e-02	-2.135479998448270092e-02	9.996784057256471456e-01
-2.158445621900285383e-01	1.392394337787127567e-01	9.664489148702978261e-01
3.376642076620314792e-02	-1.361932387293837421e-01	9.901066763501018553e-01
-3.577086272295242342e-01	-5.855591297359388075e-02	9.319955703013823589e-01
-1.061680906886206394e-01	9.293202312771063622e-02	9.899959472628739876e-01
-2.351991727668804322e-01	-1.662405684532709260e-01	9.576248861271866586e-01
2.816588003520985040e-01	-1.046186107009479914e-02	9.594575913750269525e-01
1.276320350029592487e-01	6.889631530954304361e-02	9.894257735564483403e-01
4.242834507166378527e-02	-2.618164935877591026e-01	9.641846084748979528e-01
2.003551339632274678e-02	3.101214951101180506e-01	9.504857897273423228e-01
-8.613012498679203802e-04	9.815432615542922512e-02	9.951708327805499632e-01
1.960248656572533693e-02	3.309275602496596861e-03	9.998023760801092452e-01
-3.652726801586916178e-02	2.165841309212923615e-02	9.990979290508112953e-01
-1.022305607309020176e-02	-1.354751428152272709e-02	9.998559666178478134e-01
-1.970952408052017435e-01	-2.791824399024880332e-01	9.397928661689405327e-01
-1.953943245210453816e-01	-3.056197643286119869e-01	9.318892732490736686e-01
2.217203826690966328e-01	-1.600598021047096309e-01	9.618840531266058536e-01
-6.664036211157521074e-03	-1.839198198555782801e-02	9.998086445015462731e-01
9.989390961121032142e-02	-2.199101594046194708e-01	9.703920489231244728e-01
1.066293969148826570e-01	2.446324912889836223e-01	9.637349822017018397e-01
-5.190036766549045028e-02	2.573140317526304358e-02	9.983207133616023299e-01
2.557008329141112202e-01	5.127159619165269633e-02	9.653954150869924478e-01
2.463196436658242616e-01	-2.093648723493246600e-01	9.463049103594954881e-01
-1.263343835635063750e-01	3.293059076410097541e-01	9.357335319001668372e-01
5.402398133871919028e-02	2.144389586127659897e-01	9.752421968256861362e-01
-1.405313309421391856e-02	1.911726553571508821e-02	9.997184801776273222e-01
5.135518247723504237e-02	-1.430221074341125054e-01	9.883862210785003821e-01
-9.442815414914269845e-02	1.067965050107328451e-01	9.897867599748354506e-01
1.899608088872326711e-02	1.686640344025450711e-01	9.854905339017330235e-01
1.652202662594646487e-01	1.771843111902282886e-01	9.702102779733874360e-01
2.454207554396574120e-01	-3.838805898761630912e-03	9.694090552334950761e-01
-1.266731985751501921e-01	-3.262881798409725809e-01	9.367443218182903708e-01
2.928430990782674437e-01	1.591199724454468167e-01	9.428275312543636932e-01
1.975939510541473154e-02	-2.671925099946867999e-01	9.634405684357560951e-01
-1.169329488221184654e-01	-1.436129980421184948e-01	9.827013749217587968e-01
-1.237831670031118853e-01	-2.559959980730001222e-02	9.919790260163754425e-01
-4.016798166882663834e-02	3.636661350968239947e-02	9.985309222405172047e-01
6.203209363354460215e-02	-2.249586844259455001e-02	9.978206027450344795e-01
1.064018145878225727e-02	1.101889725467322945e-01	9.938536999315426002e-01
-1.874327247014103970e-01	-2.513162885953072467e-01	9.495836439185763034e-01
-8.395536160543056597e-03	-1.050444985035815099e-01	9.944320833051928377e-01
-1.858114446607310108e-02	2.846368986400860668e-01	9.584553077754234263e-01
2.996659056375303720e-01	1.678049629325492897e-01	9.391708254698120095e-01
6.912928463357437270e-02	-2.493379404832878343e-01	9.659460302944463672e-01
2.930265937439377466e-02	-1.006784172989003273e-01	9.944874109026067277e-01
4.711939848673635245e-02	-2.755829253474298413e-01	9.601217701641807656e-01
-1.901591081402759231e-01	2.756812636156405483e-01	9.422522775151975782e-01
9.139239380079175468e-02	2.187467992978136752e-02	9.955746726053901208e-01
-6.009714417199554792e-02	-2.685449495957238919e-01	9.613906299257363175e-01
-5.363303911152102893e-02	4.138515797388505474e-02	9.977027442154963177e-01
-1.406459479472228769e-01	3.707350321511073549e-02	9.893655910154643962e-01
1.133149495753048991e-01	-3.077598121052674274e-01	9.446923415883490271e-01
5.231545791967550513e-02	-1.311754635646060763e-01	9.899778232977090031e-01
-3.344345355520741969e-01	-4.398803130631025182e-02	9.413918389979076817e-01
7.487584817793688230e-02	-4.462581050220821584e-05	9.971928626741018986e-01
-1.323938190546590232e-01	1.418247199983569129e-01	9.809982800563473715e-01
-1.005036080719216851e-02	-6.594276265947877913e-02	9.977727909200929668e-01
-7.487646775318058945e-02	1.054863342680880250e-01	9.915977752392829414e-01
-4.250118426591928400e-02	1.728551035814141212e-01	9.840298585418321142e-01
1.029917427397836760e-01	-2.464740706581838026e-01	9.636613686459589712e-01
1.026056009941192504e-01	1.605505468501420840e-01	9.816799949834765782e-01
4.055106318593582060e-01	-1.361453701508663107e-02	9.139889341949885004e-01
-2.339934279653246574e-01	-1.420701549952420872e-01	9.618020309443440219e-01
2.755260259558046654e-01	1.892353254827782716e-01	9.424836341339972723e-01
1.931307255616453999e-01	-1.498165149577934119e-01	9.696677444825810843e-01
-1.634151244185884644e-01	1.035308773452387476e-01	9.811100114397879324e-01
-2.674604361404529507e-01	8.487137373343243973e-02	9.598238197816106876e-01
6.743309051373662377e-02	2.971233645097580700e-01	9.524549777108464177e-01
2.972069155480914771e-01	9.824584231347506524e-02	9.497451257145271830e-01
-1.906968021898508003e-01	-1.927020014957036009e-01	9.625490471940211235e-01
2.383463695323137510e-01	-1.896159696696245733e-01	9.524897858649260529e-01
-2.550664577061766414e-01	1.625698937710737257e-02	9.667868495431749531e-01
-5.900549144418171937e-02	-1.115615783262302319e-01	9.920042168361912216e-01
-2.889684496188547891e-02	-3.827585604209893799e-01	9.233963703500811526e-01
3.682275623408926002e-01	-1.700364864295389744e-01	9.140547333804370789e-01
-1.842170408542467830e-01	1.485667080680029388e-02	9.827733010167939431e-01
9.145711404117316812e-03	-3.197776497179897343e-02	9.994467362047420034e-01
2.960803045009209877e-01	2.120596243477637088e-01	9.313254903674260676e-01
-1.079770985854564269e-01	-9.130673775724669483e-02	9.899515270058432126e-01
-1.222148940865896843e-01	3.257652165967427904e-01	9.375182895917720804e-01
-2.680252363872591137e-01	-1.619868541091016301e-01	9.496961260084151313e-01
-1.003634696419952732e-01	-8.790286676888192652e-02	9.910601697047602965e-01
-2.859856593300262248e-02	9.655893401413791211e-02	9.949163252699392279e-01
2.436360025688871500e-01	9.126510044207554462e-02	9.655631412256545643e-01
8.488005726512815041e-03	-3.378094698766159754e-01	9.411762405737131854e-01
-2.049644246938407965e-01	6.806472046278895516e-02	9.763999070249047563e-01
-7.226562600080180601e-03	1.882421453803173328e-01	9.820960602179401588e-01
1.856165961076639559e-01	1.409513678761283306e-01	9.724603802434578226e-01
-2.231652483996218045e-02	2.727443361606161076e-01	9.618276871723788757e-01
2.594482981822330836e-01	-1.107840277172325305e-01	9.593818216815911404e-01
1.024515326646466273e-01	-2.376629553338082679e-01	9.659296056735504621e-01
9.889901005702637915e-02	-1.518848157069941640e-01	9.834378417405897910e-01
1.931848057560093812e-01	2.126922673693388277e-01	9.578317337749365779e-01
3.757510633393656291e-02	-1.666072696207962778e-01	9.853071242478114167e-01
1.456684500468611101e-02	1.351114427441084676e-01	9.907233241759365594e-01
1.470727790254828249e-01	3.670047765703786102e-01	9.185189664042052726e-01
-2.038865700791777091e-01	-2.225693630099315201e-01	9.533588753406049277e-01
1.120798899198564291e-01	-1.780327591636809981e-01	9.776208032463894471e-01
-7.614989785110011511e-02	2.790964500363000544e-03	9.970924749362111150e-01
-2.494667183395009036e-01	-1.397944995335237417e-01	9.582399774279367621e-01
3.115483716961990335e-01	-2.628927881229732588e-02	9.498665621617464749e-01
4.041153861487886689e-02	2.588518333729168588e-03	9.991797671688615878e-01
-3.310666703005428757e-01	-1.624062072725613315e-01	9.295262684052851831e-01
-1.823909292487156386e-01	-2.923977154072990997e-02	9.827912213120509888e-01
-7.277668025182100486e-02	8.026025901217118119e-02	9.941135979528863409e-01
-2.266652835441323177e-01	-9.436014942593390353e-02	9.693910518651244201e-01
8.062413006479061950e-02	1.810598839921100101e-01	9.801617560688927755e-01
-4.749417356445889693e-02	2.369712312925884024e-01	9.703550582220401566e-01
2.955558019882116236e-02	2.834485835170548473e-02	9.991611665212609683e-01
3.089033689741355407e-02	2.180048289353917479e-01	9.754587031992789647e-01
-1.959518735916734866e-01	6.741909785259586618e-02	9.782931710283255811e-01
-1.801268796703371367e-01	1.724350529855257497e-01	9.684113071015379992e-01
8.506415309588873097e-02	2.117883491085127134e-01	9.736065863786911301e-01
8.432669954432324422e-02	-2.376201414400853640e-01	9.676908990612428374e-01
-8.371082934428568378e-02	-3.746617374939970047e-01	9.233748315329306511e-01
-1.103377204234602393e-01	1.332136455576487799e-01	9.849262470302014849e-01
-6.355116345441728931e-02	1.445271996042730295e-02	9.978739241554162032e-01
-2.311239070280972641e-01	-1.980164989901328498e-01	9.525603423026604011e-01
-4.551143289761909461e-02	5.074282158826023958e-02	9.976742331707567635e-01
-1.635408274750043967e-01	3.152467477756349945e-01	9.348122195209448426e-01
-2.048071615438243342e-02	-6.350988913479162223e-02	9.977710329769524655e-01
-1.021909362101964050e-02	-2.463390752860716293e-01	9.691298314017426918e-01
-1.899526657968631654e-02	-8.633077576912362439e-02	9.960854265587225642e-01
1.127728349188642232e-01	-2.937553065534962426e-01	9.492049871213417145e-01
1.223018034438238671e-01	-3.467559859766823904e-01	9.299476087735942809e-01
1.672191670956047482e-01	-8.874418730849551254e-03	9.858798075059831412e-01
3.444864113985959819e-01	1.666005124569300971e-02	9.386434653553016316e-01
1.657635826762273723e-01	7.302803604464941367e-02	9.834578489237851828e-01
4.000941308431265470e-02	-2.119349990173094722e-01	9.764644402415192381e-01
1.711508192256268879e-01	1.031271510794881663e-01	9.798327345974048308e-01
2.140612968407865357e-01	-6.551459347350531426e-02	9.746207463607777788e-01
2.929834711514682499e-02	1.276716027495527518e-02	9.994891727651878943e-01
-1.985360688163807508e-01	-1.883505324118673885e-01	9.618250913337125230e-01
-1.364064674871638405e-01	1.584991755325946550e-01	9.778912449670256191e-01
2.068661327165455255e-02	6.254590532588527596e-02	9.978276773863916649e-01
-2.035811259539278550e-01	-8.878139235214556335e-02	9.750244045803899695e-01
2.286804015485774388e-01	-7.074005408934616601e-02	9.709279678199713715e-01
2.578574327527924370e-01	-2.842751514088329157e-01	9.234160398572396344e-01
2.175851138928102668e-01	8.903202209101547526e-02	9.719722307013917151e-01
-2.929931744746789857e-01	7.325111613215334883e-02	9.533043971873007560e-01
5.879403395086930245e-02	-3.298352700517367952e-01	9.422058990484417640e-01
2.451664140181005272e-02	-3.784009427244051926e-02	9.989830136492953150e-01
2.292178180005592092e-01	-2.155907976483139588e-01	9.491995574590328388e-01
-1.605042825559855613e-01	1.104947969875769570e-01	9.808309105650498960e-01
2.444085877556455566e-01	1.280401424452595471e-01	9.611816499256996549e-01
-2.820321843031454168e-01	3.909078212356596749e-02	9.586082399865789583e-01
5.599400379411775125e-02	1.788736196190761907e-01	9.822774046792844826e-01
3.062475020437230300e-01	1.648179980860037530e-01	9.375753276398121061e-01
2.353099156756855714e-01	-1.829484976660831763e-01	9.545465367316691152e-01
2.624031136792762120e-01	2.358923593577318956e-01	9.356812495332288426e-01
-2.195322836053214544e-01	-1.363396420402368803e-01	9.660316135941798832e-01
4.676769051798598115e-02	3.668956212317868448e-02	9.982317662521172918e-01
-2.206629950191986989e-01	1.140048252432306064e-01	9.686644116774500990e-01
2.211760189501133997e-02	2.495781144625636508e-02	9.994438049906680943e-01
3.443098862592783305e-01	-1.264391370453219199e-01	9.303030940759887679e-01
-2.119839969513404587e-01	1.143351596407521029e-02	9.772062524100196823e-01
-3.200520707061007414e-02	4.397813764170928341e-02	9.985196994200693510e-01
1.031634531264772336e-01	3.110087669551798301e-02	9.941780712768644168e-01
4.267232872644704904e-03	1.504450412127498853e-02	9.998777193333949764e-01
-9.198863565820195043e-02	-2.071807294742022409e-01	9.739682932438216145e-01
-5.121819745838179783e-02	-3.358840024347389264e-01	9.405097730260614242e-01
-6.658835632420488475e-03	2.507905806313361421e-02	9.996632936917715373e-01
7.063268614728950012e-02	3.590303356495548881e-01	9.306493656211169974e-01
-1.325970300379244182e-01	-1.705133796377647781e-01	9.763929613580959455e-01
-3.075279061786423962e-01	-1.690157571712978812e-01	9.364081699500457212e-01
1.198296106637246478e-01	2.819398787478288870e-01	9.519195182261147581e-01
1.288380950277993042e-01	-4.939874968084680129e-02	9.904345050530013461e-01
1.464889176951972571e-01	2.959331165606030600e-01	9.439092051226217750e-01
-7.500343595363398452e-02	1.408771447042424241e-01	9.871819055752250049e-01
-3.307245138084231595e-01	-8.502954249349187199e-03	9.436890355065150615e-01
-2.252194163304681654e-02	-1.659790563303140398e-01	9.858720581316675613e-01
4.657319795110036881e-02	1.615251601885767940e-01	9.857690195267131417e-01
2.179927446733298871e-02	1.584496132563451565e-01	9.871263909407019810e-01
-1.212041107696111147e-01	4.314709296680732664e-02	9.916894130225736292e-01
8.207299760024723556e-02	-2.100222709760553585e-01	9.742456921942055370e-01
3.236847978964834532e-02	2.474761809585871997e-01	9.683531491012276060e-01
-9.412267307165333996e-02	1.554917378087393443e-01	9.833428913085547896e-01
5.785070692917358703e-02	-1.044325588970443017e-02	9.982706216824231982e-01
-1.321964306074081830e-01	1.820994534037782830e-01	9.743530637323973842e-01
4.528044915449744301e-02	-2.639483415583707138e-02	9.986255522738444190e-01
-1.705093272655450465e-01	1.184255010259507856e-01	9.782136627660661388e-01
4.526367420937951747e-02	3.127902997699268384e-01	9.487430780600766278e-01
4.797378478248803119e-02	4.574746187763089611e-01	8.879276373382669618e-01
1.706193096092961381e-01	-8.509632860346426353e-02	9.816555740414570908e-01
-1.215433360649180866e-01	-2.777406082636360574e-01	9.529361846312486284e-01
-8.145697645343182025e-03	-2.853848872028692529e-01	9.583783771382163863e-01
-2.369532150242509572e-01	2.814447937061129168e-01	9.298612810443261933e-01
-3.213132496988072712e-02	-3.421041379107031544e-02	9.988980055761054189e-01
-7.087881134740089961e-02	3.540246813095713763e-01	9.325463629898702589e-01
3.249468992266404260e-02	-6.993114478776751679e-03	9.994474430787834152e-01
3.405194999210064272e-02	-1.822263889371642798e-01	9.826667837454614585e-01
3.016743162570185641e-02	2.990656153480240054e-01	9.537555681544519492e-01
7.050686717816408156e-02	-1.910978000249441075e-02	9.973282298165293547e-01
7.311604797763084085e-02	-1.288510917789827404e-01	9.889648323754991477e-01
2.946810311617266143e-01	2.292399772554827575e-02	9.553206687818177612e-01
1.427330974585433454e-01	-2.337079639453895075e-01	9.617732843442836632e-01
8.293240174364138739e-02	2.445213258282674940e-01	9.660908538829129366e-01
-7.245139615624942133e-04	-2.417537333448263048e-01	9.703373678743700825e-01
-2.755995086042223874e-01	-1.066266387291772838e-01	9.553406045858330309e-01
-1.010699922540918144e-01	8.294193659023216258e-02	9.914159025456540375e-01
4.897788010357013305e-02	-5.513725156339795846e-02	9.972768175138670976e-01
-1.022560246170096110e-01	1.001440598492131101e-01	9.897044370449391559e-01
-5.704639832973782028e-03	3.117643703955645532e-04	9.999836798104962954e-01
2.189976350849360404e-02	5.477030239596427513e-02	9.982587912629242721e-01
1.704703090263481324e-01	2.255942737036189250e-01	9.591908555718201557e-01
1.963724041220936412e-02	5.674208100262485843e-02	9.981957298207995155e-01
6.322338110606758391e-03	-3.007410378900482115e-02	9.995276766163624371e-01
2.887560537414631812e-01	-2.392029756863103263e-01	9.270393076080819528e-01
-2.720864905659932664e-01	1.685006824935806335e-01	9.474051201311296522e-01
3.783583327115976752e-03	6.046433619729534720e-02	9.981631873323223436e-01
1.821969922413360088e-01	3.601148163218442083e-02	9.826023759430165816e-01
-1.271861970292092504e-02	4.190282990558652498e-02	9.990407346844046854e-01
2.715027888932660116e-01	6.367700745888631164e-02	9.603288365681073024e-01
-1.973036873579879225e-01	-1.275543779897722052e-01	9.720088145745293673e-01
-9.478195201724813612e-02	1.118923849958010086e-01	9.891898077476121154e-01
-1.147275192604973876e-01	3.071030662484643958e-01	9.447355730706461507e-01
1.228418914918630173e-01	-1.369832403664082536e-02	9.923317114822510776e-01
-1.599381104021436184e-01	-1.197038112797351728e-01	9.798422313852880317e-01
-3.880850421980769349e-02	-2.481879211015428355e-01	9.679342208123018487e-01
-2.209278084096311101e-01	-1.572489002541422043e-01	9.625298368571131302e-01
1.291471323601951493e-01	3.050464984945219227e-01	9.435399577968961449e-01
2.574820096193276564e-01	-2.286667780910254244e-01	9.388367905657838408e-01
2.403804335564534156e-01	1.500578999947710657e-01	9.590098403104996283e-01
-2.316983314152027129e-01	-3.189282386818812487e-01	9.190215785228792456e-01
-6.239355691424563338e-02	3.235166613173872108e-01	9.441631288636709307e-01
1.486325958351319421e-01	3.452276397601485858e-01	9.266748233339188179e-01
2.057371464545125761e-01	-1.679744831651698578e-01	9.640833986612112882e-01
1.762137306749924845e-02	1.193703447876882061e-02	9.997734715519633886e-01
2.400579240215663934e-01	1.802927974427042113e-01	9.538693308334952325e-01
1.268330046439526959e-01	5.607779051519657526e-02	9.903376547137424657e-01
-2.906054578323239990e-01	-2.781221007620451879e-01	9.155307558710241711e-01
1.723898364918369785e-01	-1.360566173222044484e-01	9.755871776305584664e-01
-1.824499595559951337e-01	3.000584030094885848e-02	9.827571733677892274e-01
2.649204011675467263e-01	-2.735679601273304559e-03	9.642664035951614698e-01
1.994313641062037679e-01	-1.056051630984518458e-01	9.742046399692881886e-01
4.038135545771647655e-02	-3.846030393389447688e-02	9.984438647979702042e-01
-3.048983456208924636e-01	1.708772515738204156e-01	9.369300740888942824e-01
-1.082001537571627980e-02	1.746968492588193700e-01	9.845628157341297371e-01
-1.334449313241259094e-01	5.137360877120474706e-02	9.897238011817885983e-01
1.045925358375399961e-01	-3.427366312860827269e-02	9.939244022876302376e-01
-2.059153828233438732e-01	2.801343943369132838e-01	9.376159001564571271e-01
1.112336661524636200e-01	-2.958148958194231071e-01	9.487468676763172182e-01
-1.932224326239687096e-01	-3.248256445943945581e-01	9.258257893063427391e-01
3.759419592585631908e-02	3.830467971082508055e-02	9.985586752639729058e-01
2.321659705367660337e-02	-2.892310042210227139e-01	9.569777509527280790e-01
-7.910027509161572656e-02	8.830001428260259022e-02	9.929482634851266587e-01
-9.299431862636352904e-04	-1.163038131210850090e-01	9.932132491359393356e-01
1.293124652290734145e-01	1.834105410458379826e-01	9.744941558417140604e-01
2.094149401826481405e-01	1.646808634553737979e-02	9.776881839116273731e-01
4.631655586704262750e-02	2.919812355982334129e-01	9.553019076245725660e-01
2.125363585670936861e-01	-9.998026797181744363e-02	9.720248156828723562e-01
9.549395404777674679e-02	1.216181895509573924e-01	9.879726315595350750e-01
5.503335163354548115e-02	-1.308293513363549716e-02	9.983988015899565305e-01
2.990727514951826982e-01	3.525323698521647120e-02	9.535788895498721329e-01
-1.262104503723242288e-01	-2.158667469063634547e-01	9.682316199117210198e-01
7.851050906810666530e-02	-4.490958659066712072e-02	9.959012144776780984e-01
1.916081885178600452e-01	8.809464454236784481e-02	9.775099159066673593e-01
-2.668917071761160442e-01	-7.266267756244763898e-02	9.609833255213502401e-01
-4.337990874012322140e-02	-3.124529935760533839e-01	9.489422059973218193e-01
1.134114776767025934e-01	2.704218061413168339e-01	9.560386412140742252e-01
2.778785980421013546e-01	-2.197142530580258879e-01	9.351519297704027345e-01
-1.620151801178005557e-01	2.807412288320276436e-02	9.863888305509845855e-01
-8.400326997034365806e-02	6.915241104925662352e-02	9.940630737937916628e-01
-1.412073256190824952e-02	-3.502444362700094516e-01	9.365518884577712644e-01
-2.386372244954053368e-01	4.553415049630380601e-02	9.700406776129091302e-01
5.127426731686395012e-02	9.251057992440278599e-02	9.943906385888654498e-01
-1.567194890570599852e-01	-2.270408577455021448e-01	9.611927229561627595e-01
1.298159355155468209e-01	-1.211489512173421525e-02	9.914640952663991147e-01
1.628928984642349642e-01	-2.274317628202945571e-02	9.863815953080846688e-01
-4.739451865095174049e-02	9.826519140269959415e-03	9.988279126673589303e-01
-3.042561191257978637e-01	1.131575286536980474e-01	9.458454354087137972e-01
1.609888353040458964e-01	2.933327199262436014e-01	9.423579523345233522e-01
1.963729237796722205e-01	2.739103397359486380e-01	9.414939195724831844e-01
-5.179667931543138759e-02	-2.216115465146422936e-01	9.737584025122866249e-01
-2.666925687246853305e-01	-2.043864261582909181e-01	9.418605324512063781e-01
1.948653737348548243e-01	1.014220207727335038e-01	9.755721704833295593e-01
1.052820451784613892e-01	-2.483442075314742925e-01	9.629334585258769730e-01
-1.040930383469199777e-01	-3.095437442266530947e-01	9.451705188895017651e-01
-1.642970909296260495e-01	-2.213583896280643393e-01	9.612527915451433147e-01
-6.889106368822016380e-02	4.413082261668208744e-02	9.966476267162226454e-01
6.476834796245126147e-02	-1.392585301575287315e-01	9.881356804005128058e-01
-1.230074000500304687e-01	-1.780199153209197915e-01	9.763083986538605430e-01
2.945597466394337394e-01	3.565610312106635982e-02	9.549676423680182324e-01
1.811734977558019100e-01	2.278890029824497902e-03	9.834485092627690550e-01
-2.817761670446968236e-01	8.449085285617830010e-02	9.557528380649664701e-01
-9.514591935564335745e-02	9.037691248882542827e-02	9.913522420002683910e-01
-1.815799071618796612e-01	5.022880035969384122e-02	9.820925643387722337e-01
-2.264618782825697785e-01	-2.288345154719853003e-01	9.467575097211710089e-01
3.043561569979275072e-01	1.053784452778232517e-01	9.467115257396430117e-01
2.305733739864515922e-02	-6.115930174342102538e-02	9.978616632591630342e-01
-5.078582804993292399e-02	-1.432691047138132945e-01	9.883798679170838763e-01
-1.949233180590800030e-01	3.502262671213284828e-01	9.161585353502411655e-01
2.415408948348680418e-01	-4.044731869308723290e-03	9.703822114334526017e-01
-2.215201929109048840e-01	-5.916189107601050462e-02	9.733594787009699489e-01
-3.227251639990495469e-01	-3.881266104906731795e-02	9.456965929218932310e-01
3.256292995084830166e-01	-4.212804989512040216e-02	9.445585141819684560e-01
2.615072344495012469e-01	4.760791146546218544e-02	9.640266869213048873e-01
2.961932363437431714e-01	-1.393651263154577213e-02	9.550263558456862922e-01
2.280037690633030800e-01	-2.141457519400514209e-01	9.498188660049649013e-01
2.185695860532722024e-01	-2.492835095150598701e-01	9.434431980444584198e-01
-3.750800573920423653e-01	-2.469768055073094659e-02	9.266633558753686328e-01
-7.712438475525909554e-02	-3.243622280929684409e-01	9.427836306717937154e-01
-4.770691082311671188e-02	2.263615015803234140e-02	9.986048544673467031e-01
-1.818438765803566115e-01	3.931217210127088690e-02	9.825412753034421520e-01
-7.401700008211219151e-02	-1.231846098070066287e-01	9.896196418854757981e-01
-2.276728717495228593e-01	-1.096240903022977498e-01	9.675472196718448714e-01
5.518175559853451678e-06	-1.388285868151223623e-01	9.903164259227760224e-01
1.239738037762065231e-01	3.073811695248858666e-01	9.434761854963658045e-01
3.094446077676246132e-01	-6.420226645756868522e-02	9.487476501711342713e-01
1.845011749788391386e-01	2.196062564544784268e-01	9.579835116313218935e-01
-1.482790957090484862e-01	-7.406752935523763792e-02	9.861679932298161866e-01
-5.568212044069810462e-02	1.685391352330731507e-01	9.841209587027975880e-01
-5.227673712919244514e-02	-3.511252700254018366e-01	9.348680053915167099e-01
2.169578040254747375e-01	8.455570613402454971e-02	9.725120276030617683e-01
7.596675490880117065e-02	2.374167804432276985e-01	9.684329220511848080e-01
-1.644578892876570886e-01	-1.491223305962839987e-02	9.862713764254840143e-01
3.313840040307578505e-01	-6.621482748346960157e-02	9.411696119689997309e-01
1.461958288496005287e-01	-6.534002419184756216e-02	9.870954669461220465e-01
-2.194016059855065648e-01	2.259070899458039683e-01	9.491200777579195114e-01
2.829924018923357654e-01	1.948466469656948141e-01	9.391219753777629853e-01
-1.907587241190984162e-01	-9.596050071276784887e-02	9.769353568560255052e-01
2.841179199918347220e-01	-5.027043620121861289e-02	9.574705691475089431e-01
-2.751755605225588708e-01	1.935054530250424898e-01	9.417186684677474329e-01
-2.904553794561759092e-02	-5.600957067354307706e-02	9.980076576451785142e-01
-1.005034093899117159e-01	-2.789202946988555976e-01	9.550405928054094273e-01
-3.479611476491029087e-01	6.362987487730187297e-02	9.353471434445163046e-01
6.088673519162660953e-03	-2.818151819151483717e-01	9.594493896485146722e-01
-1.479361128189694667e-02	-2.068670903910590220e-01	9.782572033869108008e-01
1.457958365354564967e-01	1.301419989560505946e-02	9.892290961400220795e-01
3.019569862099462099e-01	-7.646350948469732289e-02	9.502501303321623238e-01
-2.007354844756805146e-01	-1.892378741873475823e-01	9.611942011088940863e-01
6.017858958227290805e-02	2.671336944832539140e-01	9.617786266223726788e-01
2.852264622362403190e-01	-4.236515389768734374e-02	9.575233986568822964e-01
6.766651196994097339e-02	-1.420757624677137232e-01	9.875402375989773551e-01
-3.592853689517629817e-02	4.959873586652275429e-02	9.981227908614381805e-01
3.156976325290636876e-01	-1.248603191423856978e-01	9.406087951530157643e-01
3.697394880764041242e-03	-1.444467307011132462e-01	9.895056701509398200e-01
2.397199621717579221e-01	-1.941539058349246727e-01	9.512300460905414035e-01
3.083506323517227836e-04	1.455416144452724263e-02	9.998940350379761366e-01
3.311804929629603989e-02	3.487492063387509500e-02	9.988427978023319831e-01
1.315524858968909749e-01	-2.578763857522039515e-01	9.571800839579390763e-01
-7.941175976149596194e-02	1.154876589211705773e-01	9.901294728713436744e-01
-2.525440179299408561e-01	1.417178518758676897e-01	9.571507558726017884e-01
2.774157646370986000e-03	4.035121262119796270e-01	9.149700913413734149e-01
-3.053177208365147610e-01	1.540622856873503643e-01	9.397052205197043984e-01
2.697220000593346656e-01	-8.223765100004205852e-02	9.594201433376250421e-01
-9.000072963939834136e-02	-2.761053758660834689e-01	9.569042220004163601e-01
1.727951187136554101e-01	2.553511425065537188e-01	9.512821037785440526e-01
3.349141651777128859e-01	-1.151173093235601935e-01	9.351900914025009781e-01
2.005910960175723012e-01	3.116507849202051483e-01	9.287825366882648259e-01
-1.137692979761804613e-01	-9.583303131781345519e-02	9.888743989741280993e-01
7.192139240664904842e-02	-8.894726152282443621e-02	9.934363079643739880e-01
-9.561672209896848740e-02	-7.439002357337103598e-03	9.953904277714220594e-01
-1.957586353526705181e-01	2.276108591969218733e-02	9.803879281450840200e-01
-6.874578151822550304e-03	-3.142516208191269422e-01	9.493148365994206195e-01
-1.339601757242591673e-01	1.667489480272319191e-01	9.768569289572216485e-01
-1.260752260366754252e-01	-1.831567468001774612e-01	9.749659704222397583e-01
7.315934522872417911e-02	-1.629884098431728379e-01	9.839118296181293966e-01
2.524270970993245516e-02	-3.198658158046267519e-01	9.471265308743820333e-01
-6.270170476723044284e-02	-3.612815268474658253e-02	9.973781894561745132e-01
2.063843589197750794e-01	2.246800776548960876e-01	9.523257631179918858e-01
1.510441657907419244e-01	-9.366153329021251195e-02	9.840798632033421756e-01
2.016635986766862343e-01	2.279549276834804128e-01	9.525588401319831089e-01
-1.283944476513476374e-01	-9.707338364643561257e-02	9.869608016531001837e-01
3.725889517098285308e-01	-5.666786922483642991e-02	9.262646628589943365e-01
-2.952106544570363700e-01	-4.912008879956694662e-02	9.541686886349662888e-01
-2.042950908291739972e-03	2.814743111218181992e-01	9.595665888983868630e-01
-1.881905141723994312e-01	-2.197700919584668899e-01	9.572279963812677650e-01
2.429735548518283383e-01	-3.032577541438433860e-02	9.695587651030667109e-01
-1.098637019527252123e-01	-1.830037606611246981e-01	9.769542418031290643e-01
5.057497135175382380e-02	-2.354311240660588930e-02	9.984427345276100096e-01
1.364272640738526665e-01	4.912771086496790091e-02	9.894311848948803556e-01
-2.655932834437598755e-01	7.989258907748682248e-02	9.607691616616640395e-01
-3.076529245913086075e-01	-5.504734013396635206e-02	9.499049785818515224e-01
1.807158090305448564e-02	1.839919488657579816e-01	9.827616093011809495e-01
-3.233578189778205103e-01	-6.011526324019803719e-02	9.443653297487517584e-01
1.641338149105511790e-01	2.645668307651887208e-01	9.502970498016783951e-01
3.899834471120015855e-02	2.591325969187138201e-01	9.650541053868167962e-01
3.068017983352844280e-04	-8.116874500484530519e-02	9.967003264306690813e-01
1.231292617990390435e-02	6.644286861432492641e-02	9.977142562172698348e-01
1.291739861085963448e-01	2.361816305371294833e-01	9.630847931047579191e-01
2.699305162499414101e-01	1.715087254035381203e-01	9.474820702828620211e-01
-1.211832324473086225e-01	1.575548266696084887e-02	9.925051077649709175e-01
-1.760706488021893112e-01	-2.599475090272219679e-01	9.494347893251634529e-01
1.845112470160279738e-01	-1.004904907552463533e-01	9.776795287784068034e-01
-7.881833008093645787e-02	1.777520006873593017e-01	9.809138071690562954e-01
1.049420695038037477e-01	-1.974560816481131173e-03	9.944763763699201453e-01
2.070571586581572421e-01	-4.622845272904183705e-02	9.772360324950601917e-01
-9.261560657399962870e-02	2.726411474407295157e-02	9.953285977335142309e-01
-8.343069492226266870e-02	1.528372349056185131e-01	9.847233615443423682e-01
5.875420035295572663e-02	1.218187817214268776e-01	9.908118531592119416e-01
1.081848774926932738e-01	2.925054587554961616e-01	9.501245123035868545e-01
-2.763862830185646602e-01	1.198404276901893634e-01	9.535454338678430730e-01
1.719325904077066008e-02	-2.359563336640575493e-01	9.716115481237230789e-01
3.349790508545815726e-01	2.846760757331305916e-02	9.417954293834807089e-01
-2.604287276453289834e-01	3.021135953514302308e-01	9.170083169311299409e-01
-6.344661123226115473e-02	4.288673537539758156e-03	9.979760191519744250e-01
-1.217902065558579827e-01	-3.883257739535787567e-01	9.134386891688083265e-01
-4.056508036284490332e-02	1.095441140384697809e-01	9.931538457533587438e-01
-6.258995682727905296e-02	5.306080906848661960e-02	9.966278381850260937e-01
-2.482451911834795411e-01	-5.460798778551061161e-02	9.671568087566237981e-01
-2.695866642042667460e-01	2.629460474102706530e-02	9.626170704100006636e-01
1.372100429232569474e-01	2.938957562465303527e-02	9.901058816942789331e-01
7.678290003107868245e-02	3.352919176544316704e-01	9.389801468712919430e-01
-2.385776739739961239e-01	-1.105891393446586657e-01	9.648060612061716279e-01
-2.917376969774300444e-02	2.164257719382618739e-02	9.993400272249822747e-01
-2.887890120222001700e-02	2.124836314578343321e-02	9.993570513730232197e-01
4.286153618620534150e-02	5.284268453978657049e-02	9.976825844958835399e-01
2.823891149932354974e-02	7.285094904354603995e-02	9.969429788612685917e-01
-1.415273925199249383e-01	-3.876583883410507358e-02	9.891750132843047938e-01
1.576575157757325318e-01	1.047125379480161322e-01	9.819263679705888537e-01
2.370108799559280388e-01	-3.649888025652200246e-02	9.708211341552751561e-01
2.608527942694338075e-01	-1.649116526682374295e-01	9.511887123678781641e-01
2.355144954064663718e-02	3.311567946006347407e-01	9.432817747705963818e-01
1.724937984800360355e-02	-5.097790556687857751e-03	9.998382226271956830e-01
7.868621351443352840e-03	2.266391339176851427e-01	9.739470148704532093e-01
-1.669085704285997729e-01	-1.431383272132089220e-02	9.858684716078068844e-01
-1.137807325816913018e-01	-2.841682422928686336e-01	9.519991360108231992e-01
1.636555775257807765e-01	1.595029099371358394e-01	9.735377104490049449e-01
6.212835531778176067e-03	-2.161992145671080556e-01	9.763295039561278310e-01
5.394657482715012331e-02	1.712172177046971944e-01	9.837552700879816925e-01
2.564979922277269009e-01	-9.703029388157637103e-02	9.616620518937007978e-01
-3.601724560758350902e-01	-3.800622946742825137e-02	9.321112210492746852e-01
-1.507042617373299531e-01	-2.193206612003872902e-01	9.639432934902527617e-01
7.056563207777301339e-02	-2.816140132162199827e-01	9.569294849306902995e-01
1.722199358334134400e-01	5.043939474528295192e-02	9.837663143039928615e-01
3.335954618533867877e-02	-1.744331025148350700e-01	9.841037716752009112e-01
1.704117630785085269e-01	2.210622201601228354e-01	9.602558647685262017e-01
3.192104081532636806e-01	-2.595462185180040793e-01	9.114496561959033460e-01
-1.968930119402463041e-01	-1.831805074110369469e-01	9.631604453847419922e-01
-1.204744045161134924e-01	-2.152064233244024849e-01	9.691089274258093411e-01
1.673305010660561809e-01	9.420355699610419298e-02	9.813899292647495498e-01
-3.190177665216599734e-01	8.521817222250848908e-03	9.477104216345620946e-01
4.920928685836097050e-02	3.848457233426903767e-02	9.980467843639028169e-01
3.457597881151835278e-02	1.210110133909386987e-01	9.920488074320362726e-01
