4.047385770731491690e-320	2.806292868378280371e-321
1.000000000000000021e-02	3.392520503495770612e+01
2.000000000000000042e-02	3.763379840356382289e+01
2.999999999999999889e-02	4.987130982154177872e+01
4.000000000000000083e-02	5.949277562961969323e+01
5.000000000000000278e-02	6.529865695768887690e+01
6.000000000000000472e-02	6.947697613457414434e+01
7.000000000000000666e-02	7.666262364327572243e+01
8.000000000000000167e-02	9.040342790331443723e+01
8.999999999999999667e-02	9.248109036095381441e+01
9.999999999999999167e-02	1.129396218303539143e+02
1.099999999999999867e-01	1.170070911961367557e+02
1.199999999999999817e-01	1.256816907190747230e+02
1.299999999999999767e-01	1.316679885790602782e+02
1.399999999999999856e-01	1.472846367988011878e+02
1.499999999999999944e-01	1.465642616581435504e+02
1.600000000000000033e-01	1.636437582841282961e+02
1.700000000000000122e-01	1.766344655057812645e+02
1.800000000000000211e-01	1.844665957892848667e+02
1.900000000000000300e-01	1.904372778836793714e+02
2.000000000000000389e-01	1.995079557219494291e+02
2.100000000000000477e-01	2.186603093469826717e+02
2.200000000000000566e-01	2.279541946197706750e+02
2.300000000000000655e-01	2.470380816495896283e+02
2.400000000000000744e-01	2.718221292777262761e+02
2.500000000000000555e-01	2.942420532478392374e+02
2.600000000000000644e-01	3.336061388824496703e+02
2.700000000000000733e-01	3.891118284946582548e+02
2.800000000000000822e-01	4.412688873238697056e+02
2.900000000000000910e-01	4.985327619883081525e+02
3.000000000000000999e-01	5.417072165260838119e+02
3.100000000000001088e-01	5.907894813569082544e+02
3.200000000000001177e-01	6.358061635971108672e+02
3.300000000000001266e-01	6.805304678411597479e+02
3.400000000000001354e-01	7.223673002829989400e+02
3.500000000000001443e-01	7.377305628876465562e+02
3.600000000000001532e-01	7.607018870866930911e+02
3.700000000000001621e-01	7.765394593918100554e+02
3.800000000000001710e-01	7.919305468316540555e+02
3.900000000000001799e-01	8.004495406727252202e+02
4.000000000000001887e-01	8.181991086816143479e+02
4.100000000000001976e-01	8.332082034644623718e+02
4.200000000000002065e-01	8.456142678491806919e+02
4.300000000000002154e-01	8.456287774070730165e+02
4.400000000000002243e-01	8.544501216895947664e+02
4.500000000000002331e-01	8.555301760834657898e+02
4.600000000000002420e-01	8.628519770193386194e+02
4.700000000000002509e-01	8.678789434388564814e+02
4.800000000000002598e-01	8.670552034725021713e+02
4.900000000000002687e-01	8.711219089585966913e+02
5.000000000000002220e-01	8.810753090180423897e+02
5.100000000000002309e-01	8.794556206078935929e+02
5.200000000000002398e-01	8.819833759013458803e+02
5.300000000000002487e-01	8.859761585240723889e+02
5.400000000000002576e-01	8.938527852159259055e+02
5.500000000000002665e-01	8.908136915670863800e+02
5.600000000000002753e-01	8.955550005699756184e+02
5.700000000000002842e-01	8.983446639804720917e+02
5.800000000000002931e-01	9.015646718720577155e+02
5.900000000000003020e-01	9.079649504431761216e+02
6.000000000000003109e-01	9.048715579557615456e+02
6.100000000000003197e-01	9.110248845794390036e+02
6.200000000000003286e-01	9.130650941100701630e+02
6.300000000000003375e-01	9.141475208048477725e+02
6.400000000000003464e-01	9.166196304510792743e+02
6.500000000000003553e-01	9.145292452554793954e+02
6.600000000000003642e-01	9.158867927656850725e+02
6.700000000000003730e-01	9.196240162759946770e+02
6.800000000000003819e-01	9.238389573071519862e+02
6.900000000000003908e-01	9.238637589214354193e+02
7.000000000000003997e-01	9.283509951426502766e+02
7.100000000000004086e-01	9.286432393255952320e+02
7.200000000000004174e-01	9.307869358328114231e+02
7.300000000000004263e-01	9.313473829789347747e+02
7.400000000000004352e-01	9.329797911034524986e+02
7.500000000000004441e-01	9.334368140604476594e+02
7.600000000000004530e-01	9.339940383415566885e+02
7.700000000000004619e-01	9.381641617260390831e+02
7.800000000000004707e-01	9.377069434156466059e+02
7.900000000000004796e-01	9.408170734021158523e+02
8.000000000000004885e-01	9.399645271837852079e+02
8.100000000000004974e-01	9.407163375302943678e+02
8.200000000000005063e-01	9.419531333625171783e+02
8.300000000000005151e-01	9.438983228192802244e+02
8.400000000000005240e-01	9.453899179583362411e+02
8.500000000000005329e-01	9.479262082884125675e+02
8.600000000000005418e-01	9.468744983513644229e+02
8.700000000000005507e-01	9.478761213274019610e+02
8.800000000000005596e-01	9.494464017526152020e+02
8.900000000000005684e-01	9.492379216082491666e+02
9.000000000000005773e-01	9.500513964317444788e+02
9.100000000000005862e-01	9.532414741835276573e+02
9.200000000000005951e-01	9.532106166457447216e+02
9.300000000000006040e-01	9.517256578694024256e+02
9.400000000000006128e-01	9.527606482164070485e+02
9.500000000000006217e-01	9.556521767015891555e+02
9.600000000000006306e-01	9.579788055122508013e+02
9.700000000000006395e-01	9.556728256921154525e+02
9.800000000000006484e-01	9.580878795354395834e+02
9.900000000000006573e-01	9.586207309900270275e+02
1.000000000000000666e+00	9.566302755851315851e+02
1.010000000000000675e+00	9.591125239386839212e+02
1.000000000000000666e+00	9.585716565670801401e+02
9.900000000000006573e-01	9.581006921243932766e+02
9.800000000000006484e-01	9.565693980717335307e+02
9.700000000000006395e-01	9.571448547137747482e+02
9.600000000000006306e-01	9.560519044380937430e+02
9.500000000000006217e-01	9.566816790601908451e+02
9.400000000000006128e-01	9.524116458219389187e+02
9.300000000000006040e-01	9.530790187300659682e+02
9.200000000000005951e-01	9.542577273918271885e+02
9.100000000000005862e-01	9.512600114173494603e+02
9.000000000000005773e-01	9.531177031507510264e+02
8.900000000000005684e-01	9.518089411434934846e+02
8.800000000000005596e-01	9.511402262018326610e+02
8.700000000000005507e-01	9.486314064706587033e+02
8.600000000000005418e-01	9.469784428081522947e+02
8.500000000000005329e-01	9.459583692429582698e+02
8.400000000000005240e-01	9.443482430100166312e+02
8.300000000000005151e-01	9.452539697698018699e+02
8.200000000000005063e-01	9.426820814965592490e+02
8.100000000000004974e-01	9.422153496804905899e+02
8.000000000000004885e-01	9.415520186578708035e+02
7.900000000000004796e-01	9.391627260559862407e+02
7.800000000000004707e-01	9.392115659726615604e+02
7.700000000000004619e-01	9.382842590668052480e+02
7.600000000000004530e-01	9.348409867773779069e+02
7.500000000000004441e-01	9.361797146236808658e+02
7.400000000000004352e-01	9.353684933737782785e+02
7.300000000000004263e-01	9.343092236489593461e+02
7.200000000000004174e-01	9.309619214570169561e+02
7.100000000000004086e-01	9.280023527929650982e+02
7.000000000000003997e-01	9.264060151061897841e+02
6.900000000000003908e-01	9.262410661705993107e+02
6.800000000000003819e-01	9.233171190113476996e+02
6.700000000000003730e-01	9.245958059331127288e+02
6.600000000000003642e-01	9.190155342264986302e+02
6.500000000000003553e-01	9.186035709046514057e+02
6.400000000000003464e-01	9.171114851392287619e+02
6.300000000000003375e-01	9.128708134536522039e+02
6.200000000000003286e-01	9.118797141278307663e+02
6.100000000000003197e-01	9.110253587422402006e+02
6.000000000000003109e-01	9.052418009216195287e+02
5.900000000000003020e-01	9.043942999040341419e+02
5.800000000000002931e-01	9.030267937952665989e+02
5.700000000000002842e-01	9.010424061100474091e+02
5.600000000000002753e-01	8.962115916127529545e+02
5.500000000000002665e-01	8.911542954847967621e+02
5.400000000000002576e-01	8.951351731435742067e+02
5.300000000000002487e-01	8.900015467806366587e+02
5.200000000000002398e-01	8.836451939654413081e+02
5.100000000000002309e-01	8.798769453838757499e+02
5.000000000000002220e-01	8.752294771089306096e+02
4.900000000000002132e-01	8.790857670096399943e+02
4.800000000000002043e-01	8.753553144759003999e+02
4.700000000000001954e-01	8.717116509852525041e+02
4.600000000000001865e-01	8.643350868004899894e+02
4.500000000000001776e-01	8.587483988143144416e+02
4.400000000000001688e-01	8.575557465827412216e+02
4.300000000000001599e-01	8.530227016331366485e+02
4.200000000000001510e-01	8.500860883386139903e+02
4.100000000000001421e-01	8.479726338413448730e+02
4.000000000000001332e-01	8.421372601321920683e+02
3.900000000000001243e-01	8.377478595438492448e+02
3.800000000000001155e-01	8.337311730940851930e+02
3.700000000000001066e-01	8.307414206630097624e+02
3.600000000000000977e-01	8.260633338914235537e+02
3.500000000000000888e-01	8.253704510046904943e+02
3.400000000000000799e-01	8.146164104476143848e+02
3.300000000000000711e-01	8.072906456454721820e+02
3.200000000000000622e-01	8.042424049110231863e+02
3.100000000000000533e-01	8.049918197350826858e+02
3.000000000000000444e-01	7.982237049568886960e+02
2.900000000000000355e-01	7.948186407898031121e+02
2.800000000000000266e-01	7.891696409304428244e+02
2.700000000000000178e-01	7.808209529943396774e+02
2.600000000000000089e-01	7.780431896651467696e+02
2.500000000000000000e-01	7.743934454563687950e+02
2.399999999999999911e-01	7.620547867370231643e+02
2.299999999999999822e-01	7.623632302293040084e+02
2.199999999999999734e-01	7.574933354677933721e+02
2.099999999999999645e-01	7.494099232056437359e+02
1.999999999999999556e-01	7.478155415916691027e+02
1.899999999999999467e-01	7.408568149645082030e+02
1.799999999999999378e-01	7.350670795767000527e+02
1.699999999999999289e-01	7.232098350923496355e+02
1.599999999999999201e-01	7.152258391028087772e+02
1.499999999999999112e-01	7.171078647907909271e+02
1.399999999999999023e-01	7.054767633906932360e+02
1.299999999999998934e-01	7.060993029868783424e+02
1.199999999999998984e-01	6.988423698483815087e+02
1.099999999999999034e-01	6.943346859774737823e+02
9.999999999999990841e-02	6.820626531997536404e+02
8.999999999999991340e-02	6.759436953683089087e+02
7.999999999999991840e-02	6.654917824521367038e+02
6.999999999999992339e-02	6.650054200938175200e+02
5.999999999999992145e-02	6.609194958648221245e+02
4.999999999999991951e-02	6.462183838688044943e+02
3.999999999999991757e-02	6.452641866546562142e+02
2.999999999999991562e-02	6.299878600757308504e+02
1.999999999999991368e-02	6.248445906029451180e+02
9.999999999999913472e-03	6.259616241988878755e+02
-8.673617379884035472e-17	6.092102029417440008e+02
-1.000000000000008694e-02	5.975881617279931106e+02
-2.000000000000008715e-02	5.932308207640858200e+02
-3.000000000000008910e-02	5.816917427587869724e+02
-4.000000000000009104e-02	5.815471397650658218e+02
-5.000000000000009298e-02	5.672798752051916154e+02
-6.000000000000009492e-02	5.570085726203756167e+02
-7.000000000000008993e-02	5.494196650395365396e+02
-8.000000000000008493e-02	5.358746949633496115e+02
-9.000000000000007994e-02	5.265468582796562487e+02
-1.000000000000000749e-01	5.172149695716339011e+02
-1.100000000000000699e-01	5.089469869061091458e+02
-1.200000000000000649e-01	4.939416351439481900e+02
-1.300000000000000600e-01	4.869939712683675452e+02
-1.400000000000000688e-01	4.742061137087806060e+02
-1.500000000000000777e-01	4.660221129790048735e+02
-1.600000000000000866e-01	4.490150805094072552e+02
-1.700000000000000955e-01	4.382977895161473043e+02
-1.800000000000001044e-01	4.231522078626662164e+02
-1.900000000000001132e-01	3.982267539862824037e+02
-2.000000000000001221e-01	3.809199693440385772e+02
-2.100000000000001310e-01	3.599813313918768927e+02
-2.200000000000001399e-01	3.371685081109466182e+02
-2.300000000000001488e-01	2.964569426200623639e+02
-2.400000000000001577e-01	2.437626372554549334e+02
-2.500000000000001665e-01	1.763034447023076723e+02
-2.600000000000001754e-01	1.241704860556011027e+02
-2.700000000000001843e-01	3.575477797277417835e+01
-2.800000000000001932e-01	-5.709818441823251334e+01
-2.900000000000002021e-01	-1.708406560521960955e+02
-3.000000000000002109e-01	-2.746684760405591987e+02
-3.100000000000002198e-01	-3.643102759707499558e+02
-3.200000000000002287e-01	-4.392248186004276249e+02
-3.300000000000002376e-01	-5.059530755623193272e+02
-3.400000000000002465e-01	-5.593806550770049171e+02
-3.500000000000002554e-01	-6.126326116244179047e+02
-3.600000000000002642e-01	-6.609189117875807824e+02
-3.700000000000002731e-01	-6.899161645639874223e+02
-3.800000000000002820e-01	-7.156857912257421503e+02
-3.900000000000002909e-01	-7.537624231114286886e+02
-4.000000000000002998e-01	-7.674747723725574815e+02
-4.100000000000003086e-01	-7.970788783965377888e+02
-4.200000000000003175e-01	-8.110038481335221832e+02
-4.300000000000003264e-01	-8.362008294672058355e+02
-4.400000000000003353e-01	-8.421231710335309799e+02
-4.500000000000003442e-01	-8.566226684386855368e+02
-4.600000000000003531e-01	-8.594159062081231468e+02
-4.700000000000003619e-01	-8.619747158262637186e+02
-4.800000000000003708e-01	-8.670313926529310038e+02
-4.900000000000003797e-01	-8.746776595908416994e+02
-5.000000000000003331e-01	-8.783038089329863851e+02
-5.100000000000003419e-01	-8.830702457056513595e+02
-5.200000000000003508e-01	-8.863368331858100646e+02
-5.300000000000003597e-01	-8.888138256086210731e+02
-5.400000000000003686e-01	-8.932382872506575495e+02
-5.500000000000003775e-01	-8.936382059191300868e+02
-5.600000000000003864e-01	-8.946403922053169708e+02
-5.700000000000003952e-01	-8.992995854736591355e+02
-5.800000000000004041e-01	-9.082152089641936072e+02
-5.900000000000004130e-01	-9.078283984412564678e+02
-6.000000000000004219e-01	-9.060981494125513791e+02
-6.100000000000004308e-01	-9.071576086476678711e+02
-6.200000000000004396e-01	-9.138300917895116982e+02
-6.300000000000004485e-01	-9.135722668554784605e+02
-6.400000000000004574e-01	-9.164964760059126547e+02
-6.500000000000004663e-01	-9.190505931448500405e+02
-6.600000000000004752e-01	-9.214670717661471144e+02
-6.700000000000004841e-01	-9.240390079604534321e+02
-6.800000000000004929e-01	-9.231833606856910137e+02
-6.900000000000005018e-01	-9.263854125278661513e+02
-7.000000000000005107e-01	-9.268794372406603088e+02
-7.100000000000005196e-01	-9.295398157184058618e+02
-7.200000000000005285e-01	-9.287699122417354829e+02
-7.300000000000005373e-01	-9.310482645441242084e+02
-7.400000000000005462e-01	-9.352248490797758222e+02
-7.500000000000005551e-01	-9.342065661397042504e+02
-7.600000000000005640e-01	-9.367219930743269742e+02
-7.700000000000005729e-01	-9.362181702417370843e+02
-7.800000000000005818e-01	-9.398829054746693146e+02
-7.900000000000005906e-01	-9.400401537331665622e+02
-8.000000000000005995e-01	-9.405568389057280001e+02
-8.100000000000006084e-01	-9.418916920559045138e+02
-8.200000000000006173e-01	-9.441986520199477582e+02
-8.300000000000006262e-01	-9.440383047310220945e+02
-8.400000000000006350e-01	-9.465516564112150490e+02
-8.500000000000006439e-01	-9.471485937224337022e+02
-8.600000000000006528e-01	-9.480294832090124828e+02
-8.700000000000006617e-01	-9.457463933427318352e+02
-8.800000000000006706e-01	-9.487032063366128796e+02
-8.900000000000006795e-01	-9.479597233736902808e+02
-9.000000000000006883e-01	-9.517984576710657620e+02
-9.100000000000006972e-01	-9.523826896851996935e+02
-9.200000000000007061e-01	-9.524939641384339666e+02
-9.300000000000007150e-01	-9.530881449720196770e+02
-9.400000000000007239e-01	-9.536955764682377321e+02
-9.500000000000007327e-01	-9.553451826809525755e+02
-9.600000000000007416e-01	-9.549625653929695090e+02
-9.700000000000007505e-01	-9.570029102148238280e+02
-9.800000000000007594e-01	-9.588893356215127142e+02
-9.700000000000007505e-01	-9.558559197976290989e+02
-9.600000000000007416e-01	-9.567977058508912478e+02
-9.500000000000007327e-01	-9.540578142965571260e+02
-9.400000000000007239e-01	-9.522360037300957174e+02
-9.300000000000007150e-01	-9.543252307699451649e+02
-9.200000000000007061e-01	-9.523337930489453811e+02
-9.100000000000006972e-01	-9.519692731416623701e+02
-9.000000000000006883e-01	-9.498234712188881304e+02
-8.900000000000006795e-01	-9.510306288940596460e+02
-8.800000000000006706e-01	-9.502826922753839654e+02
-8.700000000000006617e-01	-9.493748946358871308e+02
-8.600000000000006528e-01	-9.464737317860615349e+02
-8.500000000000006439e-01	-9.450578938106924625e+02
-8.400000000000006350e-01	-9.469223121779576786e+02
-8.300000000000006262e-01	-9.452602148609307733e+02
-8.200000000000006173e-01	-9.411564263259967902e+02
-8.100000000000006084e-01	-9.441009524586326052e+02
-8.000000000000005995e-01	-9.415114843206881687e+02
-7.900000000000005906e-01	-9.417258595982276574e+02
-7.800000000000005818e-01	-9.364628174978023480e+02
-7.700000000000005729e-01	-9.354300351381968994e+02
-7.600000000000005640e-01	-9.349791800219945799e+02
-7.500000000000005551e-01	-9.313599957909226532e+02
-7.400000000000005462e-01	-9.325558802152651197e+02
-7.300000000000005373e-01	-9.296916734845065093e+02
-7.200000000000005285e-01	-9.299469884604548042e+02
-7.100000000000005196e-01	-9.296058846234916473e+02
-7.000000000000005107e-01	-9.240122620218646716e+02
-6.900000000000005018e-01	-9.225486248301600654e+02
-6.800000000000004929e-01	-9.226422338913296244e+02
-6.700000000000004841e-01	-9.274897560875667750e+02
-6.600000000000004752e-01	-9.179530888324081843e+02
-6.500000000000004663e-01	-9.174748032696960536e+02
-6.400000000000004574e-01	-9.167209922684927506e+02
-6.300000000000004485e-01	-9.141622156848831082e+02
-6.200000000000004396e-01	-9.140614321026617972e+02
-6.100000000000004308e-01	-9.065951253016758073e+02
-6.000000000000004219e-01	-9.068506548302156034e+02
-5.900000000000004130e-01	-9.057425877714424587e+02
-5.800000000000004041e-01	-9.051293115035927030e+02
-5.700000000000003952e-01	-9.022240681031640861e+02
-5.600000000000003864e-01	-9.002517188594039226e+02
-5.500000000000003775e-01	-8.938215960939354545e+02
-5.400000000000003686e-01	-8.887974057705579298e+02
-5.300000000000003597e-01	-8.905230495719031296e+02
-5.200000000000003508e-01	-8.856763039117378185e+02
-5.100000000000003419e-01	-8.851337619664424210e+02
-5.000000000000003331e-01	-8.749999142448793918e+02
-4.900000000000003242e-01	-8.788392086590098415e+02
-4.800000000000003153e-01	-8.750313992421208695e+02
-4.700000000000003064e-01	-8.740012330034777506e+02
-4.600000000000002975e-01	-8.661737347792293349e+02
-4.500000000000002887e-01	-8.631519037252865019e+02
-4.400000000000002798e-01	-8.559368828351026650e+02
-4.300000000000002709e-01	-8.548556723090731566e+02
-4.200000000000002620e-01	-8.547291457225389877e+02
-4.100000000000002531e-01	-8.444770384240288195e+02
-4.000000000000002442e-01	-8.390201794975055236e+02
-3.900000000000002354e-01	-8.402906571286262079e+02
-3.800000000000002265e-01	-8.282253562953665096e+02
-3.700000000000002176e-01	-8.288386198478531242e+02
-3.600000000000002087e-01	-8.198713740777794783e+02
-3.500000000000001998e-01	-8.208833509787523326e+02
-3.400000000000001910e-01	-8.133372122601018646e+02
-3.300000000000001821e-01	-8.118039653691868125e+02
-3.200000000000001732e-01	-8.086458659867569168e+02
-3.100000000000001643e-01	-7.964896451198003433e+02
-3.000000000000001554e-01	-8.001147599107636097e+02
-2.900000000000001465e-01	-7.886827795965549512e+02
-2.800000000000001377e-01	-7.852866952557104696e+02
-2.700000000000001288e-01	-7.813583773338489209e+02
-2.600000000000001199e-01	-7.843346928791996788e+02
-2.500000000000001110e-01	-7.692998282944444099e+02
-2.400000000000001021e-01	-7.661221080074980136e+02
-2.300000000000000933e-01	-7.562827215748191065e+02
-2.200000000000000844e-01	-7.581170374753950227e+02
-2.100000000000000755e-01	-7.539893402123334454e+02
-2.000000000000000666e-01	-7.423572669802379096e+02
-1.900000000000000577e-01	-7.406518822727035740e+02
-1.800000000000000488e-01	-7.329530163737363182e+02
-1.700000000000000400e-01	-7.295367749725622843e+02
-1.600000000000000311e-01	-7.264472384619197101e+02
-1.500000000000000222e-01	-7.116420497274472154e+02
-1.400000000000000133e-01	-7.065356741640131304e+02
-1.300000000000000044e-01	-7.028312699995306048e+02
-1.200000000000000094e-01	-6.906501483108216917e+02
-1.100000000000000144e-01	-6.850233228092071158e+02
-1.000000000000000194e-01	-6.851243571695657693e+02
-9.000000000000002442e-02	-6.764395184772218954e+02
-8.000000000000002942e-02	-6.733316035594579034e+02
-7.000000000000003442e-02	-6.654674669169796744e+02
-6.000000000000003247e-02	-6.511793568364256544e+02
-5.000000000000003053e-02	-6.474989810879998231e+02
-4.000000000000002859e-02	-6.465223281558521649e+02
-3.000000000000002665e-02	-6.308708857496266091e+02
-2.000000000000002470e-02	-6.299411853512336847e+02
-1.000000000000002449e-02	-6.164047955158499690e+02
-2.428612866367529932e-17	-6.104034955246356731e+02
9.999999999999975922e-03	-5.999581099308783223e+02
1.999999999999997613e-02	-5.924955046582585965e+02
2.999999999999997807e-02	-5.828730066947284740e+02
3.999999999999998002e-02	-5.726238799680199918e+02
4.999999999999998196e-02	-5.706484030575512634e+02
5.999999999999998390e-02	-5.654002095872702967e+02
6.999999999999997891e-02	-5.563193048703107024e+02
7.999999999999997391e-02	-5.381972191701327120e+02
8.999999999999996891e-02	-5.255227571339429460e+02
9.999999999999996392e-02	-5.207555451598410627e+02
1.099999999999999589e-01	-5.061547822758589632e+02
1.199999999999999539e-01	-4.993675552413773175e+02
1.299999999999999489e-01	-4.960790104364014610e+02
1.399999999999999578e-01	-4.758759898146008709e+02
1.499999999999999667e-01	-4.589803467247265871e+02
1.599999999999999756e-01	-4.489002517376059131e+02
1.699999999999999845e-01	-4.370679662194566504e+02
1.799999999999999933e-01	-4.244021441918270625e+02
1.900000000000000022e-01	-4.017902728297920589e+02
2.000000000000000111e-01	-3.940448944753960632e+02
2.100000000000000200e-01	-3.528810053444080381e+02
2.200000000000000289e-01	-3.247569216528710285e+02
2.300000000000000377e-01	-2.832958955594806412e+02
2.400000000000000466e-01	-2.485151317889887252e+02
2.500000000000000555e-01	-1.802923404167038655e+02
2.600000000000000644e-01	-1.052338950790530419e+02
2.700000000000000733e-01	-2.073227767661252585e+01
2.800000000000000822e-01	4.216166543821360335e+01
2.900000000000000910e-01	1.450467428970162587e+02
3.000000000000000999e-01	2.726060161671389892e+02
3.100000000000001088e-01	3.907694877908211879e+02
3.200000000000001177e-01	4.776567409979977015e+02
3.300000000000001266e-01	5.434938071005462916e+02
3.400000000000001354e-01	5.882880784457830714e+02
3.500000000000001443e-01	6.474049408512479431e+02
3.600000000000001532e-01	7.032299723334418786e+02
3.700000000000001621e-01	7.389953422905970228e+02
3.800000000000001710e-01	7.523645753246092909e+02
3.900000000000001799e-01	7.773823018092613211e+02
4.000000000000001887e-01	7.999237872673365928e+02
4.100000000000001976e-01	8.108980841666150354e+02
4.200000000000002065e-01	8.298623094128473667e+02
4.300000000000002154e-01	8.382839067532752324e+02
4.400000000000002243e-01	8.483005017743276994e+02
4.500000000000002331e-01	8.562416378465514981e+02
4.600000000000002420e-01	8.610442412371752425e+02
4.700000000000002509e-01	8.721659681570472458e+02
4.800000000000002598e-01	8.725164992890873918e+02
4.900000000000002687e-01	8.791403864103609749e+02
5.000000000000002220e-01	8.804222396503558912e+02
5.100000000000002309e-01	8.849552621696968799e+02
5.200000000000002398e-01	8.868490051085901769e+02
5.300000000000002487e-01	8.907301497730890105e+02
5.400000000000002576e-01	8.949722733906932035e+02
5.500000000000002665e-01	8.919520440192611659e+02
5.600000000000002753e-01	8.971209882184183471e+02
5.700000000000002842e-01	9.010266879369102071e+02
5.800000000000002931e-01	8.999354924447765143e+02
5.900000000000003020e-01	9.026890273931878710e+02
6.000000000000003109e-01	9.012895850737155570e+02
6.100000000000003197e-01	9.072993831561107072e+02
6.200000000000003286e-01	9.164054838128720348e+02
6.300000000000003375e-01	9.155737696032268786e+02
6.400000000000003464e-01	9.147125227140106745e+02
6.500000000000003553e-01	9.189453604338266359e+02
6.600000000000003642e-01	9.204139638885808381e+02
6.700000000000003730e-01	9.208643803067941462e+02
6.800000000000003819e-01	9.233274719947044105e+02
6.900000000000003908e-01	9.208490830150602733e+02
7.000000000000003997e-01	9.263420570361967066e+02
7.100000000000004086e-01	9.293208257287158176e+02
7.200000000000004174e-01	9.284232968586974266e+02
7.300000000000004263e-01	9.335223921285381721e+02
7.400000000000004352e-01	9.333949111206395628e+02
7.500000000000004441e-01	9.341685025396842548e+02
7.600000000000004530e-01	9.355458759114368377e+02
7.700000000000004619e-01	9.387260157949526729e+02
7.800000000000004707e-01	9.391920416896136885e+02
7.900000000000004796e-01	9.423102827089811626e+02
8.000000000000004885e-01	9.401828584835284346e+02
8.100000000000004974e-01	9.438720755870938319e+02
8.200000000000005063e-01	9.434920249758260979e+02
8.300000000000005151e-01	9.435393263438182885e+02
8.400000000000005240e-01	9.442343972501402050e+02
8.500000000000005329e-01	9.466629302083284756e+02
8.600000000000005418e-01	9.483473961790571138e+02
8.700000000000005507e-01	9.484021419281311864e+02
8.800000000000005596e-01	9.475587195277885257e+02
8.900000000000005684e-01	9.491181121060003534e+02
9.000000000000005773e-01	9.508022524827997586e+02
9.100000000000005862e-01	9.534437291899772617e+02
9.200000000000005951e-01	9.537785284431631680e+02
9.300000000000006040e-01	9.538413598307313350e+02
9.400000000000006128e-01	9.534168769423853291e+02
9.500000000000006217e-01	9.562642085978005753e+02
9.600000000000006306e-01	9.559019452088468825e+02
9.700000000000006395e-01	9.565734666069223522e+02
9.800000000000006484e-01	9.574032194134275642e+02
9.900000000000006573e-01	9.583602754542835100e+02
1.000000000000000666e+00	9.599478556131338109e+02
0.000000000000000000e+00	0.000000000000000000e+00
0.000000000000000000e+00	0.000000000000000000e+00
0.000000000000000000e+00	0.000000000000000000e+00
0.000000000000000000e+00	0.000000000000000000e+00
0.000000000000000000e+00	0.000000000000000000e+00
0.000000000000000000e+00	0.000000000000000000e+00
0.000000000000000000e+00	0.000000000000000000e+00
0.000000000000000000e+00	0.000000000000000000e+00
0.000000000000000000e+00	0.000000000000000000e+00
0.000000000000000000e+00	0.000000000000000000e+00
0.000000000000000000e+00	0.000000000000000000e+00
0.000000000000000000e+00	0.000000000000000000e+00
0.000000000000000000e+00	0.000000000000000000e+00
0.000000000000000000e+00	0.000000000000000000e+00
0.000000000000000000e+00	0.000000000000000000e+00
0.000000000000000000e+00	6.584956334336718065e-319
0.000000000000000000e+00	0.000000000000000000e+00
0.000000000000000000e+00	0.000000000000000000e+00
0.000000000000000000e+00	0.000000000000000000e+00
0.000000000000000000e+00	0.000000000000000000e+00
0.000000000000000000e+00	0.000000000000000000e+00
0.000000000000000000e+00	0.000000000000000000e+00
0.000000000000000000e+00	0.000000000000000000e+00
0.000000000000000000e+00	0.000000000000000000e+00
0.000000000000000000e+00	0.000000000000000000e+00
0.000000000000000000e+00	0.000000000000000000e+00
0.000000000000000000e+00	0.000000000000000000e+00
0.000000000000000000e+00	0.000000000000000000e+00
0.000000000000000000e+00	0.000000000000000000e+00
0.000000000000000000e+00	0.000000000000000000e+00
0.000000000000000000e+00	0.000000000000000000e+00
0.000000000000000000e+00	0.000000000000000000e+00
0.000000000000000000e+00	0.000000000000000000e+00
0.000000000000000000e+00	0.000000000000000000e+00
0.000000000000000000e+00	0.000000000000000000e+00
0.000000000000000000e+00	0.000000000000000000e+00
0.000000000000000000e+00	0.000000000000000000e+00
0.000000000000000000e+00	0.000000000000000000e+00
0.000000000000000000e+00	0.000000000000000000e+00
0.000000000000000000e+00	0.000000000000000000e+00
0.000000000000000000e+00	0.000000000000000000e+00
0.000000000000000000e+00	0.000000000000000000e+00
0.000000000000000000e+00	0.000000000000000000e+00
0.000000000000000000e+00	0.000000000000000000e+00
0.000000000000000000e+00	0.000000000000000000e+00
0.000000000000000000e+00	0.000000000000000000e+00
0.000000000000000000e+00	0.000000000000000000e+00
0.000000000000000000e+00	0.000000000000000000e+00
0.000000000000000000e+00	0.000000000000000000e+00
0.000000000000000000e+00	0.000000000000000000e+00
0.000000000000000000e+00	0.000000000000000000e+00
0.000000000000000000e+00	0.000000000000000000e+00
0.000000000000000000e+00	0.000000000000000000e+00
0.000000000000000000e+00	0.000000000000000000e+00
0.000000000000000000e+00	0.000000000000000000e+00
0.000000000000000000e+00	0.000000000000000000e+00
0.000000000000000000e+00	0.000000000000000000e+00
0.000000000000000000e+00	0.000000000000000000e+00
0.000000000000000000e+00	0.000000000000000000e+00
0.000000000000000000e+00	0.000000000000000000e+00
0.000000000000000000e+00	0.000000000000000000e+00
0.000000000000000000e+00	0.000000000000000000e+00
0.000000000000000000e+00	0.000000000000000000e+00
0.000000000000000000e+00	0.000000000000000000e+00
0.000000000000000000e+00	0.000000000000000000e+00
0.000000000000000000e+00	0.000000000000000000e+00
0.000000000000000000e+00	0.000000000000000000e+00
0.000000000000000000e+00	0.000000000000000000e+00
0.000000000000000000e+00	0.000000000000000000e+00
0.000000000000000000e+00	0.000000000000000000e+00
0.000000000000000000e+00	0.000000000000000000e+00
0.000000000000000000e+00	0.000000000000000000e+00
0.000000000000000000e+00	0.000000000000000000e+00
0.000000000000000000e+00	0.000000000000000000e+00
0.000000000000000000e+00	0.000000000000000000e+00
0.000000000000000000e+00	0.000000000000000000e+00
0.000000000000000000e+00	0.000000000000000000e+00
0.000000000000000000e+00	0.000000000000000000e+00
0.000000000000000000e+00	0.000000000000000000e+00
0.000000000000000000e+00	0.000000000000000000e+00
0.000000000000000000e+00	0.000000000000000000e+00
0.000000000000000000e+00	0.000000000000000000e+00
0.000000000000000000e+00	0.000000000000000000e+00
0.000000000000000000e+00	0.000000000000000000e+00
0.000000000000000000e+00	0.000000000000000000e+00
0.000000000000000000e+00	0.000000000000000000e+00
0.000000000000000000e+00	0.000000000000000000e+00
0.000000000000000000e+00	0.000000000000000000e+00
0.000000000000000000e+00	0.000000000000000000e+00
0.000000000000000000e+00	0.000000000000000000e+00
0.000000000000000000e+00	0.000000000000000000e+00
0.000000000000000000e+00	0.000000000000000000e+00
0.000000000000000000e+00	0.000000000000000000e+00
0.000000000000000000e+00	0.000000000000000000e+00
0.000000000000000000e+00	0.000000000000000000e+00
0.000000000000000000e+00	0.000000000000000000e+00
0.000000000000000000e+00	0.000000000000000000e+00
0.000000000000000000e+00	0.000000000000000000e+00
0.000000000000000000e+00	0.000000000000000000e+00
0.000000000000000000e+00	0.000000000000000000e+00
0.000000000000000000e+00	0.000000000000000000e+00
0.000000000000000000e+00	0.000000000000000000e+00
0.000000000000000000e+00	0.000000000000000000e+00
0.000000000000000000e+00	0.000000000000000000e+00
0.000000000000000000e+00	0.000000000000000000e+00
0.000000000000000000e+00	0.000000000000000000e+00
0.000000000000000000e+00	0.000000000000000000e+00
0.000000000000000000e+00	0.000000000000000000e+00
0.000000000000000000e+00	0.000000000000000000e+00
0.000000000000000000e+00	0.000000000000000000e+00
0.000000000000000000e+00	0.000000000000000000e+00
0.000000000000000000e+00	0.000000000000000000e+00
0.000000000000000000e+00	0.000000000000000000e+00
0.000000000000000000e+00	0.000000000000000000e+00
0.000000000000000000e+00	0.000000000000000000e+00
0.000000000000000000e+00	0.000000000000000000e+00
0.000000000000000000e+00	0.000000000000000000e+00
0.000000000000000000e+00	0.000000000000000000e+00
0.000000000000000000e+00	0.000000000000000000e+00
0.000000000000000000e+00	0.000000000000000000e+00
0.000000000000000000e+00	0.000000000000000000e+00
0.000000000000000000e+00	0.000000000000000000e+00
0.000000000000000000e+00	0.000000000000000000e+00
0.000000000000000000e+00	0.000000000000000000e+00
0.000000000000000000e+00	0.000000000000000000e+00
0.000000000000000000e+00	0.000000000000000000e+00
0.000000000000000000e+00	0.000000000000000000e+00
0.000000000000000000e+00	0.000000000000000000e+00
0.000000000000000000e+00	0.000000000000000000e+00
0.000000000000000000e+00	0.000000000000000000e+00
0.000000000000000000e+00	0.000000000000000000e+00
0.000000000000000000e+00	0.000000000000000000e+00
0.000000000000000000e+00	0.000000000000000000e+00
0.000000000000000000e+00	0.000000000000000000e+00
0.000000000000000000e+00	0.000000000000000000e+00
0.000000000000000000e+00	0.000000000000000000e+00
0.000000000000000000e+00	0.000000000000000000e+00
0.000000000000000000e+00	0.000000000000000000e+00
0.000000000000000000e+00	0.000000000000000000e+00
0.000000000000000000e+00	0.000000000000000000e+00
0.000000000000000000e+00	0.000000000000000000e+00
0.000000000000000000e+00	0.000000000000000000e+00
0.000000000000000000e+00	0.000000000000000000e+00
0.000000000000000000e+00	0.000000000000000000e+00
0.000000000000000000e+00	0.000000000000000000e+00
0.000000000000000000e+00	0.000000000000000000e+00
0.000000000000000000e+00	0.000000000000000000e+00
0.000000000000000000e+00	0.000000000000000000e+00
0.000000000000000000e+00	0.000000000000000000e+00
0.000000000000000000e+00	0.000000000000000000e+00
0.000000000000000000e+00	0.000000000000000000e+00
0.000000000000000000e+00	0.000000000000000000e+00
0.000000000000000000e+00	0.000000000000000000e+00
0.000000000000000000e+00	0.000000000000000000e+00
0.000000000000000000e+00	0.000000000000000000e+00
0.000000000000000000e+00	0.000000000000000000e+00
0.000000000000000000e+00	0.000000000000000000e+00
0.000000000000000000e+00	0.000000000000000000e+00
0.000000000000000000e+00	0.000000000000000000e+00
0.000000000000000000e+00	0.000000000000000000e+00
0.000000000000000000e+00	0.000000000000000000e+00
0.000000000000000000e+00	0.000000000000000000e+00
0.000000000000000000e+00	0.000000000000000000e+00
0.000000000000000000e+00	0.000000000000000000e+00
0.000000000000000000e+00	0.000000000000000000e+00
0.000000000000000000e+00	0.000000000000000000e+00
0.000000000000000000e+00	0.000000000000000000e+00
0.000000000000000000e+00	0.000000000000000000e+00
0.000000000000000000e+00	0.000000000000000000e+00
0.000000000000000000e+00	0.000000000000000000e+00
0.000000000000000000e+00	0.000000000000000000e+00
0.000000000000000000e+00	0.000000000000000000e+00
0.000000000000000000e+00	0.000000000000000000e+00
0.000000000000000000e+00	0.000000000000000000e+00
0.000000000000000000e+00	0.000000000000000000e+00
0.000000000000000000e+00	0.000000000000000000e+00
0.000000000000000000e+00	0.000000000000000000e+00
0.000000000000000000e+00	0.000000000000000000e+00
0.000000000000000000e+00	0.000000000000000000e+00
0.000000000000000000e+00	0.000000000000000000e+00
0.000000000000000000e+00	0.000000000000000000e+00
0.000000000000000000e+00	0.000000000000000000e+00
0.000000000000000000e+00	0.000000000000000000e+00
0.000000000000000000e+00	0.000000000000000000e+00
0.000000000000000000e+00	0.000000000000000000e+00
0.000000000000000000e+00	0.000000000000000000e+00
0.000000000000000000e+00	0.000000000000000000e+00
0.000000000000000000e+00	0.000000000000000000e+00
0.000000000000000000e+00	0.000000000000000000e+00
0.000000000000000000e+00	0.000000000000000000e+00
0.000000000000000000e+00	0.000000000000000000e+00
0.000000000000000000e+00	0.000000000000000000e+00
0.000000000000000000e+00	0.000000000000000000e+00
0.000000000000000000e+00	0.000000000000000000e+00
0.000000000000000000e+00	0.000000000000000000e+00
0.000000000000000000e+00	0.000000000000000000e+00
0.000000000000000000e+00	0.000000000000000000e+00
0.000000000000000000e+00	0.000000000000000000e+00
0.000000000000000000e+00	0.000000000000000000e+00
0.000000000000000000e+00	0.000000000000000000e+00
0.000000000000000000e+00	0.000000000000000000e+00
0.000000000000000000e+00	0.000000000000000000e+00
0.000000000000000000e+00	0.000000000000000000e+00
0.000000000000000000e+00	0.000000000000000000e+00
0.000000000000000000e+00	0.000000000000000000e+00
0.000000000000000000e+00	0.000000000000000000e+00
0.000000000000000000e+00	0.000000000000000000e+00
0.000000000000000000e+00	0.000000000000000000e+00
0.000000000000000000e+00	0.000000000000000000e+00
0.000000000000000000e+00	0.000000000000000000e+00
0.000000000000000000e+00	0.000000000000000000e+00
0.000000000000000000e+00	0.000000000000000000e+00
0.000000000000000000e+00	0.000000000000000000e+00
0.000000000000000000e+00	0.000000000000000000e+00
0.000000000000000000e+00	0.000000000000000000e+00
0.000000000000000000e+00	0.000000000000000000e+00
0.000000000000000000e+00	0.000000000000000000e+00
0.000000000000000000e+00	0.000000000000000000e+00
0.000000000000000000e+00	0.000000000000000000e+00
0.000000000000000000e+00	0.000000000000000000e+00
0.000000000000000000e+00	0.000000000000000000e+00
0.000000000000000000e+00	0.000000000000000000e+00
0.000000000000000000e+00	0.000000000000000000e+00
0.000000000000000000e+00	0.000000000000000000e+00
0.000000000000000000e+00	0.000000000000000000e+00
0.000000000000000000e+00	0.000000000000000000e+00
0.000000000000000000e+00	0.000000000000000000e+00
0.000000000000000000e+00	0.000000000000000000e+00
0.000000000000000000e+00	0.000000000000000000e+00
0.000000000000000000e+00	0.000000000000000000e+00
0.000000000000000000e+00	0.000000000000000000e+00
0.000000000000000000e+00	0.000000000000000000e+00
0.000000000000000000e+00	0.000000000000000000e+00
0.000000000000000000e+00	0.000000000000000000e+00
0.000000000000000000e+00	0.000000000000000000e+00
0.000000000000000000e+00	0.000000000000000000e+00
0.000000000000000000e+00	0.000000000000000000e+00
0.000000000000000000e+00	0.000000000000000000e+00
0.000000000000000000e+00	0.000000000000000000e+00
0.000000000000000000e+00	0.000000000000000000e+00
0.000000000000000000e+00	0.000000000000000000e+00
0.000000000000000000e+00	0.000000000000000000e+00
0.000000000000000000e+00	0.000000000000000000e+00
0.000000000000000000e+00	0.000000000000000000e+00
0.000000000000000000e+00	0.000000000000000000e+00
0.000000000000000000e+00	0.000000000000000000e+00
0.000000000000000000e+00	0.000000000000000000e+00
0.000000000000000000e+00	0.000000000000000000e+00
0.000000000000000000e+00	0.000000000000000000e+00
0.000000000000000000e+00	0.000000000000000000e+00
0.000000000000000000e+00	0.000000000000000000e+00
0.000000000000000000e+00	0.000000000000000000e+00
0.000000000000000000e+00	0.000000000000000000e+00
0.000000000000000000e+00	0.000000000000000000e+00
0.000000000000000000e+00	0.000000000000000000e+00
0.000000000000000000e+00	0.000000000000000000e+00
0.000000000000000000e+00	0.000000000000000000e+00
0.000000000000000000e+00	0.000000000000000000e+00
0.000000000000000000e+00	0.000000000000000000e+00
0.000000000000000000e+00	0.000000000000000000e+00
0.000000000000000000e+00	0.000000000000000000e+00
0.000000000000000000e+00	0.000000000000000000e+00
0.000000000000000000e+00	0.000000000000000000e+00
0.000000000000000000e+00	0.000000000000000000e+00
0.000000000000000000e+00	0.000000000000000000e+00
0.000000000000000000e+00	0.000000000000000000e+00
0.000000000000000000e+00	0.000000000000000000e+00
0.000000000000000000e+00	0.000000000000000000e+00
0.000000000000000000e+00	0.000000000000000000e+00
0.000000000000000000e+00	0.000000000000000000e+00
0.000000000000000000e+00	0.000000000000000000e+00
0.000000000000000000e+00	0.000000000000000000e+00
0.000000000000000000e+00	0.000000000000000000e+00
0.000000000000000000e+00	0.000000000000000000e+00
0.000000000000000000e+00	0.000000000000000000e+00
0.000000000000000000e+00	0.000000000000000000e+00
0.000000000000000000e+00	0.000000000000000000e+00
0.000000000000000000e+00	0.000000000000000000e+00
0.000000000000000000e+00	0.000000000000000000e+00
0.000000000000000000e+00	0.000000000000000000e+00
0.000000000000000000e+00	0.000000000000000000e+00
0.000000000000000000e+00	0.000000000000000000e+00
0.000000000000000000e+00	0.000000000000000000e+00
0.000000000000000000e+00	0.000000000000000000e+00
0.000000000000000000e+00	0.000000000000000000e+00
0.000000000000000000e+00	0.000000000000000000e+00
0.000000000000000000e+00	0.000000000000000000e+00
0.000000000000000000e+00	0.000000000000000000e+00
0.000000000000000000e+00	0.000000000000000000e+00
0.000000000000000000e+00	0.000000000000000000e+00
0.000000000000000000e+00	0.000000000000000000e+00
0.000000000000000000e+00	0.000000000000000000e+00
0.000000000000000000e+00	0.000000000000000000e+00
0.000000000000000000e+00	0.000000000000000000e+00
0.000000000000000000e+00	0.000000000000000000e+00
0.000000000000000000e+00	0.000000000000000000e+00
0.000000000000000000e+00	0.000000000000000000e+00
0.000000000000000000e+00	0.000000000000000000e+00
0.000000000000000000e+00	0.000000000000000000e+00
0.000000000000000000e+00	0.000000000000000000e+00
0.000000000000000000e+00	0.000000000000000000e+00
0.000000000000000000e+00	0.000000000000000000e+00
0.000000000000000000e+00	0.000000000000000000e+00
0.000000000000000000e+00	0.000000000000000000e+00
0.000000000000000000e+00	0.000000000000000000e+00
0.000000000000000000e+00	0.000000000000000000e+00
0.000000000000000000e+00	0.000000000000000000e+00
0.000000000000000000e+00	0.000000000000000000e+00
0.000000000000000000e+00	0.000000000000000000e+00
0.000000000000000000e+00	0.000000000000000000e+00
0.000000000000000000e+00	0.000000000000000000e+00
0.000000000000000000e+00	0.000000000000000000e+00
0.000000000000000000e+00	0.000000000000000000e+00
0.000000000000000000e+00	0.000000000000000000e+00
0.000000000000000000e+00	0.000000000000000000e+00
0.000000000000000000e+00	0.000000000000000000e+00
0.000000000000000000e+00	0.000000000000000000e+00
0.000000000000000000e+00	0.000000000000000000e+00
0.000000000000000000e+00	0.000000000000000000e+00
0.000000000000000000e+00	0.000000000000000000e+00
0.000000000000000000e+00	0.000000000000000000e+00
0.000000000000000000e+00	0.000000000000000000e+00
0.000000000000000000e+00	0.000000000000000000e+00
0.000000000000000000e+00	0.000000000000000000e+00
0.000000000000000000e+00	0.000000000000000000e+00
0.000000000000000000e+00	0.000000000000000000e+00
0.000000000000000000e+00	0.000000000000000000e+00
0.000000000000000000e+00	0.000000000000000000e+00
0.000000000000000000e+00	0.000000000000000000e+00
0.000000000000000000e+00	0.000000000000000000e+00
0.000000000000000000e+00	0.000000000000000000e+00
0.000000000000000000e+00	0.000000000000000000e+00
0.000000000000000000e+00	0.000000000000000000e+00
0.000000000000000000e+00	0.000000000000000000e+00
0.000000000000000000e+00	0.000000000000000000e+00
0.000000000000000000e+00	0.000000000000000000e+00
0.000000000000000000e+00	0.000000000000000000e+00
0.000000000000000000e+00	0.000000000000000000e+00
0.000000000000000000e+00	0.000000000000000000e+00
0.000000000000000000e+00	0.000000000000000000e+00
0.000000000000000000e+00	0.000000000000000000e+00
0.000000000000000000e+00	0.000000000000000000e+00
0.000000000000000000e+00	0.000000000000000000e+00
0.000000000000000000e+00	0.000000000000000000e+00
0.000000000000000000e+00	0.000000000000000000e+00
0.000000000000000000e+00	0.000000000000000000e+00
0.000000000000000000e+00	0.000000000000000000e+00
0.000000000000000000e+00	0.000000000000000000e+00
0.000000000000000000e+00	0.000000000000000000e+00
0.000000000000000000e+00	0.000000000000000000e+00
0.000000000000000000e+00	0.000000000000000000e+00
0.000000000000000000e+00	0.000000000000000000e+00
0.000000000000000000e+00	0.000000000000000000e+00
0.000000000000000000e+00	0.000000000000000000e+00
0.000000000000000000e+00	0.000000000000000000e+00
0.000000000000000000e+00	0.000000000000000000e+00
0.000000000000000000e+00	0.000000000000000000e+00
0.000000000000000000e+00	0.000000000000000000e+00
0.000000000000000000e+00	0.000000000000000000e+00
0.000000000000000000e+00	0.000000000000000000e+00
0.000000000000000000e+00	0.000000000000000000e+00
0.000000000000000000e+00	0.000000000000000000e+00
0.000000000000000000e+00	0.000000000000000000e+00
0.000000000000000000e+00	0.000000000000000000e+00
0.000000000000000000e+00	0.000000000000000000e+00
0.000000000000000000e+00	0.000000000000000000e+00
0.000000000000000000e+00	0.000000000000000000e+00
0.000000000000000000e+00	0.000000000000000000e+00
0.000000000000000000e+00	0.000000000000000000e+00
0.000000000000000000e+00	0.000000000000000000e+00
0.000000000000000000e+00	0.000000000000000000e+00
0.000000000000000000e+00	0.000000000000000000e+00
0.000000000000000000e+00	0.000000000000000000e+00
0.000000000000000000e+00	0.000000000000000000e+00
0.000000000000000000e+00	0.000000000000000000e+00
0.000000000000000000e+00	0.000000000000000000e+00
0.000000000000000000e+00	0.000000000000000000e+00
0.000000000000000000e+00	0.000000000000000000e+00
0.000000000000000000e+00	0.000000000000000000e+00
0.000000000000000000e+00	0.000000000000000000e+00
0.000000000000000000e+00	0.000000000000000000e+00
0.000000000000000000e+00	0.000000000000000000e+00
0.000000000000000000e+00	0.000000000000000000e+00
0.000000000000000000e+00	0.000000000000000000e+00
0.000000000000000000e+00	0.000000000000000000e+00
0.000000000000000000e+00	0.000000000000000000e+00
0.000000000000000000e+00	0.000000000000000000e+00
0.000000000000000000e+00	0.000000000000000000e+00
0.000000000000000000e+00	0.000000000000000000e+00
0.000000000000000000e+00	0.000000000000000000e+00
0.000000000000000000e+00	0.000000000000000000e+00
0.000000000000000000e+00	0.000000000000000000e+00
0.000000000000000000e+00	0.000000000000000000e+00
0.000000000000000000e+00	0.000000000000000000e+00
0.000000000000000000e+00	0.000000000000000000e+00
0.000000000000000000e+00	0.000000000000000000e+00
0.000000000000000000e+00	0.000000000000000000e+00
0.000000000000000000e+00	0.000000000000000000e+00
0.000000000000000000e+00	0.000000000000000000e+00
0.000000000000000000e+00	0.000000000000000000e+00
0.000000000000000000e+00	0.000000000000000000e+00
0.000000000000000000e+00	0.000000000000000000e+00
0.000000000000000000e+00	0.000000000000000000e+00
0.000000000000000000e+00	0.000000000000000000e+00
0.000000000000000000e+00	0.000000000000000000e+00
0.000000000000000000e+00	0.000000000000000000e+00
0.000000000000000000e+00	0.000000000000000000e+00
0.000000000000000000e+00	0.000000000000000000e+00
0.000000000000000000e+00	0.000000000000000000e+00
0.000000000000000000e+00	0.000000000000000000e+00
0.000000000000000000e+00	0.000000000000000000e+00
0.000000000000000000e+00	0.000000000000000000e+00
0.000000000000000000e+00	0.000000000000000000e+00
0.000000000000000000e+00	0.000000000000000000e+00
0.000000000000000000e+00	0.000000000000000000e+00
0.000000000000000000e+00	0.000000000000000000e+00
0.000000000000000000e+00	0.000000000000000000e+00
0.000000000000000000e+00	0.000000000000000000e+00
0.000000000000000000e+00	0.000000000000000000e+00
0.000000000000000000e+00	0.000000000000000000e+00
0.000000000000000000e+00	0.000000000000000000e+00
0.000000000000000000e+00	0.000000000000000000e+00
0.000000000000000000e+00	0.000000000000000000e+00
0.000000000000000000e+00	0.000000000000000000e+00
0.000000000000000000e+00	0.000000000000000000e+00
0.000000000000000000e+00	0.000000000000000000e+00
0.000000000000000000e+00	0.000000000000000000e+00
0.000000000000000000e+00	0.000000000000000000e+00
0.000000000000000000e+00	0.000000000000000000e+00
0.000000000000000000e+00	0.000000000000000000e+00
0.000000000000000000e+00	0.000000000000000000e+00
0.000000000000000000e+00	0.000000000000000000e+00
0.000000000000000000e+00	0.000000000000000000e+00
0.000000000000000000e+00	0.000000000000000000e+00
0.000000000000000000e+00	0.000000000000000000e+00
0.000000000000000000e+00	0.000000000000000000e+00
0.000000000000000000e+00	0.000000000000000000e+00
0.000000000000000000e+00	0.000000000000000000e+00
0.000000000000000000e+00	0.000000000000000000e+00
0.000000000000000000e+00	0.000000000000000000e+00
0.000000000000000000e+00	0.000000000000000000e+00
0.000000000000000000e+00	0.000000000000000000e+00
0.000000000000000000e+00	0.000000000000000000e+00
0.000000000000000000e+00	0.000000000000000000e+00
0.000000000000000000e+00	0.000000000000000000e+00
0.000000000000000000e+00	0.000000000000000000e+00
0.000000000000000000e+00	0.000000000000000000e+00
0.000000000000000000e+00	0.000000000000000000e+00
0.000000000000000000e+00	0.000000000000000000e+00
0.000000000000000000e+00	0.000000000000000000e+00
0.000000000000000000e+00	0.000000000000000000e+00
0.000000000000000000e+00	0.000000000000000000e+00
0.000000000000000000e+00	0.000000000000000000e+00
0.000000000000000000e+00	0.000000000000000000e+00
0.000000000000000000e+00	0.000000000000000000e+00
0.000000000000000000e+00	0.000000000000000000e+00
0.000000000000000000e+00	0.000000000000000000e+00
0.000000000000000000e+00	0.000000000000000000e+00
0.000000000000000000e+00	0.000000000000000000e+00
0.000000000000000000e+00	0.000000000000000000e+00
0.000000000000000000e+00	0.000000000000000000e+00
0.000000000000000000e+00	0.000000000000000000e+00
0.000000000000000000e+00	0.000000000000000000e+00
0.000000000000000000e+00	0.000000000000000000e+00
0.000000000000000000e+00	0.000000000000000000e+00
0.000000000000000000e+00	0.000000000000000000e+00
0.000000000000000000e+00	0.000000000000000000e+00
0.000000000000000000e+00	0.000000000000000000e+00
0.000000000000000000e+00	0.000000000000000000e+00
0.000000000000000000e+00	0.000000000000000000e+00
0.000000000000000000e+00	0.000000000000000000e+00
0.000000000000000000e+00	0.000000000000000000e+00
0.000000000000000000e+00	0.000000000000000000e+00
0.000000000000000000e+00	0.000000000000000000e+00
0.000000000000000000e+00	0.000000000000000000e+00
0.000000000000000000e+00	0.000000000000000000e+00
0.000000000000000000e+00	0.000000000000000000e+00
0.000000000000000000e+00	0.000000000000000000e+00
0.000000000000000000e+00	0.000000000000000000e+00
0.000000000000000000e+00	0.000000000000000000e+00
0.000000000000000000e+00	0.000000000000000000e+00
0.000000000000000000e+00	0.000000000000000000e+00
0.000000000000000000e+00	0.000000000000000000e+00
0.000000000000000000e+00	0.000000000000000000e+00
0.000000000000000000e+00	0.000000000000000000e+00
0.000000000000000000e+00	0.000000000000000000e+00
0.000000000000000000e+00	0.000000000000000000e+00
0.000000000000000000e+00	0.000000000000000000e+00
0.000000000000000000e+00	0.000000000000000000e+00
0.000000000000000000e+00	0.000000000000000000e+00
0.000000000000000000e+00	0.000000000000000000e+00
0.000000000000000000e+00	0.000000000000000000e+00
0.000000000000000000e+00	0.000000000000000000e+00
0.000000000000000000e+00	0.000000000000000000e+00
0.000000000000000000e+00	0.000000000000000000e+00
0.000000000000000000e+00	0.000000000000000000e+00
0.000000000000000000e+00	0.000000000000000000e+00
0.000000000000000000e+00	0.000000000000000000e+00
0.000000000000000000e+00	0.000000000000000000e+00
0.000000000000000000e+00	0.000000000000000000e+00
0.000000000000000000e+00	0.000000000000000000e+00
