0.000000000000000000e+00	0.000000000000000000e+00
1.000000000000000021e-02	2.659694325671755877e+01
2.000000000000000042e-02	3.679475973323160076e+01
2.999999999999999889e-02	4.200979855985326594e+01
4.000000000000000083e-02	5.296953340569612578e+01
5.000000000000000278e-02	5.987946354877471578e+01
6.000000000000000472e-02	7.136460188288069162e+01
7.000000000000000666e-02	7.689025900524552526e+01
8.000000000000000167e-02	8.404379338972893265e+01
8.999999999999999667e-02	9.415291952538919418e+01
9.999999999999999167e-02	9.814884315686957450e+01
1.099999999999999867e-01	1.124406427580810686e+02
1.199999999999999817e-01	1.200301283774446119e+02
1.299999999999999767e-01	1.264833346125802223e+02
1.399999999999999856e-01	1.348156889026350598e+02
1.499999999999999944e-01	1.466372838284362103e+02
1.600000000000000033e-01	1.560671317630672092e+02
1.700000000000000122e-01	1.686381438125882539e+02
1.800000000000000211e-01	1.762474946964863705e+02
1.900000000000000300e-01	1.859499723777526583e+02
2.000000000000000389e-01	1.998926804410863554e+02
2.100000000000000477e-01	2.140785478604567231e+02
2.200000000000000566e-01	2.270713900459601007e+02
2.300000000000000655e-01	2.385804272158283652e+02
2.400000000000000744e-01	2.497649409755798615e+02
2.500000000000000555e-01	2.942112566773761841e+02
2.600000000000000644e-01	3.259695344145084164e+02
2.700000000000000733e-01	3.615871647767014565e+02
2.800000000000000822e-01	4.098453371471101150e+02
2.900000000000000910e-01	4.762791008337046037e+02
3.000000000000000999e-01	5.266785109843594910e+02
3.100000000000001088e-01	5.718950701516571371e+02
3.200000000000001177e-01	6.280918380241384966e+02
3.300000000000001266e-01	6.628897058495964529e+02
3.400000000000001354e-01	7.060343354152806796e+02
3.500000000000001443e-01	7.394043007830698571e+02
3.600000000000001532e-01	7.672565550979380760e+02
3.700000000000001621e-01	7.804116385762786194e+02
3.800000000000001710e-01	7.964000660122446789e+02
3.900000000000001799e-01	8.082627607835878507e+02
4.000000000000001887e-01	8.280190512996932739e+02
4.100000000000001976e-01	8.270545526332834925e+02
4.200000000000002065e-01	8.401749545117074831e+02
4.300000000000002154e-01	8.464741730840048604e+02
4.400000000000002243e-01	8.546301655508344766e+02
4.500000000000002331e-01	8.584564148771654573e+02
4.600000000000002420e-01	8.618088278719303617e+02
4.700000000000002509e-01	8.638137094545736545e+02
4.800000000000002598e-01	8.721295669633777834e+02
4.900000000000002687e-01	8.728247870376138735e+02
5.000000000000002220e-01	8.797576400361386959e+02
5.100000000000002309e-01	8.822773520194191406e+02
5.200000000000002398e-01	8.871147003038818184e+02
5.300000000000002487e-01	8.852656213878284461e+02
5.400000000000002576e-01	8.920402096114706865e+02
5.500000000000002665e-01	8.911075685953285301e+02
5.600000000000002753e-01	8.987239035233189952e+02
5.700000000000002842e-01	9.003872405895539259e+02
5.800000000000002931e-01	9.021506501087241077e+02
5.900000000000003020e-01	9.037455681732290032e+02
6.000000000000003109e-01	9.060288431915130332e+02
6.100000000000003197e-01	9.112420954339281707e+02
6.200000000000003286e-01	9.146762487464250171e+02
6.300000000000003375e-01	9.154232125349191165e+02
6.400000000000003464e-01	9.141757493072715306e+02
6.500000000000003553e-01	9.210997149283032286e+02
6.600000000000003642e-01	9.216200222097222650e+02
6.700000000000003730e-01	9.248543217214572678e+02
6.800000000000003819e-01	9.242363853604066435e+02
6.900000000000003908e-01	9.305479953906424271e+02
7.000000000000003997e-01	9.270880578643209446e+02
7.100000000000004086e-01	9.308413908409754640e+02
7.200000000000004174e-01	9.289472653728050773e+02
7.300000000000004263e-01	9.348582392668067769e+02
7.400000000000004352e-01	9.335230800276295895e+02
7.500000000000004441e-01	9.347543737027447150e+02
7.600000000000004530e-01	9.377439238163142363e+02
7.700000000000004619e-01	9.389288892179727100e+02
7.800000000000004707e-01	9.410489630801503154e+02
7.900000000000004796e-01	9.415579457751057362e+02
8.000000000000004885e-01	9.428362172913049335e+02
8.100000000000004974e-01	9.438264822611450882e+02
8.200000000000005063e-01	9.441370804471700922e+02
8.300000000000005151e-01	9.438572073251025358e+02
8.400000000000005240e-01	9.462614397540279469e+02
8.500000000000005329e-01	9.467060028750539686e+02
8.600000000000005418e-01	9.502696258290682181e+02
8.700000000000005507e-01	9.481579558519110833e+02
8.800000000000005596e-01	9.492347134705366898e+02
8.900000000000005684e-01	9.533553800832294201e+02
9.000000000000005773e-01	9.533187222315673353e+02
9.100000000000005862e-01	9.536562201228146023e+02
9.200000000000005951e-01	9.543872415438995631e+02
9.300000000000006040e-01	9.548097688145609254e+02
9.400000000000006128e-01	9.556758807040240526e+02
9.500000000000006217e-01	9.564250561203563166e+02
9.600000000000006306e-01	9.578827620769042142e+02
9.700000000000006395e-01	9.568638273112605930e+02
9.800000000000006484e-01	9.591744291849556703e+02
9.900000000000006573e-01	9.609223751089211873e+02
1.000000000000000666e+00	9.612756537672120203e+02
1.010000000000000675e+00	9.604269755245732085e+02
1.000000000000000666e+00	9.606820149312094372e+02
9.900000000000006573e-01	9.572190373806195112e+02
9.800000000000006484e-01	9.594122704610715573e+02
9.700000000000006395e-01	9.587419799206660400e+02
9.600000000000006306e-01	9.570665452507967075e+02
9.500000000000006217e-01	9.558431947131088009e+02
9.400000000000006128e-01	9.542912026804499419e+02
9.300000000000006040e-01	9.541667924888345169e+02
9.200000000000005951e-01	9.559743620529091004e+02
9.100000000000005862e-01	9.526136469570133158e+02
9.000000000000005773e-01	9.540177655149859675e+02
8.900000000000005684e-01	9.543009843503268712e+02
8.800000000000005596e-01	9.496923195340563097e+02
8.700000000000005507e-01	9.498672301836277256e+02
8.600000000000005418e-01	9.488064181358245150e+02
8.500000000000005329e-01	9.470485137303347756e+02
8.400000000000005240e-01	9.474373478224295013e+02
8.300000000000005151e-01	9.445765218679352984e+02
8.200000000000005063e-01	9.452309119121468939e+02
8.100000000000004974e-01	9.436634856293583198e+02
8.000000000000004885e-01	9.402107723915471524e+02
7.900000000000004796e-01	9.400486022390706466e+02
7.800000000000004707e-01	9.399105050581417800e+02
7.700000000000004619e-01	9.383609817982940058e+02
7.600000000000004530e-01	9.353499237557815604e+02
7.500000000000004441e-01	9.353498769923991176e+02
7.400000000000004352e-01	9.363515925428498576e+02
7.300000000000004263e-01	9.338428423825453137e+02
7.200000000000004174e-01	9.336175865571522081e+02
7.100000000000004086e-01	9.291095289814737725e+02
7.000000000000003997e-01	9.286959221516210619e+02
6.900000000000003908e-01	9.233425819876821379e+02
6.800000000000003819e-01	9.266127487942927701e+02
6.700000000000003730e-01	9.190584243368080024e+02
6.600000000000003642e-01	9.216882085656976642e+02
6.500000000000003553e-01	9.200551500604792636e+02
6.400000000000003464e-01	9.154651893391513795e+02
6.300000000000003375e-01	9.169384313019210140e+02
6.200000000000003286e-01	9.112968217510491513e+02
6.100000000000003197e-01	9.096702525315296270e+02
6.000000000000003109e-01	9.082508305553340051e+02
5.900000000000003020e-01	9.076660122294833855e+02
5.800000000000002931e-01	9.056852618881096078e+02
5.700000000000002842e-01	9.019754901944324956e+02
5.600000000000002753e-01	8.971340156822647032e+02
5.500000000000002665e-01	8.925197762857490034e+02
5.400000000000002576e-01	8.902668992447274832e+02
5.300000000000002487e-01	8.883127763602639106e+02
5.200000000000002398e-01	8.877855123804430377e+02
5.100000000000002309e-01	8.810022087835736784e+02
5.000000000000002220e-01	8.770756261924976798e+02
4.900000000000002132e-01	8.759882755150850926e+02
4.800000000000002043e-01	8.740240746379137136e+02
4.700000000000001954e-01	8.675693479504062680e+02
4.600000000000001865e-01	8.648827657817797672e+02
4.500000000000001776e-01	8.567081666715351957e+02
4.400000000000001688e-01	8.560370609210335715e+02
4.300000000000001599e-01	8.535046922942061656e+02
4.200000000000001510e-01	8.458881761296054265e+02
4.100000000000001421e-01	8.464024597816925279e+02
4.000000000000001332e-01	8.429769803891051652e+02
3.900000000000001243e-01	8.381859940845788515e+02
3.800000000000001155e-01	8.334616591995485351e+02
3.700000000000001066e-01	8.264686390764902626e+02
3.600000000000000977e-01	8.286190734541170286e+02
3.500000000000000888e-01	8.165946026758855396e+02
3.400000000000000799e-01	8.125197453626974493e+02
3.300000000000000711e-01	8.116718794636623215e+02
3.200000000000000622e-01	8.101811178524058050e+02
3.100000000000000533e-01	8.058079782365641677e+02
3.000000000000000444e-01	7.961932593893216108e+02
2.900000000000000355e-01	7.889268466988459068e+02
2.800000000000000266e-01	7.801358731014190653e+02
2.700000000000000178e-01	7.842076119985937339e+02
2.600000000000000089e-01	7.733246819136625163e+02
2.500000000000000000e-01	7.630259096437492872e+02
2.399999999999999911e-01	7.658456505006477073e+02
2.299999999999999822e-01	7.567278286579930864e+02
2.199999999999999734e-01	7.604598343405747300e+02
2.099999999999999645e-01	7.462772800423325634e+02
1.999999999999999556e-01	7.377816006033281155e+02
1.899999999999999467e-01	7.345639852898812023e+02
1.799999999999999378e-01	7.329359683531483824e+02
1.699999999999999289e-01	7.289763139590809260e+02
1.599999999999999201e-01	7.200718732443904173e+02
1.499999999999999112e-01	7.153978904422458527e+02
1.399999999999999023e-01	7.062314716633555918e+02
1.299999999999998934e-01	6.985750627789127520e+02
1.199999999999998984e-01	6.928271634123228750e+02
1.099999999999999034e-01	6.883834825271711679e+02
9.999999999999990841e-02	6.792267582571296316e+02
8.999999999999991340e-02	6.701968891074682233e+02
7.999999999999991840e-02	6.722995516521511945e+02
6.999999999999992339e-02	6.626575059233125558e+02
5.999999999999992145e-02	6.553613599783481050e+02
4.999999999999991951e-02	6.473850670163042196e+02
3.999999999999991757e-02	6.415561510358213582e+02
2.999999999999991562e-02	6.325686739731837633e+02
1.999999999999991368e-02	6.240157051970953717e+02
9.999999999999913472e-03	6.174358724580553144e+02
-8.673617379884035472e-17	6.105576457838200213e+02
-1.000000000000008694e-02	6.030088628951081091e+02
-2.000000000000008715e-02	5.898507086997616398e+02
-3.000000000000008910e-02	5.897639519183827588e+02
-4.000000000000009104e-02	5.805950741827716683e+02
-5.000000000000009298e-02	5.668450746325141836e+02
-6.000000000000009492e-02	5.600273578067582321e+02
-7.000000000000008993e-02	5.533448166002358448e+02
-8.000000000000008493e-02	5.436600435876147230e+02
-9.000000000000007994e-02	5.310617388653621447e+02
-1.000000000000000749e-01	5.181951781059497080e+02
-1.100000000000000699e-01	5.076621619456265080e+02
-1.200000000000000649e-01	5.051673468592387621e+02
-1.300000000000000600e-01	4.940741503414355975e+02
-1.400000000000000688e-01	4.765475105051201581e+02
-1.500000000000000777e-01	4.654633073686124476e+02
-1.600000000000000866e-01	4.532045969920254720e+02
-1.700000000000000955e-01	4.374469668537436746e+02
-1.800000000000001044e-01	4.242181438278667542e+02
-1.900000000000001132e-01	4.133756786328335124e+02
-2.000000000000001221e-01	4.013737750611624620e+02
-2.100000000000001310e-01	3.759910500647097820e+02
-2.200000000000001399e-01	3.529402961142891968e+02
-2.300000000000001488e-01	3.297119185616287496e+02
-2.400000000000001577e-01	2.921733275717833180e+02
-2.500000000000001665e-01	2.399915093229031982e+02
-2.600000000000001754e-01	1.743181740744553565e+02
-2.700000000000001843e-01	8.944038903850665179e+01
-2.800000000000001932e-01	1.070676999603691648e+01
-2.900000000000002021e-01	-9.997011108598920259e+01
-3.000000000000002109e-01	-2.100819751682304286e+02
-3.100000000000002198e-01	-3.307283899629110238e+02
-3.200000000000002287e-01	-4.219662603125692613e+02
-3.300000000000002376e-01	-4.999587977960545118e+02
-3.400000000000002465e-01	-5.463272072435761402e+02
-3.500000000000002554e-01	-5.948002136222638683e+02
-3.600000000000002642e-01	-6.429961386437877309e+02
-3.700000000000002731e-01	-6.820530510749260884e+02
-3.800000000000002820e-01	-7.314888994121801034e+02
-3.900000000000002909e-01	-7.545279920588245659e+02
-4.000000000000002998e-01	-7.874134616304838801e+02
-4.100000000000003086e-01	-7.984504088342092700e+02
-4.200000000000003175e-01	-8.184134473030347863e+02
-4.300000000000003264e-01	-8.305327488176139923e+02
-4.400000000000003353e-01	-8.412196582014306614e+02
-4.500000000000003442e-01	-8.538982800781158176e+02
-4.600000000000003531e-01	-8.598626075049461406e+02
-4.700000000000003619e-01	-8.638105349605535821e+02
-4.800000000000003708e-01	-8.723623687633941017e+02
-4.900000000000003797e-01	-8.738822437822224174e+02
-5.000000000000003331e-01	-8.830991587952756845e+02
-5.100000000000003419e-01	-8.818740446803133182e+02
-5.200000000000003508e-01	-8.828075379879808224e+02
-5.300000000000003597e-01	-8.921736701745593336e+02
-5.400000000000003686e-01	-8.889151954360753507e+02
-5.500000000000003775e-01	-8.910957400465676983e+02
-5.600000000000003864e-01	-8.985670213791651122e+02
-5.700000000000003952e-01	-9.001075338039613598e+02
-5.800000000000004041e-01	-8.997319624743327040e+02
-5.900000000000004130e-01	-9.051189301281019652e+02
-6.000000000000004219e-01	-9.110553642219592803e+02
-6.100000000000004308e-01	-9.084944938577187941e+02
-6.200000000000004396e-01	-9.119542751650817536e+02
-6.300000000000004485e-01	-9.141574491730377758e+02
-6.400000000000004574e-01	-9.174000144418557738e+02
-6.500000000000004663e-01	-9.173082757136349983e+02
-6.600000000000004752e-01	-9.223109690861982699e+02
-6.700000000000004841e-01	-9.219166145161125314e+02
-6.800000000000004929e-01	-9.240599671387283252e+02
-6.900000000000005018e-01	-9.270983699233677271e+02
-7.000000000000005107e-01	-9.277581215216935107e+02
-7.100000000000005196e-01	-9.303510228035266891e+02
-7.200000000000005285e-01	-9.294193168915330716e+02
-7.300000000000005373e-01	-9.330150212056576038e+02
-7.400000000000005462e-01	-9.329662301546233039e+02
-7.500000000000005551e-01	-9.351217849083634519e+02
-7.600000000000005640e-01	-9.358989274421729760e+02
-7.700000000000005729e-01	-9.370184097802048200e+02
-7.800000000000005818e-01	-9.411300521322147006e+02
-7.900000000000005906e-01	-9.405232231973141097e+02
-8.000000000000005995e-01	-9.412379629366771496e+02
-8.100000000000006084e-01	-9.471280037932764344e+02
-8.200000000000006173e-01	-9.428502355493980076e+02
-8.300000000000006262e-01	-9.460907027259996767e+02
-8.400000000000006350e-01	-9.456716844417292123e+02
-8.500000000000006439e-01	-9.472226950973184785e+02
-8.600000000000006528e-01	-9.459900790610701051e+02
-8.700000000000006617e-01	-9.501680621754109097e+02
-8.800000000000006706e-01	-9.536551211184590784e+02
-8.900000000000006795e-01	-9.517774981818342894e+02
-9.000000000000006883e-01	-9.518596800585592064e+02
-9.100000000000006972e-01	-9.542334152332059602e+02
-9.200000000000007061e-01	-9.549062553073256367e+02
-9.300000000000007150e-01	-9.540282030388223120e+02
-9.400000000000007239e-01	-9.555926897389437045e+02
-9.500000000000007327e-01	-9.564909529135227331e+02
-9.600000000000007416e-01	-9.551691350205547906e+02
-9.700000000000007505e-01	-9.568190060092335898e+02
-9.800000000000007594e-01	-9.595904200854361079e+02
-9.700000000000007505e-01	-9.600549005121692971e+02
-9.600000000000007416e-01	-9.592957890766589344e+02
-9.500000000000007327e-01	-9.571899867879709518e+02
-9.400000000000007239e-01	-9.555548109497981386e+02
-9.300000000000007150e-01	-9.547636197062792007e+02
-9.200000000000007061e-01	-9.545476526405623190e+02
-9.100000000000006972e-01	-9.545852802352414983e+02
-9.000000000000006883e-01	-9.537143908366970209e+02
-8.900000000000006795e-01	-9.505342410624754166e+02
-8.800000000000006706e-01	-9.495554720895227092e+02
-8.700000000000006617e-01	-9.487756772742213798e+02
-8.600000000000006528e-01	-9.508424981073110303e+02
-8.500000000000006439e-01	-9.472905049700339077e+02
-8.400000000000006350e-01	-9.481776313658389199e+02
-8.300000000000006262e-01	-9.460818439794935557e+02
-8.200000000000006173e-01	-9.455390832424604923e+02
-8.100000000000006084e-01	-9.435293529934887147e+02
-8.000000000000005995e-01	-9.432345478743018248e+02
-7.900000000000005906e-01	-9.384370813532458442e+02
-7.800000000000005818e-01	-9.394115201087894320e+02
-7.700000000000005729e-01	-9.390487500423779466e+02
-7.600000000000005640e-01	-9.384720658748705091e+02
-7.500000000000005551e-01	-9.356825673342685832e+02
-7.400000000000005462e-01	-9.354166470704934682e+02
-7.300000000000005373e-01	-9.326494224755308551e+02
-7.200000000000005285e-01	-9.331268913232487421e+02
-7.100000000000005196e-01	-9.271153684228418115e+02
-7.000000000000005107e-01	-9.290912288464276116e+02
-6.900000000000005018e-01	-9.262165976647094112e+02
-6.800000000000004929e-01	-9.252181687242748467e+02
-6.700000000000004841e-01	-9.240227254286535299e+02
-6.600000000000004752e-01	-9.226775135719590253e+02
-6.500000000000004663e-01	-9.189215101028820527e+02
-6.400000000000004574e-01	-9.189579920598200715e+02
-6.300000000000004485e-01	-9.155395317454526776e+02
-6.200000000000004396e-01	-9.142441542237665999e+02
-6.100000000000004308e-01	-9.099889653130711622e+02
-6.000000000000004219e-01	-9.089924713828829681e+02
-5.900000000000004130e-01	-9.044290528065046146e+02
-5.800000000000004041e-01	-9.002374497051384878e+02
-5.700000000000003952e-01	-8.982169490116278894e+02
-5.600000000000003864e-01	-8.945295856555339924e+02
-5.500000000000003775e-01	-8.919374968847073433e+02
-5.400000000000003686e-01	-8.946294124971014980e+02
-5.300000000000003597e-01	-8.890336887469102294e+02
-5.200000000000003508e-01	-8.829598181815109683e+02
-5.100000000000003419e-01	-8.803545218974213640e+02
-5.000000000000003331e-01	-8.799637436007668612e+02
-4.900000000000003242e-01	-8.777441199003521888e+02
-4.800000000000003153e-01	-8.721915837332072670e+02
-4.700000000000003064e-01	-8.699143247099819973e+02
-4.600000000000002975e-01	-8.669351557234127768e+02
-4.500000000000002887e-01	-8.613784644294340751e+02
-4.400000000000002798e-01	-8.564704368842891427e+02
-4.300000000000002709e-01	-8.529224477657506895e+02
-4.200000000000002620e-01	-8.502281451847400149e+02
-4.100000000000002531e-01	-8.439605135794638500e+02
-4.000000000000002442e-01	-8.407619720298645234e+02
-3.900000000000002354e-01	-8.356791641343770607e+02
-3.800000000000002265e-01	-8.339994314652684579e+02
-3.700000000000002176e-01	-8.285726171382940493e+02
-3.600000000000002087e-01	-8.219694966402248610e+02
-3.500000000000001998e-01	-8.205955210014199110e+02
-3.400000000000001910e-01	-8.126871878539731142e+02
-3.300000000000001821e-01	-8.104241951442921845e+02
-3.200000000000001732e-01	-8.063163725132014861e+02
-3.100000000000001643e-01	-8.008009685598311762e+02
-3.000000000000001554e-01	-7.933957116868846242e+02
-2.900000000000001465e-01	-7.935139394496746945e+02
-2.800000000000001377e-01	-7.886203901819877728e+02
-2.700000000000001288e-01	-7.822854742904555678e+02
-2.600000000000001199e-01	-7.805492234972443839e+02
-2.500000000000001110e-01	-7.766977346611868143e+02
-2.400000000000001021e-01	-7.660954151727312365e+02
-2.300000000000000933e-01	-7.597049145586697705e+02
-2.200000000000000844e-01	-7.546137435986696573e+02
-2.100000000000000755e-01	-7.504323679304204688e+02
-2.000000000000000666e-01	-7.427965143964502204e+02
-1.900000000000000577e-01	-7.372798282983634408e+02
-1.800000000000000488e-01	-7.318862955266326935e+02
-1.700000000000000400e-01	-7.271811759744865640e+02
-1.600000000000000311e-01	-7.159063986368263386e+02
-1.500000000000000222e-01	-7.166556947428709918e+02
-1.400000000000000133e-01	-7.104180222114362095e+02
-1.300000000000000044e-01	-7.065567690129308858e+02
-1.200000000000000094e-01	-6.964943073388809580e+02
-1.100000000000000144e-01	-6.901132190396652959e+02
-1.000000000000000194e-01	-6.835914359688554214e+02
-9.000000000000002442e-02	-6.784500791320522239e+02
-8.000000000000002942e-02	-6.733260163710303914e+02
-7.000000000000003442e-02	-6.604472394541214726e+02
-6.000000000000003247e-02	-6.560761951287886404e+02
-5.000000000000003053e-02	-6.451987928863575235e+02
-4.000000000000002859e-02	-6.373128920677570477e+02
-3.000000000000002665e-02	-6.349141647930556474e+02
-2.000000000000002470e-02	-6.245418057638308937e+02
-1.000000000000002449e-02	-6.170351631880438390e+02
-2.428612866367529932e-17	-6.109792166974575593e+02
9.999999999999975922e-03	-6.020522819806238886e+02
1.999999999999997613e-02	-5.948131968308264277e+02
2.999999999999997807e-02	-5.836641041749468286e+02
3.999999999999998002e-02	-5.759800203757085910e+02
4.999999999999998196e-02	-5.722672977626473312e+02
5.999999999999998390e-02	-5.567226739158352302e+02
6.999999999999997891e-02	-5.447450670266289308e+02
7.999999999999997391e-02	-5.429597231247212221e+02
8.999999999999996891e-02	-5.263083479513855991e+02
9.999999999999996392e-02	-5.172084779280444309e+02
1.099999999999999589e-01	-5.070781601039809061e+02
1.199999999999999539e-01	-5.018342211089723151e+02
1.299999999999999489e-01	-4.788929170340469454e+02
1.399999999999999578e-01	-4.721123994139609863e+02
1.499999999999999667e-01	-4.732968687973511805e+02
1.599999999999999756e-01	-4.509605444394014171e+02
1.699999999999999845e-01	-4.385115576031929550e+02
1.799999999999999933e-01	-4.238649895065815940e+02
1.900000000000000022e-01	-4.110211783703557558e+02
2.000000000000000111e-01	-3.963498491668537440e+02
2.100000000000000200e-01	-3.825369843110093484e+02
2.200000000000000289e-01	-3.586058290195438758e+02
2.300000000000000377e-01	-3.358807204747646438e+02
2.400000000000000466e-01	-3.077082429541348461e+02
2.500000000000000555e-01	-2.567059124417015141e+02
2.600000000000000644e-01	-2.066447535346345887e+02
2.700000000000000733e-01	-1.244189683677680023e+02
2.800000000000000822e-01	-5.213632024417601230e+01
2.900000000000000910e-01	7.167390195471708125e+01
3.000000000000000999e-01	2.013881964928667685e+02
3.100000000000001088e-01	3.102426485993254346e+02
3.200000000000001177e-01	3.914579223630025240e+02
3.300000000000001266e-01	4.574177391929137571e+02
3.400000000000001354e-01	5.328313194265035690e+02
3.500000000000001443e-01	5.933345419596638521e+02
3.600000000000001532e-01	6.512291670196223095e+02
3.700000000000001621e-01	6.976546452177731226e+02
3.800000000000001710e-01	7.268750623105364639e+02
3.900000000000001799e-01	7.495558877435674958e+02
4.000000000000001887e-01	7.690652425036038267e+02
4.100000000000001976e-01	7.927271304203281943e+02
4.200000000000002065e-01	8.132107692249940101e+02
4.300000000000002154e-01	8.283941118289775432e+02
4.400000000000002243e-01	8.388195057069510767e+02
4.500000000000002331e-01	8.532474332477977441e+02
4.600000000000002420e-01	8.611937008947194272e+02
4.700000000000002509e-01	8.678826179531226899e+02
4.800000000000002598e-01	8.686514791146819334e+02
4.900000000000002687e-01	8.736574462103968699e+02
5.000000000000002220e-01	8.801785992329777173e+02
5.100000000000002309e-01	8.824838585438435530e+02
5.200000000000002398e-01	8.849254817278174414e+02
5.300000000000002487e-01	8.880348848396727135e+02
5.400000000000002576e-01	8.921018587385289038e+02
5.500000000000002665e-01	8.962645657011483991e+02
5.600000000000002753e-01	8.985535191848861132e+02
5.700000000000002842e-01	9.002660676705498872e+02
5.800000000000002931e-01	8.998138397230586634e+02
5.900000000000003020e-01	9.045718037094927695e+02
6.000000000000003109e-01	9.081980169371178135e+02
6.100000000000003197e-01	9.086698869937988547e+02
6.200000000000003286e-01	9.136905504787712289e+02
6.300000000000003375e-01	9.108094853057189084e+02
6.400000000000003464e-01	9.166462390669755678e+02
6.500000000000003553e-01	9.197311381538180513e+02
6.600000000000003642e-01	9.217596306138877935e+02
6.700000000000003730e-01	9.222525328785859529e+02
6.800000000000003819e-01	9.244052397302842792e+02
6.900000000000003908e-01	9.251291587052023715e+02
7.000000000000003997e-01	9.281677807760731866e+02
7.100000000000004086e-01	9.321549743403360253e+02
7.200000000000004174e-01	9.313550805306033453e+02
7.300000000000004263e-01	9.311803117188766237e+02
7.400000000000004352e-01	9.347157589186647328e+02
7.500000000000004441e-01	9.344010965720794957e+02
7.600000000000004530e-01	9.347777615735659538e+02
7.700000000000004619e-01	9.399065246432365939e+02
7.800000000000004707e-01	9.396320659428540694e+02
7.900000000000004796e-01	9.392826414047780190e+02
8.000000000000004885e-01	9.434543725837509101e+02
8.100000000000004974e-01	9.454732179305840418e+02
8.200000000000005063e-01	9.447474666535957795e+02
8.300000000000005151e-01	9.478944931166223569e+02
8.400000000000005240e-01	9.482573977196983606e+02
8.500000000000005329e-01	9.479631649015124140e+02
8.600000000000005418e-01	9.486334617271915022e+02
8.700000000000005507e-01	9.511885477591403060e+02
8.800000000000005596e-01	9.517830619207720702e+02
8.900000000000005684e-01	9.508615027971655991e+02
9.000000000000005773e-01	9.520694943070818681e+02
9.100000000000005862e-01	9.534945529322322955e+02
9.200000000000005951e-01	9.541949584162171050e+02
9.300000000000006040e-01	9.519915832100565467e+02
9.400000000000006128e-01	9.541828875301221160e+02
9.500000000000006217e-01	9.561963703495829350e+02
9.600000000000006306e-01	9.565548036691415064e+02
9.700000000000006395e-01	9.566635921827194124e+02
9.800000000000006484e-01	9.596080398722483551e+02
9.900000000000006573e-01	9.595522825532592606e+02
1.000000000000000666e+00	9.604952201141268233e+02
0.000000000000000000e+00	0.000000000000000000e+00
0.000000000000000000e+00	0.000000000000000000e+00
0.000000000000000000e+00	0.000000000000000000e+00
0.000000000000000000e+00	0.000000000000000000e+00
0.000000000000000000e+00	0.000000000000000000e+00
0.000000000000000000e+00	0.000000000000000000e+00
0.000000000000000000e+00	0.000000000000000000e+00
0.000000000000000000e+00	0.000000000000000000e+00
0.000000000000000000e+00	0.000000000000000000e+00
0.000000000000000000e+00	0.000000000000000000e+00
0.000000000000000000e+00	0.000000000000000000e+00
0.000000000000000000e+00	0.000000000000000000e+00
0.000000000000000000e+00	6.558869668236300248e-319
0.000000000000000000e+00	0.000000000000000000e+00
0.000000000000000000e+00	0.000000000000000000e+00
0.000000000000000000e+00	0.000000000000000000e+00
0.000000000000000000e+00	0.000000000000000000e+00
0.000000000000000000e+00	0.000000000000000000e+00
0.000000000000000000e+00	0.000000000000000000e+00
0.000000000000000000e+00	0.000000000000000000e+00
0.000000000000000000e+00	0.000000000000000000e+00
0.000000000000000000e+00	0.000000000000000000e+00
0.000000000000000000e+00	0.000000000000000000e+00
0.000000000000000000e+00	0.000000000000000000e+00
0.000000000000000000e+00	0.000000000000000000e+00
0.000000000000000000e+00	0.000000000000000000e+00
0.000000000000000000e+00	0.000000000000000000e+00
0.000000000000000000e+00	0.000000000000000000e+00
0.000000000000000000e+00	0.000000000000000000e+00
0.000000000000000000e+00	0.000000000000000000e+00
0.000000000000000000e+00	0.000000000000000000e+00
0.000000000000000000e+00	0.000000000000000000e+00
0.000000000000000000e+00	0.000000000000000000e+00
0.000000000000000000e+00	0.000000000000000000e+00
0.000000000000000000e+00	0.000000000000000000e+00
0.000000000000000000e+00	0.000000000000000000e+00
0.000000000000000000e+00	0.000000000000000000e+00
0.000000000000000000e+00	0.000000000000000000e+00
0.000000000000000000e+00	0.000000000000000000e+00
0.000000000000000000e+00	0.000000000000000000e+00
0.000000000000000000e+00	0.000000000000000000e+00
0.000000000000000000e+00	0.000000000000000000e+00
0.000000000000000000e+00	0.000000000000000000e+00
0.000000000000000000e+00	0.000000000000000000e+00
0.000000000000000000e+00	0.000000000000000000e+00
0.000000000000000000e+00	0.000000000000000000e+00
0.000000000000000000e+00	0.000000000000000000e+00
0.000000000000000000e+00	0.000000000000000000e+00
0.000000000000000000e+00	0.000000000000000000e+00
0.000000000000000000e+00	0.000000000000000000e+00
0.000000000000000000e+00	0.000000000000000000e+00
0.000000000000000000e+00	0.000000000000000000e+00
0.000000000000000000e+00	0.000000000000000000e+00
0.000000000000000000e+00	0.000000000000000000e+00
0.000000000000000000e+00	0.000000000000000000e+00
0.000000000000000000e+00	0.000000000000000000e+00
0.000000000000000000e+00	0.000000000000000000e+00
0.000000000000000000e+00	0.000000000000000000e+00
0.000000000000000000e+00	0.000000000000000000e+00
0.000000000000000000e+00	0.000000000000000000e+00
0.000000000000000000e+00	0.000000000000000000e+00
0.000000000000000000e+00	0.000000000000000000e+00
0.000000000000000000e+00	0.000000000000000000e+00
0.000000000000000000e+00	0.000000000000000000e+00
0.000000000000000000e+00	0.000000000000000000e+00
0.000000000000000000e+00	0.000000000000000000e+00
0.000000000000000000e+00	0.000000000000000000e+00
0.000000000000000000e+00	0.000000000000000000e+00
0.000000000000000000e+00	0.000000000000000000e+00
0.000000000000000000e+00	0.000000000000000000e+00
0.000000000000000000e+00	0.000000000000000000e+00
0.000000000000000000e+00	0.000000000000000000e+00
0.000000000000000000e+00	0.000000000000000000e+00
0.000000000000000000e+00	0.000000000000000000e+00
0.000000000000000000e+00	0.000000000000000000e+00
0.000000000000000000e+00	0.000000000000000000e+00
0.000000000000000000e+00	0.000000000000000000e+00
0.000000000000000000e+00	0.000000000000000000e+00
0.000000000000000000e+00	0.000000000000000000e+00
0.000000000000000000e+00	0.000000000000000000e+00
0.000000000000000000e+00	0.000000000000000000e+00
0.000000000000000000e+00	0.000000000000000000e+00
0.000000000000000000e+00	0.000000000000000000e+00
0.000000000000000000e+00	0.000000000000000000e+00
0.000000000000000000e+00	0.000000000000000000e+00
0.000000000000000000e+00	0.000000000000000000e+00
0.000000000000000000e+00	0.000000000000000000e+00
0.000000000000000000e+00	0.000000000000000000e+00
0.000000000000000000e+00	0.000000000000000000e+00
0.000000000000000000e+00	0.000000000000000000e+00
0.000000000000000000e+00	0.000000000000000000e+00
0.000000000000000000e+00	0.000000000000000000e+00
0.000000000000000000e+00	0.000000000000000000e+00
0.000000000000000000e+00	0.000000000000000000e+00
0.000000000000000000e+00	0.000000000000000000e+00
0.000000000000000000e+00	0.000000000000000000e+00
0.000000000000000000e+00	0.000000000000000000e+00
0.000000000000000000e+00	0.000000000000000000e+00
0.000000000000000000e+00	0.000000000000000000e+00
0.000000000000000000e+00	0.000000000000000000e+00
0.000000000000000000e+00	0.000000000000000000e+00
0.000000000000000000e+00	0.000000000000000000e+00
0.000000000000000000e+00	0.000000000000000000e+00
0.000000000000000000e+00	0.000000000000000000e+00
0.000000000000000000e+00	0.000000000000000000e+00
0.000000000000000000e+00	0.000000000000000000e+00
0.000000000000000000e+00	0.000000000000000000e+00
0.000000000000000000e+00	0.000000000000000000e+00
0.000000000000000000e+00	0.000000000000000000e+00
0.000000000000000000e+00	0.000000000000000000e+00
0.000000000000000000e+00	0.000000000000000000e+00
0.000000000000000000e+00	0.000000000000000000e+00
0.000000000000000000e+00	0.000000000000000000e+00
0.000000000000000000e+00	0.000000000000000000e+00
0.000000000000000000e+00	0.000000000000000000e+00
0.000000000000000000e+00	0.000000000000000000e+00
0.000000000000000000e+00	0.000000000000000000e+00
0.000000000000000000e+00	0.000000000000000000e+00
0.000000000000000000e+00	0.000000000000000000e+00
0.000000000000000000e+00	0.000000000000000000e+00
0.000000000000000000e+00	0.000000000000000000e+00
0.000000000000000000e+00	0.000000000000000000e+00
0.000000000000000000e+00	0.000000000000000000e+00
0.000000000000000000e+00	0.000000000000000000e+00
0.000000000000000000e+00	0.000000000000000000e+00
0.000000000000000000e+00	0.000000000000000000e+00
0.000000000000000000e+00	0.000000000000000000e+00
0.000000000000000000e+00	0.000000000000000000e+00
0.000000000000000000e+00	0.000000000000000000e+00
0.000000000000000000e+00	0.000000000000000000e+00
0.000000000000000000e+00	0.000000000000000000e+00
0.000000000000000000e+00	0.000000000000000000e+00
0.000000000000000000e+00	0.000000000000000000e+00
0.000000000000000000e+00	0.000000000000000000e+00
0.000000000000000000e+00	0.000000000000000000e+00
0.000000000000000000e+00	0.000000000000000000e+00
0.000000000000000000e+00	0.000000000000000000e+00
0.000000000000000000e+00	0.000000000000000000e+00
0.000000000000000000e+00	0.000000000000000000e+00
0.000000000000000000e+00	0.000000000000000000e+00
0.000000000000000000e+00	0.000000000000000000e+00
0.000000000000000000e+00	0.000000000000000000e+00
0.000000000000000000e+00	0.000000000000000000e+00
0.000000000000000000e+00	0.000000000000000000e+00
0.000000000000000000e+00	0.000000000000000000e+00
0.000000000000000000e+00	0.000000000000000000e+00
0.000000000000000000e+00	0.000000000000000000e+00
0.000000000000000000e+00	0.000000000000000000e+00
0.000000000000000000e+00	0.000000000000000000e+00
0.000000000000000000e+00	0.000000000000000000e+00
0.000000000000000000e+00	0.000000000000000000e+00
0.000000000000000000e+00	0.000000000000000000e+00
0.000000000000000000e+00	0.000000000000000000e+00
0.000000000000000000e+00	0.000000000000000000e+00
0.000000000000000000e+00	0.000000000000000000e+00
0.000000000000000000e+00	0.000000000000000000e+00
0.000000000000000000e+00	0.000000000000000000e+00
0.000000000000000000e+00	0.000000000000000000e+00
0.000000000000000000e+00	0.000000000000000000e+00
0.000000000000000000e+00	0.000000000000000000e+00
0.000000000000000000e+00	0.000000000000000000e+00
0.000000000000000000e+00	0.000000000000000000e+00
0.000000000000000000e+00	0.000000000000000000e+00
0.000000000000000000e+00	0.000000000000000000e+00
0.000000000000000000e+00	0.000000000000000000e+00
0.000000000000000000e+00	0.000000000000000000e+00
0.000000000000000000e+00	0.000000000000000000e+00
0.000000000000000000e+00	0.000000000000000000e+00
0.000000000000000000e+00	0.000000000000000000e+00
0.000000000000000000e+00	0.000000000000000000e+00
0.000000000000000000e+00	0.000000000000000000e+00
0.000000000000000000e+00	0.000000000000000000e+00
0.000000000000000000e+00	0.000000000000000000e+00
0.000000000000000000e+00	0.000000000000000000e+00
0.000000000000000000e+00	0.000000000000000000e+00
0.000000000000000000e+00	0.000000000000000000e+00
0.000000000000000000e+00	0.000000000000000000e+00
0.000000000000000000e+00	0.000000000000000000e+00
0.000000000000000000e+00	0.000000000000000000e+00
0.000000000000000000e+00	0.000000000000000000e+00
0.000000000000000000e+00	0.000000000000000000e+00
0.000000000000000000e+00	0.000000000000000000e+00
0.000000000000000000e+00	0.000000000000000000e+00
0.000000000000000000e+00	0.000000000000000000e+00
0.000000000000000000e+00	0.000000000000000000e+00
0.000000000000000000e+00	0.000000000000000000e+00
0.000000000000000000e+00	0.000000000000000000e+00
0.000000000000000000e+00	0.000000000000000000e+00
0.000000000000000000e+00	0.000000000000000000e+00
0.000000000000000000e+00	0.000000000000000000e+00
0.000000000000000000e+00	0.000000000000000000e+00
0.000000000000000000e+00	0.000000000000000000e+00
0.000000000000000000e+00	0.000000000000000000e+00
0.000000000000000000e+00	0.000000000000000000e+00
0.000000000000000000e+00	0.000000000000000000e+00
0.000000000000000000e+00	0.000000000000000000e+00
0.000000000000000000e+00	0.000000000000000000e+00
0.000000000000000000e+00	0.000000000000000000e+00
0.000000000000000000e+00	0.000000000000000000e+00
0.000000000000000000e+00	0.000000000000000000e+00
0.000000000000000000e+00	0.000000000000000000e+00
0.000000000000000000e+00	0.000000000000000000e+00
0.000000000000000000e+00	0.000000000000000000e+00
0.000000000000000000e+00	0.000000000000000000e+00
0.000000000000000000e+00	0.000000000000000000e+00
0.000000000000000000e+00	0.000000000000000000e+00
0.000000000000000000e+00	0.000000000000000000e+00
0.000000000000000000e+00	0.000000000000000000e+00
0.000000000000000000e+00	0.000000000000000000e+00
0.000000000000000000e+00	0.000000000000000000e+00
0.000000000000000000e+00	0.000000000000000000e+00
0.000000000000000000e+00	0.000000000000000000e+00
0.000000000000000000e+00	0.000000000000000000e+00
0.000000000000000000e+00	0.000000000000000000e+00
0.000000000000000000e+00	0.000000000000000000e+00
0.000000000000000000e+00	0.000000000000000000e+00
0.000000000000000000e+00	0.000000000000000000e+00
0.000000000000000000e+00	0.000000000000000000e+00
0.000000000000000000e+00	0.000000000000000000e+00
0.000000000000000000e+00	0.000000000000000000e+00
0.000000000000000000e+00	0.000000000000000000e+00
0.000000000000000000e+00	0.000000000000000000e+00
0.000000000000000000e+00	0.000000000000000000e+00
0.000000000000000000e+00	0.000000000000000000e+00
0.000000000000000000e+00	0.000000000000000000e+00
0.000000000000000000e+00	0.000000000000000000e+00
0.000000000000000000e+00	0.000000000000000000e+00
0.000000000000000000e+00	0.000000000000000000e+00
0.000000000000000000e+00	0.000000000000000000e+00
0.000000000000000000e+00	0.000000000000000000e+00
0.000000000000000000e+00	0.000000000000000000e+00
0.000000000000000000e+00	0.000000000000000000e+00
0.000000000000000000e+00	0.000000000000000000e+00
0.000000000000000000e+00	0.000000000000000000e+00
0.000000000000000000e+00	0.000000000000000000e+00
0.000000000000000000e+00	0.000000000000000000e+00
0.000000000000000000e+00	0.000000000000000000e+00
0.000000000000000000e+00	0.000000000000000000e+00
0.000000000000000000e+00	0.000000000000000000e+00
0.000000000000000000e+00	0.000000000000000000e+00
0.000000000000000000e+00	0.000000000000000000e+00
0.000000000000000000e+00	0.000000000000000000e+00
0.000000000000000000e+00	0.000000000000000000e+00
0.000000000000000000e+00	0.000000000000000000e+00
0.000000000000000000e+00	0.000000000000000000e+00
0.000000000000000000e+00	0.000000000000000000e+00
0.000000000000000000e+00	0.000000000000000000e+00
0.000000000000000000e+00	0.000000000000000000e+00
0.000000000000000000e+00	0.000000000000000000e+00
0.000000000000000000e+00	0.000000000000000000e+00
0.000000000000000000e+00	0.000000000000000000e+00
0.000000000000000000e+00	0.000000000000000000e+00
0.000000000000000000e+00	0.000000000000000000e+00
0.000000000000000000e+00	0.000000000000000000e+00
0.000000000000000000e+00	0.000000000000000000e+00
0.000000000000000000e+00	0.000000000000000000e+00
0.000000000000000000e+00	0.000000000000000000e+00
0.000000000000000000e+00	0.000000000000000000e+00
0.000000000000000000e+00	0.000000000000000000e+00
0.000000000000000000e+00	0.000000000000000000e+00
0.000000000000000000e+00	0.000000000000000000e+00
0.000000000000000000e+00	0.000000000000000000e+00
0.000000000000000000e+00	0.000000000000000000e+00
0.000000000000000000e+00	0.000000000000000000e+00
0.000000000000000000e+00	0.000000000000000000e+00
0.000000000000000000e+00	0.000000000000000000e+00
0.000000000000000000e+00	0.000000000000000000e+00
0.000000000000000000e+00	0.000000000000000000e+00
0.000000000000000000e+00	0.000000000000000000e+00
0.000000000000000000e+00	0.000000000000000000e+00
0.000000000000000000e+00	0.000000000000000000e+00
0.000000000000000000e+00	0.000000000000000000e+00
0.000000000000000000e+00	0.000000000000000000e+00
0.000000000000000000e+00	0.000000000000000000e+00
0.000000000000000000e+00	0.000000000000000000e+00
0.000000000000000000e+00	0.000000000000000000e+00
0.000000000000000000e+00	0.000000000000000000e+00
0.000000000000000000e+00	0.000000000000000000e+00
0.000000000000000000e+00	0.000000000000000000e+00
0.000000000000000000e+00	0.000000000000000000e+00
0.000000000000000000e+00	0.000000000000000000e+00
0.000000000000000000e+00	0.000000000000000000e+00
0.000000000000000000e+00	0.000000000000000000e+00
0.000000000000000000e+00	0.000000000000000000e+00
0.000000000000000000e+00	0.000000000000000000e+00
0.000000000000000000e+00	0.000000000000000000e+00
0.000000000000000000e+00	0.000000000000000000e+00
0.000000000000000000e+00	0.000000000000000000e+00
0.000000000000000000e+00	0.000000000000000000e+00
0.000000000000000000e+00	0.000000000000000000e+00
0.000000000000000000e+00	0.000000000000000000e+00
0.000000000000000000e+00	0.000000000000000000e+00
0.000000000000000000e+00	0.000000000000000000e+00
0.000000000000000000e+00	0.000000000000000000e+00
0.000000000000000000e+00	0.000000000000000000e+00
0.000000000000000000e+00	0.000000000000000000e+00
0.000000000000000000e+00	0.000000000000000000e+00
0.000000000000000000e+00	0.000000000000000000e+00
0.000000000000000000e+00	0.000000000000000000e+00
0.000000000000000000e+00	0.000000000000000000e+00
0.000000000000000000e+00	0.000000000000000000e+00
0.000000000000000000e+00	0.000000000000000000e+00
0.000000000000000000e+00	0.000000000000000000e+00
0.000000000000000000e+00	0.000000000000000000e+00
0.000000000000000000e+00	0.000000000000000000e+00
0.000000000000000000e+00	0.000000000000000000e+00
0.000000000000000000e+00	0.000000000000000000e+00
0.000000000000000000e+00	0.000000000000000000e+00
0.000000000000000000e+00	0.000000000000000000e+00
0.000000000000000000e+00	0.000000000000000000e+00
0.000000000000000000e+00	0.000000000000000000e+00
0.000000000000000000e+00	0.000000000000000000e+00
0.000000000000000000e+00	0.000000000000000000e+00
0.000000000000000000e+00	0.000000000000000000e+00
0.000000000000000000e+00	0.000000000000000000e+00
0.000000000000000000e+00	0.000000000000000000e+00
0.000000000000000000e+00	0.000000000000000000e+00
0.000000000000000000e+00	0.000000000000000000e+00
0.000000000000000000e+00	0.000000000000000000e+00
0.000000000000000000e+00	0.000000000000000000e+00
0.000000000000000000e+00	0.000000000000000000e+00
0.000000000000000000e+00	0.000000000000000000e+00
0.000000000000000000e+00	0.000000000000000000e+00
0.000000000000000000e+00	0.000000000000000000e+00
0.000000000000000000e+00	0.000000000000000000e+00
0.000000000000000000e+00	0.000000000000000000e+00
0.000000000000000000e+00	0.000000000000000000e+00
0.000000000000000000e+00	0.000000000000000000e+00
0.000000000000000000e+00	0.000000000000000000e+00
0.000000000000000000e+00	0.000000000000000000e+00
0.000000000000000000e+00	0.000000000000000000e+00
0.000000000000000000e+00	0.000000000000000000e+00
0.000000000000000000e+00	0.000000000000000000e+00
0.000000000000000000e+00	0.000000000000000000e+00
0.000000000000000000e+00	0.000000000000000000e+00
0.000000000000000000e+00	0.000000000000000000e+00
0.000000000000000000e+00	0.000000000000000000e+00
0.000000000000000000e+00	0.000000000000000000e+00
0.000000000000000000e+00	0.000000000000000000e+00
0.000000000000000000e+00	0.000000000000000000e+00
0.000000000000000000e+00	0.000000000000000000e+00
0.000000000000000000e+00	0.000000000000000000e+00
0.000000000000000000e+00	0.000000000000000000e+00
0.000000000000000000e+00	0.000000000000000000e+00
0.000000000000000000e+00	0.000000000000000000e+00
0.000000000000000000e+00	0.000000000000000000e+00
0.000000000000000000e+00	0.000000000000000000e+00
0.000000000000000000e+00	0.000000000000000000e+00
0.000000000000000000e+00	0.000000000000000000e+00
0.000000000000000000e+00	0.000000000000000000e+00
0.000000000000000000e+00	0.000000000000000000e+00
0.000000000000000000e+00	0.000000000000000000e+00
0.000000000000000000e+00	0.000000000000000000e+00
0.000000000000000000e+00	0.000000000000000000e+00
0.000000000000000000e+00	0.000000000000000000e+00
0.000000000000000000e+00	0.000000000000000000e+00
0.000000000000000000e+00	0.000000000000000000e+00
0.000000000000000000e+00	0.000000000000000000e+00
0.000000000000000000e+00	0.000000000000000000e+00
0.000000000000000000e+00	0.000000000000000000e+00
0.000000000000000000e+00	0.000000000000000000e+00
0.000000000000000000e+00	0.000000000000000000e+00
0.000000000000000000e+00	0.000000000000000000e+00
0.000000000000000000e+00	0.000000000000000000e+00
0.000000000000000000e+00	0.000000000000000000e+00
0.000000000000000000e+00	0.000000000000000000e+00
0.000000000000000000e+00	0.000000000000000000e+00
0.000000000000000000e+00	0.000000000000000000e+00
0.000000000000000000e+00	0.000000000000000000e+00
0.000000000000000000e+00	0.000000000000000000e+00
0.000000000000000000e+00	0.000000000000000000e+00
0.000000000000000000e+00	0.000000000000000000e+00
0.000000000000000000e+00	0.000000000000000000e+00
0.000000000000000000e+00	0.000000000000000000e+00
0.000000000000000000e+00	0.000000000000000000e+00
0.000000000000000000e+00	0.000000000000000000e+00
0.000000000000000000e+00	0.000000000000000000e+00
0.000000000000000000e+00	0.000000000000000000e+00
0.000000000000000000e+00	0.000000000000000000e+00
0.000000000000000000e+00	0.000000000000000000e+00
0.000000000000000000e+00	0.000000000000000000e+00
0.000000000000000000e+00	0.000000000000000000e+00
0.000000000000000000e+00	0.000000000000000000e+00
0.000000000000000000e+00	0.000000000000000000e+00
0.000000000000000000e+00	0.000000000000000000e+00
0.000000000000000000e+00	0.000000000000000000e+00
0.000000000000000000e+00	0.000000000000000000e+00
0.000000000000000000e+00	0.000000000000000000e+00
0.000000000000000000e+00	0.000000000000000000e+00
0.000000000000000000e+00	0.000000000000000000e+00
0.000000000000000000e+00	0.000000000000000000e+00
0.000000000000000000e+00	0.000000000000000000e+00
0.000000000000000000e+00	0.000000000000000000e+00
0.000000000000000000e+00	0.000000000000000000e+00
0.000000000000000000e+00	0.000000000000000000e+00
0.000000000000000000e+00	0.000000000000000000e+00
0.000000000000000000e+00	0.000000000000000000e+00
0.000000000000000000e+00	0.000000000000000000e+00
0.000000000000000000e+00	0.000000000000000000e+00
0.000000000000000000e+00	0.000000000000000000e+00
0.000000000000000000e+00	0.000000000000000000e+00
0.000000000000000000e+00	0.000000000000000000e+00
0.000000000000000000e+00	0.000000000000000000e+00
0.000000000000000000e+00	0.000000000000000000e+00
0.000000000000000000e+00	0.000000000000000000e+00
0.000000000000000000e+00	0.000000000000000000e+00
0.000000000000000000e+00	0.000000000000000000e+00
0.000000000000000000e+00	0.000000000000000000e+00
0.000000000000000000e+00	0.000000000000000000e+00
0.000000000000000000e+00	0.000000000000000000e+00
0.000000000000000000e+00	0.000000000000000000e+00
0.000000000000000000e+00	0.000000000000000000e+00
0.000000000000000000e+00	0.000000000000000000e+00
0.000000000000000000e+00	0.000000000000000000e+00
0.000000000000000000e+00	0.000000000000000000e+00
0.000000000000000000e+00	0.000000000000000000e+00
0.000000000000000000e+00	0.000000000000000000e+00
0.000000000000000000e+00	0.000000000000000000e+00
0.000000000000000000e+00	0.000000000000000000e+00
0.000000000000000000e+00	0.000000000000000000e+00
0.000000000000000000e+00	0.000000000000000000e+00
0.000000000000000000e+00	0.000000000000000000e+00
0.000000000000000000e+00	0.000000000000000000e+00
0.000000000000000000e+00	0.000000000000000000e+00
0.000000000000000000e+00	0.000000000000000000e+00
0.000000000000000000e+00	0.000000000000000000e+00
0.000000000000000000e+00	0.000000000000000000e+00
0.000000000000000000e+00	0.000000000000000000e+00
0.000000000000000000e+00	0.000000000000000000e+00
0.000000000000000000e+00	0.000000000000000000e+00
0.000000000000000000e+00	0.000000000000000000e+00
0.000000000000000000e+00	0.000000000000000000e+00
0.000000000000000000e+00	0.000000000000000000e+00
0.000000000000000000e+00	0.000000000000000000e+00
0.000000000000000000e+00	0.000000000000000000e+00
0.000000000000000000e+00	0.000000000000000000e+00
0.000000000000000000e+00	0.000000000000000000e+00
0.000000000000000000e+00	0.000000000000000000e+00
0.000000000000000000e+00	0.000000000000000000e+00
0.000000000000000000e+00	0.000000000000000000e+00
0.000000000000000000e+00	0.000000000000000000e+00
0.000000000000000000e+00	0.000000000000000000e+00
0.000000000000000000e+00	0.000000000000000000e+00
0.000000000000000000e+00	0.000000000000000000e+00
0.000000000000000000e+00	0.000000000000000000e+00
0.000000000000000000e+00	0.000000000000000000e+00
0.000000000000000000e+00	0.000000000000000000e+00
0.000000000000000000e+00	0.000000000000000000e+00
0.000000000000000000e+00	0.000000000000000000e+00
0.000000000000000000e+00	0.000000000000000000e+00
0.000000000000000000e+00	0.000000000000000000e+00
0.000000000000000000e+00	0.000000000000000000e+00
0.000000000000000000e+00	0.000000000000000000e+00
0.000000000000000000e+00	0.000000000000000000e+00
0.000000000000000000e+00	0.000000000000000000e+00
0.000000000000000000e+00	0.000000000000000000e+00
0.000000000000000000e+00	0.000000000000000000e+00
0.000000000000000000e+00	0.000000000000000000e+00
0.000000000000000000e+00	0.000000000000000000e+00
0.000000000000000000e+00	0.000000000000000000e+00
0.000000000000000000e+00	0.000000000000000000e+00
0.000000000000000000e+00	0.000000000000000000e+00
0.000000000000000000e+00	0.000000000000000000e+00
0.000000000000000000e+00	0.000000000000000000e+00
0.000000000000000000e+00	0.000000000000000000e+00
0.000000000000000000e+00	0.000000000000000000e+00
0.000000000000000000e+00	0.000000000000000000e+00
0.000000000000000000e+00	0.000000000000000000e+00
0.000000000000000000e+00	0.000000000000000000e+00
0.000000000000000000e+00	0.000000000000000000e+00
0.000000000000000000e+00	0.000000000000000000e+00
0.000000000000000000e+00	0.000000000000000000e+00
0.000000000000000000e+00	0.000000000000000000e+00
0.000000000000000000e+00	0.000000000000000000e+00
0.000000000000000000e+00	0.000000000000000000e+00
0.000000000000000000e+00	0.000000000000000000e+00
0.000000000000000000e+00	0.000000000000000000e+00
0.000000000000000000e+00	0.000000000000000000e+00
0.000000000000000000e+00	0.000000000000000000e+00
0.000000000000000000e+00	0.000000000000000000e+00
0.000000000000000000e+00	0.000000000000000000e+00
0.000000000000000000e+00	0.000000000000000000e+00
0.000000000000000000e+00	0.000000000000000000e+00
0.000000000000000000e+00	0.000000000000000000e+00
0.000000000000000000e+00	0.000000000000000000e+00
0.000000000000000000e+00	0.000000000000000000e+00
0.000000000000000000e+00	0.000000000000000000e+00
0.000000000000000000e+00	0.000000000000000000e+00
0.000000000000000000e+00	0.000000000000000000e+00
0.000000000000000000e+00	0.000000000000000000e+00
0.000000000000000000e+00	0.000000000000000000e+00
0.000000000000000000e+00	0.000000000000000000e+00
0.000000000000000000e+00	0.000000000000000000e+00
0.000000000000000000e+00	0.000000000000000000e+00
0.000000000000000000e+00	0.000000000000000000e+00
0.000000000000000000e+00	0.000000000000000000e+00
0.000000000000000000e+00	0.000000000000000000e+00
0.000000000000000000e+00	0.000000000000000000e+00
0.000000000000000000e+00	0.000000000000000000e+00
0.000000000000000000e+00	0.000000000000000000e+00
0.000000000000000000e+00	0.000000000000000000e+00
